Division,WeightClassKg,Place,Name,Team,BodyweightKg,Best3SquatKg,Best3BenchKg,Best3DeadliftKg,TotalKg,Equipment,Event,Sex
Boys,51.71,1,Eric Samayoa,Burleson,49.62,138.35,65.77,158.76,362.87,Single-ply,SBD,M
Boys,51.71,2,Cesar Ledesma,Burleson,46.72,136.08,72.57,145.15,353.8,Single-ply,SBD,M
Boys,51.71,3,Jd Davis,Joshua,51.71,127.01,68.04,117.93,312.98,Single-ply,SBD,M
Boys,51.71,4,Dayton Totz,Burleson Centennial,51.71,113.4,72.57,122.47,308.44,Single-ply,SBD,M
Boys,51.71,5,Roberto Ortiz,Venus,48.99,117.93,65.77,120.2,303.91,Single-ply,SBD,M
Boys,51.71,6,Justin Sitz,Weatherford,49.08,99.79,58.97,124.74,283.5,Single-ply,SBD,M
Boys,51.71,DQ,Tristin Pierce,Belton,50.44,102.06,,,,Single-ply,SBD,M
Boys,51.71,DQ,Josh Lambert,Burleson Centennial,51.26,,,,,Single-ply,SBD,M
Boys,55.79,1,Dylan Quintero,Burleson Centennial,55.79,147.42,83.91,165.56,396.89,Single-ply,SBD,M
Boys,55.79,2,David Cook,Burleson Centennial,55.52,138.35,86.18,163.29,387.82,Single-ply,SBD,M
Boys,55.79,3,Max Castelli,Belton,54.61,140.61,77.11,151.95,369.68,Single-ply,SBD,M
Boys,55.79,4,Triston McDonald,Mansfield Timberview,54.52,142.88,79.38,142.88,365.14,Single-ply,SBD,M
Boys,55.79,5,Titus Newsom,Burleson Centennial,55.79,140.61,63.5,142.88,347,Single-ply,SBD,M
Boys,55.79,6,Gabriel Leal,Venus,54.43,120.2,74.84,129.27,324.32,Single-ply,SBD,M
Boys,55.79,7,Camden Spradley,Midlothian Heritage,52.71,79.38,38.56,102.06,219.99,Single-ply,SBD,M
Boys,59.87,1,Jason Jones,Burleson,59.42,215.46,113.4,235.87,564.72,Single-ply,SBD,M
Boys,59.87,2,Jacob Moss,Burleson,59.69,165.56,97.52,172.37,435.45,Single-ply,SBD,M
Boys,59.87,3,Noah Finch,Burleson,58.65,161.03,74.84,172.37,408.23,Single-ply,SBD,M
Boys,59.87,4,Elisha Jones,Cedar Hill,59.51,147.42,92.99,140.61,381.02,Single-ply,SBD,M
Boys,59.87,5,Andrew Alcala,Mansfield Timberview,58.06,154.22,72.57,120.2,347,Single-ply,SBD,M
Boys,59.87,DQ,Christian Fagan,Cedar Hill,59.51,145.15,83.91,,,Single-ply,SBD,M
Boys,67.13,1,Chandler Brown,Burleson,67.13,204.12,129.27,210.92,544.31,Single-ply,SBD,M
Boys,67.13,2,Jacob Hughes,Joshua,67.13,179.17,117.93,185.97,483.08,Single-ply,SBD,M
Boys,67.13,3,Edward Onwuka,Mansfield Timberview,66.22,170.1,115.67,181.44,467.2,Single-ply,SBD,M
Boys,67.13,4,Isaac Brown,Midlothian,66.04,163.29,92.99,199.58,455.86,Single-ply,SBD,M
Boys,67.13,5,Patrick Frazho,Belton,64.5,161.03,102.06,185.97,449.06,Single-ply,SBD,M
Boys,67.13,6,Jayden Huse,Midlothian,61.51,151.95,99.79,140.61,392.36,Single-ply,SBD,M
Boys,67.13,7,Matthew Lacey,Cleburne,63.68,156.49,99.79,131.54,387.82,Single-ply,SBD,M
Boys,67.13,8,Riley Angel,Midlothian,61.23,140.61,83.91,151.95,376.48,Single-ply,SBD,M
Boys,67.13,DQ,Kyle Thomas,Midlothian Heritage,62.23,129.27,,,,Single-ply,SBD,M
Boys,67.13,DQ,Jorden Robinson,Crowley,62.6,176.9,,,,Single-ply,SBD,M
Boys,74.84,1,Ethan Haynes,Burleson,72.62,235.87,136.08,235.87,607.81,Single-ply,SBD,M
Boys,74.84,2,Casey Jackson,Burleson,73.12,197.31,113.4,201.85,512.56,Single-ply,SBD,M
Boys,74.84,3,Devyn Raper,Belton,73.48,179.17,120.2,206.38,505.76,Single-ply,SBD,M
Boys,74.84,4,Zion Ababio,Burleson Centennial,71.21,163.29,79.38,176.9,419.57,Single-ply,SBD,M
Boys,74.84,DQ,Dee Johnson,Red Oak,73.94,197.31,108.86,,,Single-ply,SBD,M
Boys,74.84,DQ,Trevion Scott,Cedar Hill,71.67,206.38,117.93,,,Single-ply,SBD,M
Boys,82.1,1,Curtis Sanders,Cedar Hill,80.29,215.46,138.35,215.46,569.26,Single-ply,SBD,M
Boys,82.1,2,Steven Jackson,Cedar Hill,79.38,219.99,115.67,226.8,562.45,Single-ply,SBD,M
Boys,82.1,3,Hunter Cunningham,Burleson,81.19,210.92,127.01,222.26,560.19,Single-ply,SBD,M
Boys,82.1,4,Tanner Knox,Weatherford,79.38,197.31,127.01,217.72,542.04,Single-ply,SBD,M
Boys,82.1,5,Jc Mueller,Burleson,80.56,199.58,122.47,206.38,528.44,Single-ply,SBD,M
Boys,82.1,6,Aaron Bodine,Joshua,82.1,181.44,127.01,185.97,494.42,Single-ply,SBD,M
Boys,82.1,7,Aaron Watson,Red Oak,80.1,181.44,113.4,188.24,483.08,Single-ply,SBD,M
Boys,82.1,8,Mykel Parker,Burleson Centennial,79.47,172.37,106.59,181.44,460.4,Single-ply,SBD,M
Boys,82.1,9,Brennan Strebeck,Joshua,80.74,167.83,115.67,147.42,430.91,Single-ply,SBD,M
Boys,82.1,10,Coleman Barney,Cleburne,79.92,156.49,83.91,163.29,403.7,Single-ply,SBD,M
Boys,82.1,DQ,Jalen Thomas,Cedar Hill,77.29,,,,,Single-ply,SBD,M
Boys,82.1,DQ,Michael Anderson,Weatherford,76.57,,,,,Single-ply,SBD,M
Boys,89.81,1,Brek Galbreath,Joshua,87.82,249.48,176.9,260.82,687.19,Single-ply,SBD,M
Boys,89.81,2,Anthony Perales,Red Oak,86.27,224.53,129.27,224.53,578.33,Single-ply,SBD,M
Boys,89.81,3,Kijohn McCoy,Cedar Hill,83.91,226.8,120.2,210.92,557.92,Single-ply,SBD,M
Boys,89.81,4,Eric Ortega,Burleson Centennial,89.81,215.46,124.74,208.65,548.85,Single-ply,SBD,M
Boys,89.81,5,Kenny Long,Burleson Centennial,83.64,215.46,115.67,208.65,539.77,Single-ply,SBD,M
Boys,89.81,6,Alex Omeke,Mansfield Timberview,88.9,170.1,136.08,231.33,537.51,Single-ply,SBD,M
Boys,89.81,7,Jared Johnson,Joshua,89.72,192.78,104.33,201.85,498.95,Single-ply,SBD,M
Boys,89.81,8,Leighton Smith,Midlothian Heritage,89.36,188.24,106.59,174.63,469.47,Single-ply,SBD,M
Boys,89.81,9,Ameer Muhammad,Red Oak,87.72,179.17,104.33,181.44,464.93,Single-ply,SBD,M
Boys,89.81,10,Trysten Smith,Duncanville,87.18,183.7,102.06,174.63,460.4,Single-ply,SBD,M
Boys,89.81,11,Will Mitchell,Burleson Centennial,88.81,170.1,102.06,188.24,460.4,Single-ply,SBD,M
Boys,99.79,1,Christian Hernandez,Cedar Hill,92.8,240.4,145.15,226.8,612.35,Single-ply,SBD,M
Boys,99.79,2,Michael Kornak,Burleson Centennial,99.34,231.33,129.27,240.4,601.01,Single-ply,SBD,M
Boys,99.79,3,Devon Taplin,Belton,95.07,222.26,156.49,210.92,589.67,Single-ply,SBD,M
Boys,99.79,4,Devin Martinez,Belton,96.62,226.8,131.54,226.8,585.13,Single-ply,SBD,M
Boys,99.79,5,Tyler Massingill,Burleson,96.16,235.87,120.2,208.65,564.72,Single-ply,SBD,M
Boys,99.79,6,Hector Alvarado,Crowley,98.07,215.46,129.27,215.46,560.19,Single-ply,SBD,M
Boys,99.79,7,Preston Young,Red Oak,96.34,215.46,124.74,210.92,551.11,Single-ply,SBD,M
Boys,99.79,8,Cooper Coffee,Weatherford,94.98,190.51,131.54,210.92,532.97,Single-ply,SBD,M
Boys,99.79,9,Zach Scarbrough,Burleson Centennial,98.7,195.04,129.27,208.65,532.97,Single-ply,SBD,M
Boys,99.79,10,Jacob Carbajal,Midlothian,97.98,185.97,124.74,201.85,512.56,Single-ply,SBD,M
Boys,99.79,11,Reid Steele,Crowley,91.99,215.46,122.47,167.83,505.76,Single-ply,SBD,M
Boys,99.79,12,Mathu Blanton,Cleburne,96.34,181.44,120.2,181.44,483.08,Single-ply,SBD,M
Boys,99.79,13,Cole Porter,Burleson Centennial,90.54,142.88,104.33,165.56,412.77,Single-ply,SBD,M
Boys,109.77,1,Thomas Godi,Burleson Centennial,109.68,290.3,181.44,249.48,721.21,Single-ply,SBD,M
Boys,109.77,2,Blake Edgington,Joshua,107.59,272.16,156.49,276.69,705.34,Single-ply,SBD,M
Boys,109.77,3,Arturo Jaimes,Belton,104.96,276.69,142.88,274.42,694,Single-ply,SBD,M
Boys,109.77,4,Jordan Mauntel,Burleson,109.45,247.21,147.42,263.08,657.71,Single-ply,SBD,M
Boys,109.77,5,Terrence Patterson,Burleson,109.77,215.46,161.03,272.16,648.64,Single-ply,SBD,M
Boys,109.77,6,Cameron Summerville,Mansfield Timberview,102.47,226.8,154.22,247.21,628.23,Single-ply,SBD,M
Boys,109.77,7,Leon Young,Cedar Hill,102.97,244.94,136.08,210.92,591.94,Single-ply,SBD,M
Boys,109.77,8,Dj Frizzell,Midlothian,109.77,201.85,165.56,206.38,573.79,Single-ply,SBD,M
Boys,109.77,9,Angel Esquivel,Weatherford,100.97,204.12,149.69,204.12,557.92,Single-ply,SBD,M
Boys,109.77,10,Zyaun Jones,Red Oak,105.6,179.17,129.27,201.85,510.29,Single-ply,SBD,M
Boys,109.77,11,Jake Godfrey,Midlothian Heritage,103.6,158.76,92.99,154.22,405.97,Single-ply,SBD,M
Boys,109.77,DQ,Chris Boone,Duncanville,104.51,249.48,133.81,,,Single-ply,SBD,M
Boys,109.77,DQ,Ricky Villanueva,Cleburne,105.23,,,,,Single-ply,SBD,M
Boys,109.77,DQ,Anthony Cruz-Azizi,Duncanville,101.79,,,,,Single-ply,SBD,M
Boys,124.74,1,Duane Johnson,Midlothian,123.38,240.4,181.44,249.48,671.32,Single-ply,SBD,M
Boys,124.74,2,Jack Freeman,Midlothian Heritage,123.47,249.48,117.93,256.28,623.69,Single-ply,SBD,M
Boys,124.74,3,Sidney Sherwood,Belton,118.02,272.16,158.76,188.24,619.15,Single-ply,SBD,M
Boys,124.74,4,Cayde Taylor,Weatherford,112.49,226.8,142.88,192.78,562.45,Single-ply,SBD,M
Boys,124.74,5,James Mitchell,Duncanville,117.12,208.65,124.74,226.8,560.19,Single-ply,SBD,M
Boys,124.74,6,Taderriek Dunn,Cedar Hill,113.04,226.8,124.74,197.31,548.85,Single-ply,SBD,M
Boys,124.74,7,Samari Diggs,Duncanville,121.38,183.7,113.4,204.12,501.22,Single-ply,SBD,M
Boys,124.74+,1,Richard Cuellar,Cleburne,134.81,272.16,188.24,215.46,675.85,Single-ply,SBD,M
Boys,124.74+,2,Barak Gurnell,Duncanville,128.91,213.19,156.49,235.87,605.55,Single-ply,SBD,M
Boys,124.74+,3,De'Braylon Carroll,Duncanville,134.72,215.46,142.88,238.14,596.47,Single-ply,SBD,M
Boys,124.74+,4,Xzavier Augustus,Red Oak,142.52,219.99,142.88,219.99,582.87,Single-ply,SBD,M
Boys,124.74+,5,Jordan Phillips,Duncanville,154.22,215.46,115.67,217.72,548.85,Single-ply,SBD,M
Boys,124.74+,6,Joe Cisneros,Midlothian,131.09,206.38,142.88,192.78,542.04,Single-ply,SBD,M
Boys,124.74+,7,Payton McClain,Red Oak,140.61,201.85,138.35,170.1,510.29,Single-ply,SBD,M
Boys,124.74+,8,Nathan Stephens,Midlothian Heritage,126.82,204.12,106.59,181.44,492.15,Single-ply,SBD,M
Boys,124.74+,9,Kendall Johnson,Duncanville,128.91,188.24,113.4,188.24,489.88,Single-ply,SBD,M
Boys,124.74+,10,Devin Thompson,Duncanville,129.73,204.12,92.99,183.7,480.81,Single-ply,SBD,M
Boys,124.74+,DQ,Joshua Qualls,Duncanville,134.26,,,,,Single-ply,SBD,M
