Division,WeightClassKg,Place,Name,Team,BodyweightKg,Best3SquatKg,Best3BenchKg,Best3DeadliftKg,TotalKg,Equipment,Event,Sex
Junior Varsity,51.71,1,Kyle Stafford,Navasota,48.72,104.33,54.43,97.52,256.28,Single-ply,SBD,M
Junior Varsity,74.84,1,Dean Gessner,Navasota,67.31,122.47,124.74,115.67,362.87,Single-ply,SBD,M
Junior Varsity,67.13,2,Jorge Sanchez,Weimar,61.23,122.47,79.38,149.69,351.53,Single-ply,SBD,M
Junior Varsity,67.13,3,Kyle Tucker,Hempstead,63.59,77.11,70.31,129.27,276.69,Single-ply,SBD,M
Junior Varsity,74.84,1,Sotero Lara,Giddings,73.53,154.22,88.45,181.44,424.11,Single-ply,SBD,M
Junior Varsity,74.84,2,Chris Walker,Elgin,74.12,151.95,74.84,158.76,385.55,Single-ply,SBD,M
Junior Varsity,74.84,3,Jason Hart,Elgin,72.76,129.27,70.31,165.56,365.14,Single-ply,SBD,M
Junior Varsity,74.84,4,Matthew Nunez,Navasota,68.4,136.08,79.38,145.15,360.61,Single-ply,SBD,M
Junior Varsity,74.84,5,Kevin Harris,Navasota,74.84,145.15,79.38,136.08,360.61,Single-ply,SBD,M
Junior Varsity,74.84,6,James Biddy,Elgin,74.75,124.74,68.04,158.76,351.53,Single-ply,SBD,M
Junior Varsity,74.84,7,Martaine Rosales,Weimar,69.94,117.93,77.11,142.88,337.93,Single-ply,SBD,M
Junior Varsity,74.84,8,Joey Lilly,Hempstead,73.3,122.47,63.5,136.08,322.05,Single-ply,SBD,M
Junior Varsity,82.1,1,Joseph Mendoza,Giddings,76.7,136.08,79.38,167.83,383.29,Single-ply,SBD,M
Junior Varsity,82.1,2,Matthew Madewell,Elgin,75.57,113.4,68.04,158.76,340.19,Single-ply,SBD,M
Junior Varsity,82.1,3,Marcus Fisher,Elgin,77.93,138.35,56.7,142.88,337.93,Single-ply,SBD,M
Junior Varsity,99.79,1,Chris Marquez,Giddings,96.8,179.17,99.79,172.37,451.32,Single-ply,SBD,M
Junior Varsity,99.79,2,Daryl Scott,Elgin,94.8,151.95,68.04,161.03,381.02,Single-ply,SBD,M
Junior Varsity,99.79,3,Kellen Carter,Giddings,97.39,136.08,70.31,149.69,356.07,Single-ply,SBD,M
Junior Varsity,109.77,1,Ethan Allen,Giddings,104.42,142.88,83.91,158.76,385.55,Single-ply,SBD,M
Junior Varsity,109.77,2,Zach Hendrick,Giddings,104.51,124.74,90.72,165.56,381.02,Single-ply,SBD,M
Junior Varsity,124.74,1,Tyler Lewis,Navasota,117.3,149.69,86.18,158.76,394.63,Single-ply,SBD,M
Junior Varsity,124.74,2,Isiah Rivas,Elgin,115.85,142.88,97.52,,240.4,Single-ply,SB,M
Junior Varsity,124.74+,DQ,Elio Garfias,Elgin,135.81,,,,,Single-ply,SB,M
Varsity,51.71,1,Tyler Sevcik,College Station A&M Cons,51.17,113.4,70.31,136.08,319.78,Single-ply,SBD,M
Varsity,55.79,2,Elijah Hall,Elgin,51.89,92.99,43.09,115.67,251.74,Single-ply,SBD,M
Varsity,51.71,3,Thayer Selleck,Thrall,48.08,92.99,52.16,102.06,247.21,Single-ply,SBD,M
Varsity,51.71,4,Adam Morton,Louise,37.65,92.99,38.56,90.72,222.26,Single-ply,SBD,M
Varsity,51.71,5,Darius Mallard,Navasota,49.44,,68.04,129.27,197.31,Single-ply,BD,M
Varsity,55.79,1,D'Montre Brown,Cameron Yoe,52.98,142.88,81.65,174.63,399.16,Single-ply,SBD,M
Varsity,55.79,2,Jonathan Bedolla,Elgin,53.07,111.13,45.36,111.13,267.62,Single-ply,SBD,M
Varsity,59.87,3,Derrick Lewis,Navasota,55.88,97.52,58.97,111.13,267.62,Single-ply,SBD,M
Varsity,55.79,4,JoeLuis Henry,Cameron Yoe,55.79,90.72,,117.93,208.65,Single-ply,SD,M
Varsity,55.79,5,Tyler Houghton,Caldwell,54.88,102.06,,102.06,204.12,Single-ply,SD,M
Varsity,55.79,DQ,Rolando Moreno,Weimar,53.25,,,,,Single-ply,SD,M
Varsity,59.87,1,Victor Aguilar,Caldwell,58.42,199.58,124.74,170.1,494.42,Single-ply,SBD,M
Varsity,67.13,2,Zerrick Merchant,College Station A&M Cons,60.06,174.63,111.13,197.31,483.08,Single-ply,SBD,M
Varsity,59.87,3,Jamil Jackson,Giddings,58.11,165.56,95.25,181.44,442.25,Single-ply,SBD,M
Varsity,67.13,4,Ubaldo Guzman,Weimar,60.06,158.76,104.33,163.29,426.38,Single-ply,SBD,M
Varsity,67.13,5,Brandon Jackson,College Station A&M Cons,60.06,158.76,83.91,165.56,408.23,Single-ply,SBD,M
Varsity,59.87,6,Willie Ihlenfeldt,Caldwell,57.24,140.61,88.45,136.08,365.14,Single-ply,SBD,M
Varsity,67.13,1,Leo Alfaro,Hempstead,65.59,174.63,102.06,204.12,480.81,Single-ply,SBD,M
Varsity,67.13,2,Riley Martinez,College Station A&M Cons,65.86,195.04,102.06,181.44,478.54,Single-ply,SBD,M
Varsity,67.13,3,Austin Stephen,College Station A&M Cons,66.13,,,176.9,176.9,Single-ply,D,M
Varsity,67.13,4,Tanner Surratt,Louise,66.86,161.03,99.79,183.7,444.52,Single-ply,SBD,M
Varsity,67.13,5,Tomas Moreno,Weimar,62.46,147.42,83.91,181.44,412.77,Single-ply,SBD,M
Varsity,67.13,6,Jose Martinez,Cameron Yoe,66.04,136.08,88.45,151.95,376.48,Single-ply,SBD,M
Varsity,67.13,7,Jesus Cortez,Navasota,61.33,149.69,77.11,140.61,367.41,Single-ply,SBD,M
Varsity,67.13,8,Taylor Sweet,Thrall,62.87,113.4,63.5,117.93,294.84,Single-ply,SBD,M
Varsity,67.13,9,Colten McKinley,Thrall,64.95,102.06,52.16,124.74,278.96,Single-ply,SBD,M
Varsity,67.13,10,Chad Henderson,Cameron Yoe,64.32,72.57,61.23,115.67,249.48,Single-ply,SBD,M
Varsity,67.13,11,Matthew Diouhy,Caldwell,61.51,111.13,61.23,,172.37,Single-ply,SB,M
Varsity,67.13,DQ,Jw Smith,Elgin,66.68,,,,,Single-ply,SB,M
Varsity,74.84,1,Kendrick Armstead,Navasota,73.66,244.94,131.54,217.72,594.21,Single-ply,SBD,M
Varsity,74.84,2,Cedrick McCan,College Station A&M Cons,74.39,217.72,117.93,231.33,566.99,Single-ply,SBD,M
Varsity,74.84,3,DeRon Bullard,Giddings,74.03,181.44,104.33,195.04,480.81,Single-ply,SBD,M
Varsity,74.84,4,Mike Jones,Elgin,73.48,188.24,111.13,179.17,478.54,Single-ply,SBD,M
Varsity,74.84,5,Caleb Andrew Schneebeli,Bryan Rudder,73.21,163.29,99.79,199.58,462.66,Single-ply,SBD,M
Varsity,74.84,6,Derek Skless,Louise,68.31,145.15,92.99,149.69,387.82,Single-ply,SBD,M
Varsity,74.84,7,Gabe Almeida,Bellville,73.48,138.35,79.38,151.95,369.68,Single-ply,SBD,M
Varsity,74.84,8,Justin Stautz,Thrall,72.3,127.01,81.65,138.35,347,Single-ply,SBD,M
Varsity,74.84,9,Josh Martin,Bellville,70.03,90.72,81.65,142.88,315.25,Single-ply,SBD,M
Varsity,74.84,10,Robert Guevara,Louise,73.57,113.4,52.16,113.4,278.96,Single-ply,SBD,M
Varsity,74.84,11,David Wetterman,Caldwell,71.94,102.06,70.31,102.06,274.42,Single-ply,SBD,M
Varsity,74.84,12,Izaac Leal,Thrall,71.3,117.93,,,117.93,Single-ply,S,M
Varsity,82.1,13,Mitchell Fascha,Bellville,75.02,95.25,,,95.25,Single-ply,S,M
Varsity,74.84,DQ,Nick Gonzales,Rockdale,71.3,,,,,Single-ply,S,M
Varsity,82.1,1,Tyler McCoy,Giddings,77.61,249.48,151.95,215.46,616.89,Single-ply,SBD,M
Varsity,82.1,2,DJ Levias,College Station A&M Cons,81.83,219.99,131.54,226.8,578.33,Single-ply,SBD,M
Varsity,82.1,3,Alex Trujillo,Hempstead,82.1,201.85,117.93,219.99,539.77,Single-ply,SBD,M
Varsity,82.1,4,Da'Rick Nolan,Elgin,75.57,183.7,111.13,217.72,512.56,Single-ply,SBD,M
Varsity,82.1,5,Thomas Ewing,Giddings,80.2,183.7,102.06,192.78,478.54,Single-ply,SBD,M
Varsity,89.81,6,Desmond Calhoun,Navasota,82.28,174.63,79.38,213.19,467.2,Single-ply,SBD,M
Varsity,82.1,7,Andy Trejo,Bellville,79.47,174.63,102.06,181.44,458.13,Single-ply,SBD,M
Varsity,82.1,8,Teofilo Lozano,Hempstead,79.11,142.88,106.59,145.15,394.63,Single-ply,SBD,M
Varsity,82.1,9,Zach Martsching,Thrall,76.02,138.35,90.72,142.88,371.95,Single-ply,SBD,M
Varsity,82.1,10,Trey Derick Casey,Bellville,80.29,138.35,72.57,138.35,349.27,Single-ply,SBD,M
Varsity,89.81,DQ,Leo Castro,Elgin,87.63,,,,,Single-ply,SBD,M
Varsity,99.79,2,Jonathan Massey,Caldwell,89.99,226.8,142.88,215.46,585.13,Single-ply,SBD,M
Varsity,89.81,3,Joseph Glenn,Giddings,83.05,199.58,136.08,210.92,546.58,Single-ply,SBD,M
Varsity,89.81,4,Ty Kirk,Rockdale,84.55,206.38,102.06,183.7,492.15,Single-ply,SBD,M
Varsity,89.81,5,Kolby Kahlden,Caldwell,88.81,170.1,111.13,192.78,474,Single-ply,SBD,M
Varsity,89.81,6,Kamm Coker,Bellville,83.19,142.88,92.99,136.08,371.95,Single-ply,SBD,M
Varsity,89.81,7,Gene Wiznewski,Caldwell,83.28,188.24,,183.7,371.95,Single-ply,SD,M
Varsity,89.81,8,David McDonald,Cameron Yoe,87.54,129.27,86.18,136.08,351.53,Single-ply,SBD,M
Varsity,89.81,9,Dalton Blankemeyer,Bellville,84.19,106.59,83.91,131.54,322.05,Single-ply,SBD,M
Varsity,99.79,1,Clinton Banks,College Station A&M Cons,95.89,238.14,133.81,233.6,605.55,Single-ply,SBD,M
Varsity,99.79,2,Randall Jones,Elgin,91.72,215.46,129.27,238.14,582.87,Single-ply,SBD,M
Varsity,99.79,3,Deon Hutchinson,Giddings,91.26,224.53,140.61,213.19,578.33,Single-ply,SBD,M
Varsity,99.79,4,Luis Garcia,College Station A&M Cons,93.53,222.26,136.08,197.31,555.65,Single-ply,SBD,M
Varsity,99.79,5,Alex Tamez,Louise,99.25,226.8,124.74,192.78,544.31,Single-ply,SBD,M
Varsity,99.79,6,Zecharia Roberson,Cameron Yoe,92.44,215.46,106.59,219.99,542.04,Single-ply,SBD,M
Varsity,99.79,7,Steven Schneider,Rockdale,95.35,204.12,113.4,210.92,528.44,Single-ply,SBD,M
Varsity,99.79,8,Johnny Jones,Elgin,98.34,210.92,129.27,183.7,523.9,Single-ply,SBD,M
Varsity,99.79,9,Juan Nunez,Caldwell,96.34,206.38,136.08,170.1,512.56,Single-ply,SBD,M
Varsity,99.79,10,Austin Williams,Bellville,90.99,97.52,79.38,111.13,288.03,Single-ply,SBD,M
Varsity,109.77,1,Morgan Hohle,Giddings,108,260.82,176.9,233.6,671.32,Single-ply,SBD,M
Varsity,109.77,2,Caden Walker,College Station A&M Cons,107.95,249.48,167.83,233.6,650.91,Single-ply,SBD,M
Varsity,109.77,3,Autra Maxey,Navasota,107.59,272.16,131.54,233.6,637.3,Single-ply,SBD,M
Varsity,109.77,4,Wyatt Smith,College Station A&M Cons,109.77,244.94,140.61,213.19,598.74,Single-ply,SBD,M
Varsity,109.77,5,Kyle Orlando,Navasota,108.05,244.94,111.13,215.46,571.53,Single-ply,SBD,M
Varsity,109.77,6,Lukas Burklund,Elgin,101.7,204.12,113.4,183.7,501.22,Single-ply,SBD,M
Varsity,109.77,7,Emanuel Salinas,Bellville,107.86,170.1,124.74,161.03,455.86,Single-ply,SBD,M
Varsity,109.77,8,Jorge Moran,Navasota,103.06,188.24,104.33,,292.57,Single-ply,SB,M
Varsity,109.77,9,Ryan Jarosek,Thrall,102.42,142.88,81.65,,224.53,Single-ply,SB,M
Varsity,124.74,1,Clayton Anderson,Elgin,113.94,238.14,161.03,229.06,628.23,Single-ply,SBD,M
Varsity,124.74,2,Cruz Rodríguez,Navasota,111.67,217.72,122.47,213.19,553.38,Single-ply,SBD,M
Varsity,124.74,3,Jaylon Bradford,Louise,116.03,210.92,122.47,215.46,548.85,Single-ply,SBD,M
Varsity,124.74+,1,Jacob Bohannon,Navasota,131.72,278.96,163.29,235.87,678.12,Single-ply,SBD,M
Varsity,124.74+,2,Brian Cain,Thrall,135.9,249.48,151.95,206.38,607.81,Single-ply,SBD,M
Varsity,124.74+,3,Johnathan Ramirez,Giddings,140.66,215.46,136.08,215.46,566.99,Single-ply,SBD,M
Varsity,124.74+,4,Timmy Varela,Bellville,132.54,231.33,142.88,181.44,555.65,Single-ply,SBD,M
Varsity,124.74+,5,Alec Gilliam,Bellville,132.63,190.51,149.69,183.7,523.9,Single-ply,SBD,M
Varsity,124.74+,6,Danny Bricker,Giddings,140.07,208.65,102.06,208.65,519.36,Single-ply,SBD,M
Varsity,124.74+,7,Bo Meece,Navasota,132.54,204.12,99.79,174.63,478.54,Single-ply,SBD,M
Varsity,124.74+,DQ,Jacob Shanks,Elgin,134.08,,,,,Single-ply,SBD,M
