Division,WeightClassKg,Place,Name,Team,BodyweightKg,Best3SquatKg,Best3BenchKg,Best3DeadliftKg,TotalKg,Equipment,Event,Sex
Boys,55.79,1,Blake Parham,Mount Enterprise,51.89,102.06,47.63,102.06,251.74,Single-ply,SBD,M
Boys,51.71,2,Shane Lee,Jewett Leon,51.53,72.57,38.56,90.72,201.85,Single-ply,SBD,M
Boys,55.79,DQ,Brian Pafford,Cushing,51.8,,,,,Single-ply,SBD,M
Boys,55.79,1,Daniel Pafford,Cushing,54.7,158.76,61.23,142.88,362.87,Single-ply,SBD,M
Boys,55.79,2,Jonathan Hernandez,Malakoff,55.79,117.93,61.23,124.74,303.91,Single-ply,SBD,M
Boys,55.79,3,Mason Jonas,Buffalo,55.07,113.4,52.16,102.06,267.62,Single-ply,SBD,M
Boys,59.87,1,Jake Fussell,Palestine,59.42,142.88,92.99,156.49,392.36,Single-ply,SBD,M
Boys,59.87,2,Dalton Kassaw,Elkhart,59.78,158.76,72.57,154.22,385.55,Single-ply,SBD,M
Boys,59.87,3,Robert Thompson,Palestine,56.88,120.2,77.11,127.01,324.32,Single-ply,SBD,M
Boys,59.87,DQ,Ld Simmons,Cushing,57.06,,,,,Single-ply,SBD,M
Boys,67.13,1,Cody DeFore,Elkhart,65.95,217.72,124.74,201.85,544.31,Single-ply,SBD,M
Boys,67.13,2,Justin Johnson,Mount Enterprise,62.87,185.97,92.99,179.17,458.13,Single-ply,SBD,M
Boys,67.13,3,Jalen Burns,Palestine Westwood,66.22,167.83,77.11,190.51,435.45,Single-ply,SBD,M
Boys,67.13,4,Bradley Berryhill,Jewett Leon,62.51,156.49,83.91,172.37,412.77,Single-ply,SBD,M
Boys,67.13,5,Cameron Varner,Buffalo,66.86,174.63,74.84,154.22,403.7,Single-ply,SBD,M
Boys,67.13,6,Taylor Bundrick,Mount Enterprise,63.87,136.08,83.91,174.63,394.63,Single-ply,SBD,M
Boys,67.13,7,Jared Martin,Centerville,61.87,151.95,77.11,154.22,383.29,Single-ply,SBD,M
Boys,67.13,8,Jessie Reeves,White Oak,66.04,142.88,77.11,147.42,367.41,Single-ply,SBD,M
Boys,74.84,9,Patrick Sanders,Mount Enterprise,67.31,142.88,88.45,129.27,360.61,Single-ply,SBD,M
Boys,67.13,10,Eli Trim,Elkhart,65.23,151.95,72.57,129.27,353.8,Single-ply,SBD,M
Boys,67.13,11,Brent Cox,Cayuga,66.32,136.08,86.18,124.74,347,Single-ply,SBD,M
Boys,67.13,12,Zant Tatum,Jewett Leon,65.23,131.54,61.23,133.81,326.59,Single-ply,SBD,M
Boys,67.13,13,Pj Lewis,Grapeland,66.86,124.74,65.77,127.01,317.51,Single-ply,SBD,M
Boys,74.84,14,Billy Richards,Centerville,67.36,102.06,68.04,120.2,290.3,Single-ply,SBD,M
Boys,67.13,15,Mason Reeves,Cushing,62.6,111.13,61.23,113.4,285.76,Single-ply,SBD,M
Boys,67.13,16,Kaleb Leonard,Grapeland,60.96,90.72,65.77,127.01,283.5,Single-ply,SBD,M
Boys,67.13,17,Baker Cox,Cayuga,62.78,95.25,52.16,81.65,229.06,Single-ply,SBD,M
Boys,67.13,DQ,Josh Provost,Cushing,64.41,90.72,,,,Single-ply,SBD,M
Boys,67.13,DQ,Panch Watt,Cushing,65.32,,,,,Single-ply,SBD,M
Boys,67.13,DQ,Taylor Jackson,Cushing,64.14,102.06,,,,Single-ply,SBD,M
Boys,74.84,1,Chris Box,Elkhart,72.85,199.58,129.27,195.04,523.9,Single-ply,SBD,M
Boys,74.84,2,Garrett Flanagan,Elkhart,74.66,192.78,113.4,204.12,510.29,Single-ply,SBD,M
Boys,74.84,3,Sir Thompson,Palestine,71.35,185.97,111.13,190.51,487.61,Single-ply,SBD,M
Boys,74.84,4,Rowdy Upchurch,Elkhart,73.57,174.63,113.4,181.44,469.47,Single-ply,SBD,M
Boys,74.84,5,Trey Williams,Centerville,73.3,165.56,111.13,179.17,455.86,Single-ply,SBD,M
Boys,74.84,6,Derian Guzman,Centerville,71.94,154.22,92.99,163.29,410.5,Single-ply,SBD,M
Boys,74.84,7,Abraham Sanchez,Centerville,70.94,138.35,95.25,174.63,408.23,Single-ply,SBD,M
Boys,74.84,8,Dustin Harrison,White Oak,73.39,136.08,86.18,154.22,376.48,Single-ply,SBD,M
Boys,74.84,9,Tyler Parker,Centerville,74.48,129.27,92.99,151.95,374.21,Single-ply,SBD,M
Boys,74.84,10,Da'Lyn Gipson,Mount Enterprise,69.76,113.4,81.65,174.63,369.68,Single-ply,SBD,M
Boys,74.84,11,Caleb Madden,Jewett Leon,73.48,131.54,90.72,136.08,358.34,Single-ply,SBD,M
Boys,74.84,12,Sammy Ceruantes,Buffalo,69.58,142.88,65.77,147.42,356.07,Single-ply,SBD,M
Boys,74.84,13,Maddison Mason,Jewett Leon,72.94,124.74,79.38,129.27,333.39,Single-ply,SBD,M
Boys,74.84,14,Noah Vanblur,White Oak,70.4,113.4,65.77,131.54,310.71,Single-ply,SBD,M
Boys,74.84,DQ,Lucas Roliff,Cushing,68.67,124.74,,,,Single-ply,SBD,M
Boys,82.1,1,Zack Gray,Elkhart,80.01,231.33,127.01,213.19,571.53,Single-ply,SBD,M
Boys,82.1,2,Kaigan Baker,Palestine Westwood,78.74,226.8,106.59,208.65,542.04,Single-ply,SBD,M
Boys,82.1,3,Haiden Zarate,Centerville,78.74,192.78,120.2,215.46,528.44,Single-ply,SBD,M
Boys,82.1,4,Dustin Parker,Centerville,81.47,179.17,102.06,172.37,453.59,Single-ply,SBD,M
Boys,82.1,5,Omar Gonzalez,Malakoff,76.48,149.69,86.18,190.51,426.38,Single-ply,SBD,M
Boys,82.1,6,Chris Jump,Malakoff,78.56,163.29,106.59,156.49,426.38,Single-ply,SBD,M
Boys,82.1,7,Tracer Largent,Centerville,80.38,149.69,86.18,145.15,381.02,Single-ply,SBD,M
Boys,82.1,8,Cody Presson,White Oak,77.02,127.01,70.31,167.83,365.14,Single-ply,SBD,M
Boys,82.1,9,Rawling Dixon,Malakoff,79.47,138.35,70.31,142.88,351.53,Single-ply,SBD,M
Boys,82.1,10,Spencer Grisham,Malakoff,80.29,124.74,65.77,122.47,312.98,Single-ply,SBD,M
Boys,82.1,DQ,Darian Buckley,Cushing,78.2,,,,,Single-ply,SBD,M
Boys,82.1,DQ,Tyler Bodiford,Jewett Leon,79.38,,,,,Single-ply,SBD,M
Boys,89.81,1,Andre Agan,Elkhart,83.28,181.44,95.25,192.78,469.47,Single-ply,SBD,M
Boys,89.81,2,Tony Burns,Mount Enterprise,84.64,183.7,106.59,158.76,449.06,Single-ply,SBD,M
Boys,89.81,3,Devin Anding,Jewett Leon,88.18,170.1,104.33,149.69,424.11,Single-ply,SBD,M
Boys,89.81,4,Wally Shrout,Malakoff,86.45,154.22,95.25,172.37,421.84,Single-ply,SBD,M
Boys,89.81,5,Christian Wezlman,Centerville,89.63,154.22,90.72,165.56,410.5,Single-ply,SBD,M
Boys,89.81,6,Jacob Norgoard,Jewett Leon,89.18,129.27,63.5,115.67,308.44,Single-ply,SBD,M
Boys,89.81,DQ,Kyle Harris,Centerville,83.19,,,,,Single-ply,SBD,M
Boys,99.79,1,Keelin Munoz,White Oak,96.62,199.58,108.86,195.04,503.49,Single-ply,SBD,M
Boys,109.77,2,Will Dehart,Elkhart,100.02,201.85,111.13,181.44,494.42,Single-ply,SBD,M
Boys,109.77,3,Kurtis Parker,Centerville,99.88,181.44,115.67,179.17,476.27,Single-ply,SBD,M
Boys,99.79,4,Seth Folsom,Buffalo,95.8,197.31,90.72,181.44,469.47,Single-ply,SBD,M
Boys,99.79,5,Steven Slater,Cayuga,93.89,172.37,99.79,172.37,444.52,Single-ply,SBD,M
Boys,99.79,6,Corey Rosa,Malakoff,95.07,172.37,97.52,163.29,433.18,Single-ply,SBD,M
Boys,99.79,7,Cj Denman,Centerville,96.98,136.08,99.79,151.95,387.82,Single-ply,SBD,M
Boys,109.77,1,Johnt'A Maxey,Palestine,106.14,226.8,140.61,192.78,560.19,Single-ply,SBD,M
Boys,109.77,2,Nelson Ochoa,Malakoff,109.5,213.19,127.01,204.12,544.31,Single-ply,SBD,M
Boys,109.77,3,Ty Swindle,Palestine,101.15,195.04,111.13,215.46,521.63,Single-ply,SBD,M
Boys,109.77,4,Mikey Grubbs,Mount Enterprise,106.14,183.7,111.13,192.78,487.61,Single-ply,SBD,M
Boys,109.77,5,Cody Reyes,Centerville,102.87,174.63,111.13,158.76,444.52,Single-ply,SBD,M
Boys,109.77,6,Clint Guyton,Buffalo,107.77,176.9,102.06,147.42,426.38,Single-ply,SBD,M
Boys,109.77,DQ,Jayce Harris,Cayuga,103.96,,,,,Single-ply,SBD,M
Boys,109.77,DQ,Tristin Wright,Cushing,106.05,181.44,,,,Single-ply,SBD,M
Boys,124.74,1,Patrick Cross,Palestine,121.2,272.16,136.08,199.58,607.81,Single-ply,SBD,M
Boys,124.74,2,Austin Cruz,Cushing,111.49,219.99,117.93,215.46,553.38,Single-ply,SBD,M
Boys,124.74,3,Kris Layman,White Oak,119.66,231.33,127.01,190.51,548.85,Single-ply,SBD,M
Boys,124.74,4,Kenny Searcy,Centerville,116.03,192.78,113.4,204.12,510.29,Single-ply,SBD,M
Boys,124.74,5,Josh Tillis,Palestine,120.07,158.76,165.56,176.9,501.22,Single-ply,SBD,M
Boys,124.74,6,Lyle Owens,White Oak,123.74,185.97,133.81,165.56,485.34,Single-ply,SBD,M
Boys,124.74,7,Sir Rhodes,Palestine,115.8,181.44,108.86,163.29,453.59,Single-ply,SBD,M
Boys,124.74,8,Cody Fitzpatrick,Cayuga,123.38,154.22,111.13,167.83,433.18,Single-ply,SBD,M
Boys,124.74,DQ,Diego Medina,Malakoff,115.21,204.12,124.74,,,Single-ply,SBD,M
Boys,124.74+,1,Thomas Acol,Malakoff,150.14,238.14,129.27,229.06,596.47,Single-ply,SBD,M
Boys,124.74+,2,Zack McFarland,Elkhart,129.27,254.01,136.08,204.12,594.21,Single-ply,SBD,M
Boys,124.74+,3,Taylor McBride,Cushing,132,238.14,124.74,204.12,566.99,Single-ply,SBD,M
Boys,124.74+,4,Manuel Solis,Palestine,151.41,208.65,124.74,210.92,544.31,Single-ply,SBD,M
Boys,124.74+,5,Israel Chavez,Malakoff,129.64,199.58,124.74,176.9,501.22,Single-ply,SBD,M
Boys,124.74+,6,Ryan Case,Cayuga,134.9,181.44,92.99,174.63,449.06,Single-ply,SBD,M
Boys,124.74+,7,Colton Moody,Cayuga,181.44,133.81,79.38,151.95,365.14,Single-ply,SBD,M
Boys,124.74+,DQ,Kelan Haden,White Oak,126.82,170.1,81.65,,,Single-ply,SBD,M
