Name,Sex,Equipment,Event,BodyweightKg,WeightClassKg,Best3SquatKg,Best3BenchKg,Best3DeadliftKg,TotalKg,Division,Tested,Place,State
Michele Sosnine,F,Wraps,SBD,47.54,48,100,57.5,87.5,245,Juniors 20-23,Yes,1,OR
Shayna Waldman,F,Wraps,SBD,51.71,52,82.5,57.5,100,240,Open,Yes,1,OR
Elizabeth West,F,Wraps,SBD,55.97,56,112.5,55,117.5,285,Juniors 20-23,Yes,1,OR
Amy Osborn,F,Wraps,SBD,54.88,56,97.5,52.5,92.5,242.5,Open,Yes,4,OR
Jessica Wilkins,F,Wraps,SBD,54.98,56,97.5,47.5,127.5,272.5,Open,Yes,3,OR
Elizabeth West,F,Wraps,SBD,55.97,56,112.5,55,112.5,280,Open,Yes,2,OR
Kaylie Klitzing,F,Wraps,SBD,55.7,56,120,82.5,142.5,345,Open,Yes,1,OR
Grace Mammarella,F,Wraps,SBD,59.6,60,75,47.5,82.5,205,Juniors 20-23,Yes,1,OR
Chelyncia Schoonmaker,F,Wraps,SBD,57.88,60,85,57.5,90,232.5,Masters 45-49,Yes,1,OR
Jessica Gale,F,Wraps,SBD,57.97,60,87.5,67.5,,,Open,Yes,DQ,OR
Anna-Lisa Robbins,F,Wraps,SBD,59.42,60,92.5,40,107.5,240,Open,Yes,3,OR
Amber Wilson,F,Wraps,SBD,58.88,60,90,52.5,112.5,255,Open,Yes,2,OR
Sara Devlin,F,Wraps,SBD,59.6,60,125,62.5,162.5,350,Open,Yes,1,OR
Nicole Hughson,F,Wraps,SBD,58.6,60,75,40,120,235,Submasters 33-39,Yes,2,OR
Christy Scott,F,Wraps,SBD,59.69,60,87.5,45,117.5,250,Submasters 33-39,Yes,1,OR
Johnna Erickson,F,Wraps,SBD,65.32,67.5,127.5,57.5,130,315,Juniors 20-23,Yes,1,OR
Tanya Neilsen,F,Wraps,SBD,64.86,67.5,85,42.5,122.5,250,Masters 40-44,Yes,1,OR
Susan Price,F,Wraps,SBD,65.95,67.5,110,75,150,335,Masters 50-54,Yes,1,OR
Darleen Tippie,F,Wraps,SBD,66.41,67.5,97.5,67.5,125,290,Open,Yes,4,OR
Aileen Fajardo,F,Wraps,SBD,61.05,67.5,117.5,52.5,137.5,307.5,Open,Yes,3,OR
Marya Tracer,F,Wraps,SBD,64.95,67.5,117.5,75,160,352.5,Open,Yes,2,OR
Lea Natera,F,Wraps,SBD,65.77,67.5,137.5,82.5,172.5,392.5,Open,Yes,1,OR
Megan Keele,F,Wraps,SBD,67.31,67.5,75,52.5,82.5,210,Open,No,1,OR
Mara Bowman,F,Wraps,SBD,66.41,67.5,90,55,107.5,252.5,Submasters 33-39,Yes,1,OR
Jennifer Rudakova,F,Wraps,SBD,63.32,67.5,102.5,62.5,115,280,Submasters 33-39,No,1,OR
Krista Lawver,F,Wraps,SBD,72.03,75,102.5,47.5,127.5,277.5,Open,Yes,2,OR
Nicole Butz,F,Wraps,SBD,72.85,75,110,52.5,155,317.5,Open,Yes,1,OR
Erin Murray,F,Wraps,SBD,74.84,75,152.5,102.5,187.5,442.5,Open,No,1,OR
Kyrianna Sorensen,F,Wraps,SBD,81.1,82.5,137.5,80,172.5,390,Juniors 20-23,Yes,1,OR
Leah Davis,F,Raw,SBD,81.92,82.5,175,82.5,177.5,435,Open,No,1,OR
Raegan Leong,F,Wraps,SBD,84.82,90,130,60,130,320,Juniors 20-23,Yes,1,OR
Alexis Goldstein,F,Wraps,SBD,83.73,90,137.5,82.5,172.5,392.5,Submasters 33-39,Yes,1,OR
Elaine May,F,Wraps,SBD,97.34,90+,95,57.5,142.5,295,Masters 55-59,Yes,1,OR
Becky Hambright,F,Wraps,SBD,93.89,90+,90,62.5,145,297.5,Masters 65-69,Yes,1,OR
Erin Stanton,F,Wraps,SBD,123.29,90+,235,107.5,227.5,570,Open,No,1,OR
Marie Balgamwalla,F,Wraps,SBD,95.98,90+,102.5,52.5,65,220,Submasters 33-39,Yes,1,OR
Joselyn Terry,F,Wraps,SBD,91.72,90+,105,50,120,275,Teen 18-19,Yes,1,OR
Stephanie Steeves,F,Wraps,SBD,,67.5,,,,,Juniors 20-23,Yes,DQ,OR
Shea Cummings,M,Wraps,SBD,59.96,60,160,102.5,217.5,480,Open,Yes,1,OR
Alex Graybar,M,Wraps,SBD,65.59,67.5,145,102.5,160,407.5,Juniors 20-23,Yes,2,OR
Victor Mammarella,M,Wraps,SBD,67.22,67.5,177.5,140,210,527.5,Juniors 20-23,Yes,1,OR
Derek Yatsu,M,Wraps,SBD,66.77,67.5,132.5,105,155,392.5,Masters 45-49,Yes,1,OR
Joseph Mammarella,M,Wraps,SBD,67.31,67.5,145,107.5,160,412.5,Open,Yes,3,WA
Brian Baragwanath,M,Wraps,SBD,66.86,67.5,135,82.5,215,432.5,Open,Yes,2,MA
Hector Alcayde,M,Wraps,SBD,67.22,67.5,187.5,105,217.5,510,Open,Yes,1,OR
Jimmy Tom,M,Wraps,SBD,74.93,75,172.5,87.5,192.5,452.5,Juniors 20-23,Yes,1,OR
Chris Osborn,M,Wraps,SBD,67.95,75,,,,,Open,Yes,DQ,WA
Andrew Murakami,M,Wraps,SBD,74.39,75,167.5,92.5,167.5,427.5,Open,Yes,3,OR
Barak Albedaiwi,M,Wraps,SBD,73.84,75,175,110,232.5,517.5,Open,Yes,2,OR
Jorge Shelhamer,M,Wraps,SBD,74.66,75,207.5,127.5,255,590,Open,Yes,1,WA
Domingo Torralba Sanchez,M,Wraps,SBD,74.48,75,170,135,167.5,472.5,Submasters 33-39,Yes,1,OR
Jeremy Johnston,M,Wraps,SBD,77.2,82.5,167.5,130,220,517.5,Juniors 20-23,Yes,1,OR
William Quick,M,Wraps,SBD,79.65,82.5,165,120,202.5,487.5,Masters 50-54,Yes,1,WA
Frank Roa Jr,M,Wraps,SBD,79.38,82.5,160,130,195,485,Masters 55-59,Yes,1,CA
Rob Schneider,M,Wraps,SBD,,82.5,,,,,Masters 65-69,Yes,DQ,OR
Sean Johnston,M,Wraps,SBD,82.1,82.5,140,107.5,207.5,455,Open,Yes,8,OR
Andrew Helton,M,Wraps,SBD,79.65,82.5,137.5,115,210,462.5,Open,Yes,7,OR
John Myers,M,Wraps,SBD,81.1,82.5,155,112.5,202.5,470,Open,Yes,6,OR
Dustin Guzman,M,Wraps,SBD,80.56,82.5,157.5,127.5,195,480,Open,Yes,5,WA
William Quick,M,Wraps,SBD,79.65,82.5,165,120,202.5,487.5,Open,Yes,4,WA
Cameron Martinot,M,Wraps,SBD,79.38,82.5,177.5,130,220,527.5,Open,Yes,3,OR
Pavel Babuska,M,Wraps,SBD,82.37,82.5,182.5,130,217.5,530,Open,Yes,2,WA
Steven Coburn,M,Wraps,SBD,81.74,82.5,252.5,147.5,290,690,Open,Yes,1,OR
Colby Fasoli,M,Wraps,SBD,81.19,82.5,217.5,152.5,255,625,Juniors 20-23,No,1,WA
Colby Fasoli,M,Wraps,SBD,81.19,82.5,217.5,152.5,255,625,Open,No,1,WA
Max Broburg,M,Wraps,SBD,,90,,,,,Juniors 20-23,Yes,DQ,WA
Giovanni Galvez,M,Wraps,SBD,89.72,90,,,,,Juniors 20-23,Yes,DQ,OR
Spencer Baker,M,Wraps,SBD,89.27,90,185,150,207.5,542.5,Juniors 20-23,Yes,3,WA
Chris Casterline,M,Wraps,SBD,87.63,90,200,170,200,570,Juniors 20-23,Yes,2,OR
Teddy Callow,M,Wraps,SBD,87.82,90,260,155,267.5,682.5,Juniors 20-23,Yes,1,WA
Brayden Wrightson,M,Wraps,SBD,89.9,90,145,85,182.5,412.5,Teen 18-19,Yes,2,OR
Luke True,M,Wraps,SBD,88.45,90,145,125,200,470,Teen 18-19,Yes,1,OR
Roger Sargent,M,Wraps,SBD,89.45,90,150,92.5,205,447.5,Masters 60-64,Yes,1,WA
Vincent Suetos,M,Wraps,SBD,89.27,90,142.5,120,197.5,460,Masters 65-69,Yes,1,OR
Nikhil Karulkar,M,Wraps,SBD,87.63,90,157.5,105,185,447.5,Open,Yes,3,OR
Ricardo Huerta,M,Wraps,SBD,86.73,90,200,102.5,227.5,530,Open,Yes,2,OR
Tanner Young,M,Wraps,SBD,87.36,90,190,132.5,217.5,540,Open,Yes,1,NY
Matt Gaechter,M,Wraps,SBD,89.54,90,300,180,292.5,772.5,Submasters 33-39,Yes,1,OR
Alexander Thompson,M,Wraps,SBD,,90,,,,,Juniors 20-23,No,DQ,Canada
Nate Boley,M,Wraps,SBD,87.45,90,202.5,147.5,260,610,Open,No,2,OR
Amit Sapir,M,Raw,SBD,87.91,90,365,167.5,280,812.5,Open,No,1,Canada
Jacob Vickers,M,Wraps,SBD,92.08,100,122.5,67.5,185,375,Teen 13-15,Yes,1,OR
Jacob Vickers,M,Wraps,SBD,92.08,100,122.5,67.5,185,375,Open,Yes,5,OR
Evan Warnock,M,Wraps,SBD,99.88,100,170,125,212.5,507.5,Juniors 20-23,Yes,4,OR
John Lee,M,Wraps,SBD,96.62,100,172.5,110,237.5,520,Juniors 20-23,Yes,3,OR
Joshua LaFreniere,M,Wraps,SBD,96.16,100,252.5,167.5,272.5,692.5,Juniors 20-23,Yes,2,OR
Daniel Fechner,M,Wraps,SBD,99.61,100,295,147.5,310,752.5,Juniors 20-23,Yes,1,OR
Brian Cain,M,Wraps,SBD,97.61,100,192.5,115,220,527.5,Open,Yes,4,OR
Adam Ludlow,M,Wraps,SBD,99.25,100,197.5,125,227.5,550,Open,Yes,3,WA
Diego Verduzco,M,Wraps,SBD,97.07,100,205,155,250,610,Open,Yes,2,OR
Justin Archibald,M,Wraps,SBD,97.89,100,222.5,177.5,257.5,657.5,Open,Yes,1,WA
Eric Magee,M,Wraps,SBD,98.97,100,260,182.5,280,722.5,Open,No,1,MA
Jeron Kerridge,M,Wraps,SBD,109.04,110,252.5,140,265,657.5,Open,Yes,2,OR
Aaron Van Scoten,M,Wraps,SBD,108.14,110,237.5,152.5,272.5,662.5,Open,Yes,1,OR
Rick Evanoff,M,Wraps,SBD,107.5,110,165,120,152.5,437.5,Masters 50-54,No,1,OR
Brandon Love,M,Wraps,SBD,101.88,110,282.5,205,295,782.5,Open,No,1,WA
Brian Rimmer,M,Wraps,SBD,105.6,110,125,110,192.5,427.5,Submasters 33-39,No,1,OR
Shad Beck,M,Wraps,SBD,122.11,125,205,182.5,187.5,575,Masters 45-49,Yes,1,OR
David Wear,M,Wraps,SBD,116.03,125,272.5,195,290,757.5,Open,Yes,2,OR
Josh Spaeth,M,Wraps,SBD,122.47,125,367.5,210,330,907.5,Open,Yes,1,WA
Kevin Wells,M,Wraps,SBD,123.92,125,305,155,230,690,Masters 40-44,No,1,WA
Larry Bush,M,Wraps,SBD,118.84,125,207.5,152.5,247.5,607.5,Masters 45-49,No,1,OR
Roberto Villalta,M,Wraps,SBD,112.85,125,337.5,222.5,295,855,Juniors 20-23,No,1,Canada
Kevin Wells,M,Wraps,SBD,123.92,125,305,155,230,690,Open,No,3,OR
Sean Coetzee,M,Wraps,SBD,124.19,125,295,190,305,790,Open,No,2,Canada
Roberto Villalta,M,Wraps,SBD,110.59,125,337.5,222.5,295,855,Open,No,1,WA
Neil Bailey,M,Wraps,SBD,114.58,125,237.5,160,247.5,645,Submasters 33-39,No,1,WA
Shawn Doyle,M,Wraps,SBD,139.71,140,392.5,250,402.5,1045,Open,No,1,OR
Cole Smith #1,M,Wraps,SBD,134.99,140,267.5,150,250,667.5,Teen 13-15,Yes,1,OR
Kyle Young,M,Multi-ply,SBD,73.84,75,255,145,257.5,657.5,Open,Yes,1,OR
Keelan Schule,M,Multi-ply,SBD,89.9,90,195,205,260,660,Open,Yes,1,WA
Dave Chun,M,Raw,B,65.77,67.5,,82.5,,82.5,Masters 55-59,Yes,1,OR
Eric Lumpkin,M,Raw,B,74.21,75,,132.5,,132.5,Masters 50-54,Yes,1,OR
Roger Walsh,M,Raw,B,88.9,90,,147.5,,147.5,Submasters 33-39,Yes,1,OR
Steven Hauger,M,Raw,B,96.98,100,,,,,Masters 40-44,No,DQ,WA
Steadman Mathis,M,Raw,B,104.96,110,,170,,170,Masters 60-64,Yes,1,WA
Jerry Huhn,M,Raw,B,102.51,110,,105,,105,Masters 75+,Yes,1,OR
Steadman Mathis,M,Raw,B,104.96,110,,170,,170,Masters 60-64,No,1,WA
Brandon Love,M,Raw,B,101.88,110,,,,,Open,No,DQ,WA
Steven Hauger,M,Raw,B,110.59,125,,,,,Open,No,DQ,WA
Jared Gochenour,M,Raw,B,137.89,140,,215,,215,Submasters 33-39,No,1,OR
Ben Crutcher,M,Raw,B,178.26,140+,,200,,200,Open,Yes,1,OR
Timothy Olsen,M,Raw,B,149.96,140+,,167.5,,167.5,Masters 50-54,No,1,OR
Eric Lumpkin,M,Raw,D,74.21,75,,,202.5,202.5,Masters 50-54,Yes,1,OR
Timothy Hilgers,M,Raw,D,98.25,100,,,200,200,Masters 55-59,Yes,1,OR
Jordan Hall,M,Raw,D,96.71,100,,,205,205,Open,Yes,1,OR
Charlie Martin,M,Raw,D,71.21,75,,,200,200,Teen 13-15,Yes,1,OR
Shellie Corona,F,Raw,D,108.05,90+,,,152.5,152.5,Open,Yes,1,OR
