Sex,Equipment,Division,WeightClassKg,Name,BodyweightKg,Best3SquatKg,Best3BenchKg,Best3DeadliftKg,TotalKg,Event,Place
F,Raw,Amateur Juniors 20-23,90,Mae Pickering,86.35,87.5,52.5,102.5,242.5,SBD,1
F,Wraps,Amateur Open,75,Dorian Walters,69.75,110,47.5,122.5,280,SBD,1
F,Raw,Amateur Open,90,Courtney Becker,84.5,102.5,50,115,267.5,SBD,1
F,Raw,Amateur Submasters 33-39,52,Adria Battaglia,52,,27.5,55,82.5,BD,1
M,Raw,Amateur Teen 16-17,90,David Williams,89.2,175,112.5,200,487.5,SBD,1
M,Raw,Police Amateur Open,110,Bradley Becker,105.35,192.5,,,,SBD,DQ
M,Wraps,Amateur Juniors 20-23,100,Salvador Guillen,92.55,142.5,105,152.5,400,SBD,1
M,Raw,Amateur Teen 16-17,75,Zimmer Rogers,68.5,,70,160,230,BD,1
M,Raw,Amateur Masters 45-49,75,Derek Moore,74.6,,127.5,,,BD,DQ
