Division,WeightClassKg,Place,Name,Team,BodyweightKg,Best3SquatKg,Best3BenchKg,Best3DeadliftKg,TotalKg,Equipment,Event,Sex
Boys,51.71,1,Preston Fox,Lampasas,51.71,136.08,95.25,147.42,378.75,Single-ply,SBD,M
Boys,51.71,2,Joel Santillan,Clifton,51.35,133.81,83.91,149.69,367.41,Single-ply,SBD,M
Boys,51.71,3,Bryce Leatherwood,Dublin,51.53,122.47,65.77,115.67,303.91,Single-ply,SBD,M
Boys,51.71,4,Enrique Davila,San Saba,50.35,108.86,43.09,129.27,281.23,Single-ply,SBD,M
Boys,51.71,5,Dylan Charles,Gatesville,51.07,104.33,52.16,104.33,260.82,Single-ply,SBD,M
Boys,55.79,1,Kyle Arriola,Lampasas,55.79,140.61,88.45,154.22,383.29,Single-ply,SBD,M
Boys,55.79,2,Hao Tran,Gatesville,55.79,124.74,81.65,147.42,353.8,Single-ply,SBD,M
Boys,55.79,3,Houston Tucker,Hamilton,55.25,131.54,72.57,142.88,347,Single-ply,SBD,M
Boys,59.87,1,Lleyton Frazier,Tuscola Jim Ned,58.69,133.81,90.72,158.76,383.29,Single-ply,SBD,M
Boys,59.87,2,Weston Schasteen,Clifton,57.7,129.27,74.84,136.08,340.19,Single-ply,SBD,M
Boys,59.87,DQ,Jaydon Clemons,Italy,57.33,138.35,95.25,,,Single-ply,SBD,M
Boys,67.13,1,Carter Turner,San Saba,67.13,158.76,99.79,185.97,444.52,Single-ply,SBD,M
Boys,67.13,2,Stephen Fritz,Lingleville,62.78,156.49,117.93,158.76,433.18,Single-ply,SBD,M
Boys,67.13,3,Cesar Galvan,Dublin,61.78,158.76,97.52,170.1,426.38,Single-ply,SBD,M
Boys,67.13,4,Logan Wheeler,Blanket,67.13,142.88,86.18,172.37,401.43,Single-ply,SBD,M
Boys,67.13,5,Sakima Herrera,San Saba,66.41,142.88,95.25,161.03,399.16,Single-ply,SBD,M
Boys,67.13,6,Rob Young,Tuscola Jim Ned,64.41,149.69,95.25,147.42,392.36,Single-ply,SBD,M
Boys,67.13,7,Anthony Seider,Lometa,64.95,138.35,88.45,165.56,392.36,Single-ply,SBD,M
Boys,67.13,8,Matthew Lozano,Anson,60.96,136.08,72.57,145.15,353.8,Single-ply,SBD,M
Boys,67.13,9,Clayton Schmucker,Dublin,64.77,133.81,79.38,140.61,353.8,Single-ply,SBD,M
Boys,67.13,DQ,Read Saint,San Saba,65.86,,,,,Single-ply,SBD,M
Boys,74.84,1,Sean Williams,Lampasas,71.49,231.33,151.95,231.33,614.62,Single-ply,SBD,M
Boys,74.84,2,Jack Jerome,Lampasas,71.4,192.78,129.27,192.78,514.83,Single-ply,SBD,M
Boys,74.84,3,Martin Najera,Hamilton,74.84,192.78,111.13,204.12,508.02,Single-ply,SBD,M
Boys,74.84,4,Colby Skarpa,West,72.85,195.04,124.74,179.17,498.95,Single-ply,SBD,M
Boys,74.84,5,Michael Cornish,Lampasas,74.39,188.24,104.33,201.85,494.42,Single-ply,SBD,M
Boys,74.84,6,Blake Boyd,Alvarado,72.94,195.04,117.93,172.37,485.34,Single-ply,SBD,M
Boys,74.84,7,Blake Pettit,Hamilton,71.85,192.78,97.52,190.51,480.81,Single-ply,SBD,M
Boys,74.84,8,Ezequiel Gonzalez,Hillsboro,72.39,174.63,113.4,190.51,478.54,Single-ply,SBD,M
Boys,74.84,9,Treston Horn,Clifton,69.85,165.56,124.74,165.56,455.86,Single-ply,SBD,M
Boys,74.84,10,Angel Escobar,Dublin,74.84,151.95,90.72,163.29,405.97,Single-ply,SBD,M
Boys,74.84,11,Gage Davis,Dublin,72.03,102.06,74.84,136.08,312.98,Single-ply,SBD,M
Boys,74.84,DQ,Ethan LeGrande,Hamilton,70.94,151.95,83.91,,,Single-ply,SBD,M
Boys,74.84,DQ,Erik Argote,San Saba,73.66,154.22,104.33,,,Single-ply,SBD,M
Boys,74.84,DQ,Juan Rodriguez,Dublin,71.49,,,,,Single-ply,SBD,M
Boys,74.84,DQ,Daylon Slade,Italy,69.94,,,,,Single-ply,SBD,M
Boys,74.84,DQ,Andy Montoya,San Saba,74.3,,,,,Single-ply,SBD,M
Boys,82.1,1,Neiman Turner,Hillsboro,81.74,190.51,122.47,217.72,530.7,Single-ply,SBD,M
Boys,82.1,2,Daunte Cuffie,Lampasas,81.83,201.85,133.81,190.51,526.17,Single-ply,SBD,M
Boys,82.1,3,Jacob Winter,Lingleville,80.29,204.12,108.86,206.38,519.36,Single-ply,SBD,M
Boys,82.1,4,Price Odom,Comanche,79.11,199.58,113.4,204.12,517.1,Single-ply,SBD,M
Boys,82.1,5,Blaize Leatherwood,Dublin,77.29,185.97,92.99,197.31,476.27,Single-ply,SBD,M
Boys,82.1,6,Cristian Vazquez,Dublin,79.29,181.44,111.13,167.83,460.4,Single-ply,SBD,M
Boys,82.1,7,Riley Perry,Clifton,79.65,165.56,106.59,172.37,444.52,Single-ply,SBD,M
Boys,82.1,DQ,Canon Arnold,Alvarado,81.92,208.65,129.27,,,Single-ply,SBD,M
Boys,82.1,DQ,Ty Tipton,Cross Plains,80.74,,,,,Single-ply,SBD,M
Boys,82.1,DQ,Austin Rosales,Coleman,78.11,151.95,,,,Single-ply,SBD,M
Boys,89.81,1,Michael Nguyen,Lampasas,88,244.94,174.63,267.62,687.19,Single-ply,SBD,M
Boys,89.81,2,Rolando Ramirez,Hillsboro,88.36,213.19,133.81,204.12,551.11,Single-ply,SBD,M
Boys,89.81,3,Joseph Watson,San Saba,89.27,192.78,127.01,210.92,530.7,Single-ply,SBD,M
Boys,89.81,4,Ryan Lloyd,Clifton,89.72,195.04,145.15,165.56,505.76,Single-ply,SBD,M
Boys,89.81,5,Jacob Turner,Tuscola Jim Ned,89.81,179.17,104.33,217.72,501.22,Single-ply,SBD,M
Boys,89.81,6,Ulises DeLaCerda,Dublin,84.91,170.1,113.4,185.97,469.47,Single-ply,SBD,M
Boys,89.81,7,Tanner Isom,Blanket,89.81,167.83,102.06,181.44,451.32,Single-ply,SBD,M
Boys,89.81,8,Bladen Colley,San Saba,88.63,158.76,81.65,181.44,421.84,Single-ply,SBD,M
Boys,89.81,9,Mack Wright,San Saba,82.92,124.74,63.5,131.54,319.78,Single-ply,SBD,M
Boys,89.81,DQ,Joctan Librado,Hillsboro,89.72,213.19,127.01,,,Single-ply,SBD,M
Boys,89.81,DQ,Colton Marshall,Hawley,85.64,154.22,,,,Single-ply,SBD,M
Boys,89.81,DQ,Damian Dominguez,Grandview,85.91,,,,,Single-ply,SBD,M
Boys,99.79,1,Eric Rossen,Grandview,91.08,238.14,117.93,215.46,571.53,Single-ply,SBD,M
Boys,99.79,2,Weston Brown,Gatesville,91.63,206.38,138.35,226.8,571.53,Single-ply,SBD,M
Boys,99.79,3,Mason Oliver,Clifton,91.81,219.99,111.13,238.14,569.26,Single-ply,SBD,M
Boys,99.79,4,Arthur Murillo,Tuscola Jim Ned,94.44,213.19,108.86,213.19,535.24,Single-ply,SBD,M
Boys,99.79,DQ,Caden Carrizales,Brady,98.88,,,,,Single-ply,SBD,M
Boys,109.77,1,Brandon Padilla,Anson,109.77,283.5,156.49,244.94,684.92,Single-ply,SBD,M
Boys,109.77,2,Clayton Pierce,San Saba,101.79,217.72,140.61,215.46,573.79,Single-ply,SBD,M
Boys,109.77,3,Jared Ricks,Dublin,106.96,204.12,154.22,208.65,566.99,Single-ply,SBD,M
Boys,109.77,4,Shamar Richardson,Dawson,109.77,210.92,142.88,210.92,564.72,Single-ply,SBD,M
Boys,109.77,5,Jeremy Rodgers,Lampasas,104.42,199.58,117.93,226.8,544.31,Single-ply,SBD,M
Boys,109.77,6,Jorge Saldana,Grandview,108.05,242.67,127.01,174.63,544.31,Single-ply,SBD,M
Boys,109.77,7,Max Stava,Brock,102.97,195.04,136.08,192.78,523.9,Single-ply,SBD,M
Boys,109.77,DQ,Jayden Chancellor,Brock,104.78,,,,,Single-ply,SBD,M
Boys,109.77,DQ,Christian Molina,Brady,106.59,,,,,Single-ply,SBD,M
Boys,109.77,DQ,Zane Guerra,Dawson,102.87,210.92,131.54,,,Single-ply,SBD,M
Boys,109.77,DQ,Astin Carr,Hamilton,104.87,,,,,Single-ply,SBD,M
Boys,109.77,DQ,Jacob Snoddy,Gatesville,108.41,190.51,,,,Single-ply,SBD,M
Boys,109.77,DQ,Rudy Esparza,Lampasas,108.68,,,,,Single-ply,SBD,M
Boys,124.74,1,Ethan Price,Dublin,119.29,292.57,215.46,272.16,780.18,Single-ply,SBD,M
Boys,124.74,2,Jacob Collier,Cross Plains,112.85,242.67,120.2,208.65,571.53,Single-ply,SBD,M
Boys,124.74,3,David Galvan,Anson,120.29,215.46,120.2,213.19,548.85,Single-ply,SBD,M
Boys,124.74,4,Eddie Hernandez,Anson,117.39,210.92,104.33,195.04,510.29,Single-ply,SBD,M
Boys,124.74,5,Landin Short,San Saba,115.76,190.51,113.4,195.04,498.95,Single-ply,SBD,M
Boys,124.74,6,Atanacio James,San Saba,114.85,181.44,131.54,181.44,494.42,Single-ply,SBD,M
Boys,124.74,7,Bryan Reza,San Saba,114.94,165.56,104.33,181.44,451.32,Single-ply,SBD,M
Boys,124.74,DQ,Terry Dixon,Italy,118.93,,,,,Single-ply,SBD,M
Boys,124.74,DQ,Dakota Nichols,Hawley,123.29,,,,,Single-ply,SBD,M
Boys,124.74,DQ,Bo Thompson,Hawley,113.76,,,,,Single-ply,SBD,M
Boys,124.74,DQ,Jim Hitchcock,Gatesville,117.21,242.67,,,,Single-ply,SBD,M
Boys,124.74,DQ,Israel DelaCruz,Anson,111.49,,,,,Single-ply,SBD,M
Boys,124.74,DQ,Julio Sanchez,Brock,110.4,,,,,Single-ply,SBD,M
Boys,124.74+,1,John Brunner,Brock,143.88,240.4,140.61,215.46,596.47,Single-ply,SBD,M
Boys,124.74+,2,Diesel Ceresini,Hamilton,135.71,244.94,117.93,219.99,582.87,Single-ply,SBD,M
Boys,124.74+,3,Juan Rodriguez,Clifton,158.85,224.53,149.69,192.78,566.99,Single-ply,SBD,M
Boys,124.74+,4,Tyler Johnson,Lampasas,142.61,238.14,117.93,197.31,553.38,Single-ply,SBD,M
Boys,124.74+,5,Jaron Castillo,Anson,131.27,222.26,113.4,199.58,535.24,Single-ply,SBD,M
Boys,124.74+,DQ,Bryen Healey,Dublin,128.73,,,,,Single-ply,SBD,M
