Division,WeightClassKg,Place,Name,Team,BodyweightKg,Best3SquatKg,Best3BenchKg,Best3DeadliftKg,TotalKg,Equipment,Event,Sex
Boys,51.71,1,Carson Johnson,Paris,50.71,104.33,65.77,117.93,288.03,Single-ply,SBD,M
Boys,51.71,2,Nate Brower,Maud,49.9,102.06,56.7,99.79,258.55,Single-ply,SBD,M
Boys,51.71,3,Avery Whitlow,Atlanta,45.45,74.84,43.09,88.45,206.38,Single-ply,SBD,M
Boys,55.79,1,Deuntre Adamson,Paris,55.7,140.61,86.18,170.1,396.89,Single-ply,SBD,M
Boys,55.79,2,Malique Fields,Texarkana Texas,55.79,124.74,61.23,136.08,322.05,Single-ply,SBD,M
Boys,55.79,3,Elijah Webster,Queen City,55.61,88.45,63.5,117.93,269.89,Single-ply,SBD,M
Boys,55.79,4,Lane Davis,Mount Pleasant Chapel Hill,54.98,88.45,47.63,108.86,244.94,Single-ply,SBD,M
Boys,55.79,DQ,Kadin Daniels,Maud,55.07,108.86,,136.08,,Single-ply,SBD,M
Boys,59.87,1,Keiotti Bray,Paris,57.52,181.44,117.93,167.83,467.2,Single-ply,SBD,M
Boys,59.87,2,Ben Harris,Queen City,58.15,156.49,108.86,165.56,430.91,Single-ply,SBD,M
Boys,59.87,3,Xavier Edwards,Texarkana Liberty-Eylau,55.97,163.29,99.79,142.88,405.97,Single-ply,SBD,M
Boys,59.87,4,David Nava,Mount Pleasant,59.6,127.01,70.31,136.08,333.39,Single-ply,SBD,M
Boys,59.87,5,Christopher Cochran,New Boston,58.79,72.57,49.9,97.52,219.99,Single-ply,SBD,M
Boys,59.87,DQ,Karson Bynum,Linden-Kildare,58.88,117.93,,138.35,,Single-ply,SBD,M
Boys,59.87,DQ,Reece Elrod,Texarkana Pleasant Grove,58.88,138.35,,129.27,,Single-ply,SBD,M
Boys,67.13,1,Jason Jackson,De Kalb,67.13,204.12,111.13,192.78,508.02,Single-ply,SBD,M
Boys,67.13,2,Dalton Johnson,Atlanta,64.5,183.7,97.52,176.9,458.13,Single-ply,SBD,M
Boys,67.13,3,Patrick Dreeson,Linden-Kildare,60.42,181.44,95.25,165.56,442.25,Single-ply,SBD,M
Boys,67.13,4,Xavier Coleman,Atlanta,63.87,165.56,86.18,172.37,424.11,Single-ply,SBD,M
Boys,67.13,5,Antonio Landaverde,Mount Pleasant,64.86,142.88,90.72,149.69,383.29,Single-ply,SBD,M
Boys,67.13,6,Ethan Mayes,Mount Pleasant Chapel Hill,67.04,136.08,65.77,181.44,383.29,Single-ply,SBD,M
Boys,67.13,7,GiTaeus Young,Paris,60.78,147.42,81.65,147.42,376.48,Single-ply,SBD,M
Boys,67.13,8,Jagger Dyer,Atlanta,66.13,136.08,81.65,142.88,360.61,Single-ply,SBD,M
Boys,67.13,9,Joshua Davis,Queen City,65.5,127.01,65.77,136.08,328.85,Single-ply,SBD,M
Boys,67.13,10,Alex Vaseleck,Mount Pleasant,62.6,129.27,63.5,129.27,322.05,Single-ply,SBD,M
Boys,67.13,11,Javon Williams,Texarkana Texas,66.5,108.86,74.84,129.27,312.98,Single-ply,SBD,M
Boys,67.13,12,Hunter Camarillo,Linden-Kildare,65.41,90.72,63.5,147.42,301.64,Single-ply,SBD,M
Boys,67.13,13,Tyler Thomas,Texarkana Texas,66.5,108.86,74.84,113.4,297.1,Single-ply,SBD,M
Boys,67.13,14,Andrew White,Redwater,64.68,97.52,61.23,113.4,272.16,Single-ply,SBD,M
Boys,67.13,15,Nicholos Ramirez,Mount Pleasant,67.13,83.91,58.97,127.01,269.89,Single-ply,SBD,M
Boys,67.13,16,Jace Bramlett,Maud,61.78,90.72,49.9,99.79,240.4,Single-ply,SBD,M
Boys,67.13,DQ,Kaden Graves,Linden-Kildare,63.68,115.67,,136.08,,Single-ply,SBD,M
Boys,67.13,DQ,Roman Roberts,Redwater,66.04,113.4,,161.03,,Single-ply,SBD,M
Boys,74.84,1,Jacob Nash,Atlanta,74.75,249.48,147.42,226.8,623.69,Single-ply,SBD,M
Boys,74.84,2,Dustin Newman,Mount Pleasant Chapel Hill,73.66,181.44,90.72,192.78,464.93,Single-ply,SBD,M
Boys,74.84,3,Drew Bush,Paris,73.57,170.1,108.86,179.17,458.13,Single-ply,SBD,M
Boys,74.84,4,Logan Shelton,Queen City,74.84,167.83,102.06,181.44,451.32,Single-ply,SBD,M
Boys,74.84,5,Kj Hicks,Texarkana Pleasant Grove,70.85,170.1,90.72,163.29,424.11,Single-ply,SBD,M
Boys,74.84,6,Devin Walters,Mount Pleasant Chapel Hill,71.12,145.15,97.52,174.63,417.3,Single-ply,SBD,M
Boys,74.84,7,Montrel McCarty,Paris,70.94,145.15,95.25,163.29,403.7,Single-ply,SBD,M
Boys,74.84,8,Zachariah Jefferson,Atlanta,70.58,147.42,90.72,156.49,394.63,Single-ply,SBD,M
Boys,74.84,9,Marquavius Fisher,Texarkana Texas,72.94,165.56,77.11,145.15,387.82,Single-ply,SBD,M
Boys,74.84,10,Trey Schuler,Linden-Kildare,70.03,138.35,79.38,158.76,376.48,Single-ply,SBD,M
Boys,74.84,11,Paul Neal,De Kalb,71.85,136.08,86.18,142.88,365.14,Single-ply,SBD,M
Boys,74.84,12,Caden Miller,Texarkana Texas,74.39,115.67,99.79,142.88,358.34,Single-ply,SBD,M
Boys,74.84,13,Montrel Denmark,Texarkana Texas,69.04,142.88,68.04,136.08,347,Single-ply,SBD,M
Boys,74.84,14,Chris Druhan,Texarkana Pleasant Grove,72.94,133.81,74.84,133.81,342.46,Single-ply,SBD,M
Boys,74.84,15,Austin Terry,Queen City,71.76,127.01,70.31,136.08,333.39,Single-ply,SBD,M
Boys,74.84,DQ,Corbin Shine,Texarkana Pleasant Grove,74.12,129.27,72.57,,,Single-ply,SBD,M
Boys,74.84,DQ,Nathan Rogers,Queen City,71.76,,65.77,131.54,,Single-ply,SBD,M
Boys,82.1,1,Clayton Mosley,Atlanta,81.47,226.8,154.22,240.4,621.42,Single-ply,SBD,M
Boys,82.1,2,Jordan Helms,Redwater,77.66,215.46,147.42,215.46,578.33,Single-ply,SBD,M
Boys,82.1,3,Maravieon Riles,Texarkana Liberty-Eylau,80.65,199.58,120.2,215.46,535.24,Single-ply,SBD,M
Boys,82.1,4,Dillion Kizer,De Kalb,80.47,195.04,111.13,188.24,494.42,Single-ply,SBD,M
Boys,82.1,5,Tracy Cooper,Texarkana Texas,80.65,183.7,92.99,195.04,471.74,Single-ply,SBD,M
Boys,82.1,6,Daniel Bautista,Mount Pleasant,81.47,179.17,90.72,190.51,460.4,Single-ply,SBD,M
Boys,82.1,7,Canon Eaton,Texarkana Liberty-Eylau,79.02,163.29,108.86,183.7,455.86,Single-ply,SBD,M
Boys,82.1,8,Jeremiah Jefferson,Atlanta,81.83,170.1,99.79,183.7,453.59,Single-ply,SBD,M
Boys,82.1,9,Nick Martin,Texarkana Pleasant Grove,81.92,174.63,92.99,183.7,451.32,Single-ply,SBD,M
Boys,82.1,10,Lathon Morgan,Redwater,81.74,158.76,117.93,167.83,444.52,Single-ply,SBD,M
Boys,82.1,11,LLeyton Reed,Texarkana Liberty-Eylau,76.2,172.37,90.72,154.22,417.3,Single-ply,SBD,M
Boys,82.1,12,David Walters,Mount Pleasant Chapel Hill,77.66,151.95,72.57,183.7,408.23,Single-ply,SBD,M
Boys,82.1,13,Jacob Isbell,Mount Pleasant Chapel Hill,78.02,124.74,74.84,158.76,358.34,Single-ply,SBD,M
Boys,82.1,14,Shayne Nelson,Texarkana Pleasant Grove,76.93,113.4,90.72,138.35,342.46,Single-ply,SBD,M
Boys,82.1,15,Jacob Mahar,Hooks,76.48,120.2,72.57,142.88,335.66,Single-ply,SBD,M
Boys,82.1,16,Angel Perez,Mount Pleasant,81.1,115.67,68.04,120.2,303.91,Single-ply,SBD,M
Boys,82.1,DQ,Dimitri Coles,Texarkana Texas,79.47,165.56,,172.37,,Single-ply,SBD,M
Boys,89.81,1,Dylan Perkins,New Boston,83.73,190.51,124.74,201.85,517.1,Single-ply,SBD,M
Boys,89.81,2,John Collier,Redwater,85.46,195.04,104.33,199.58,498.95,Single-ply,SBD,M
Boys,89.81,3,Arie Love,De Kalb,84.37,190.51,106.59,190.51,487.61,Single-ply,SBD,M
Boys,89.81,4,Lakken Stuart,Texarkana Liberty-Eylau,87,170.1,124.74,192.78,487.61,Single-ply,SBD,M
Boys,89.81,5,Javin Cary,Paris,89.72,165.56,104.33,183.7,453.59,Single-ply,SBD,M
Boys,89.81,6,Vontrey Anderson,Texarkana Texas,82.55,158.76,102.06,185.97,446.79,Single-ply,SBD,M
Boys,89.81,7,Cahari Weekly,Texarkana Texas,85.64,154.22,92.99,179.17,426.38,Single-ply,SBD,M
Boys,89.81,8,Clay Fant,Atlanta,88.22,161.03,104.33,158.76,424.11,Single-ply,SBD,M
Boys,89.81,9,Trent Tennon,Paris,87.36,142.88,95.25,174.63,412.77,Single-ply,SBD,M
Boys,89.81,10,Astin Ledbetter,Mount Pleasant,88.63,142.88,83.91,181.44,408.23,Single-ply,SBD,M
Boys,89.81,11,Gunner Minor,Linden-Kildare,84.55,165.56,83.91,151.95,401.43,Single-ply,SBD,M
Boys,89.81,12,Gage Stivers,Texarkana Pleasant Grove,84.37,149.69,88.45,156.49,394.63,Single-ply,SBD,M
Boys,89.81,13,Brennan Gaston,Atlanta,87,145.15,86.18,156.49,387.82,Single-ply,SBD,M
Boys,89.81,14,Kylie Bagby,Hooks,82.46,142.88,83.91,158.76,385.55,Single-ply,SBD,M
Boys,89.81,15,Tarick Hussien,Redwater,89.72,136.08,102.06,145.15,383.29,Single-ply,SBD,M
Boys,89.81,16,Miguel Herra,Hooks,82.83,140.61,79.38,158.76,378.75,Single-ply,SBD,M
Boys,89.81,17,Hussien Hussien,Redwater,89.18,147.42,83.91,145.15,376.48,Single-ply,SBD,M
Boys,89.81,18,Jadyn Kelly,Texarkana Texas,82.64,120.2,92.99,158.76,371.95,Single-ply,SBD,M
Boys,89.81,19,Jawaf Hussien,Redwater,88.54,129.27,86.18,136.08,351.53,Single-ply,SBD,M
Boys,89.81,DQ,Josh Porchia,Texarkana Pleasant Grove,82.92,154.22,,138.35,,Single-ply,SBD,M
Boys,89.81,DQ,Bruce Garrett,Texarkana Pleasant Grove,82.37,,106.59,163.29,,Single-ply,SBD,M
Boys,99.79,1,Trey Adams,Atlanta,98.43,244.94,149.69,219.99,614.62,Single-ply,SBD,M
Boys,99.79,2,Trestin Whitehead,Texarkana Texas,97.89,226.8,136.08,238.14,601.01,Single-ply,SBD,M
Boys,99.79,3,Garrett Harp,Redwater,99.79,226.8,140.61,222.26,589.67,Single-ply,SBD,M
Boys,99.79,4,Carlos Rojas,Redwater,97.98,204.12,124.74,215.46,544.31,Single-ply,SBD,M
Boys,99.79,5,Kadarian Asbell,Tyler,94.53,199.58,133.81,199.58,532.97,Single-ply,SBD,M
Boys,99.79,6,Kentrell Andrews,Atlanta,93.98,183.7,108.86,197.31,489.88,Single-ply,SBD,M
Boys,99.79,7,Londell Howard,De Kalb,90.08,174.63,108.86,197.31,480.81,Single-ply,SBD,M
Boys,99.79,8,Trustin Jones,Texarkana Liberty-Eylau,98.07,170.1,97.52,190.51,458.13,Single-ply,SBD,M
Boys,99.79,9,Nic Kunze,Linden-Kildare,92.71,170.1,92.99,190.51,453.59,Single-ply,SBD,M
Boys,99.79,10,Blake Mabry,Texarkana Texas,99.06,170.1,102.06,165.56,437.72,Single-ply,SBD,M
Boys,99.79,11,Jalen Green,Texarkana Texas,99.06,156.49,92.99,183.7,433.18,Single-ply,SBD,M
Boys,99.79,12,Nick Parker,Redwater,94.89,149.69,108.86,163.29,421.84,Single-ply,SBD,M
Boys,99.79,13,Ty Blizzard,Atlanta,91.26,149.69,104.33,158.76,412.77,Single-ply,SBD,M
Boys,99.79,14,James Thurston,Atlanta,93.17,142.88,102.06,158.76,403.7,Single-ply,SBD,M
Boys,99.79,15,Nathan Bush,Texarkana Liberty-Eylau,95.98,170.1,79.38,154.22,403.7,Single-ply,SBD,M
Boys,99.79,16,Elias Elizondo,Mount Pleasant,91.35,140.61,88.45,170.1,399.16,Single-ply,SBD,M
Boys,99.79,17,Quintin Collins,Texarkana Texas,93.08,124.74,79.38,142.88,347,Single-ply,SBD,M
Boys,99.79,18,Antonio Tyson,Texarkana Texas,99.06,113.4,74.84,149.69,337.93,Single-ply,SBD,M
Boys,99.79,19,James Stacy,Redwater,92.53,136.08,70.31,124.74,331.12,Single-ply,SBD,M
Boys,109.77,1,Quin Dangerfield,Paris,107.5,219.99,149.69,226.8,596.47,Single-ply,SBD,M
Boys,109.77,2,Cade Fant,Atlanta,102.69,226.8,136.08,226.8,589.67,Single-ply,SBD,M
Boys,109.77,3,Joel Guerrero,Mount Pleasant,105.78,226.8,129.27,192.78,548.85,Single-ply,SBD,M
Boys,109.77,4,Chance Hicks,Maud,105.14,185.97,113.4,204.12,503.49,Single-ply,SBD,M
Boys,109.77,5,Devaughnte Jack,Texarkana Texas,104.51,183.7,131.54,183.7,498.95,Single-ply,SBD,M
Boys,109.77,6,Brock Foster,Maud,106.96,174.63,124.74,183.7,483.08,Single-ply,SBD,M
Boys,109.77,7,Landon Liles,Linden-Kildare,104.87,170.1,111.13,190.51,471.74,Single-ply,SBD,M
Boys,109.77,8,Satchel Swain,Paris,102.06,176.9,108.86,174.63,460.4,Single-ply,SBD,M
Boys,109.77,9,Deandre Mitchell,Atlanta,102.15,158.76,99.79,142.88,401.43,Single-ply,SBD,M
Boys,109.77,10,Hayden Harrell,Texarkana Texas,104.05,142.88,79.38,170.1,392.36,Single-ply,SBD,M
Boys,109.77,11,Nathan Cooper,Queen City,101.06,158.76,86.18,145.15,390.09,Single-ply,SBD,M
Boys,109.77,12,Baily Logan,Texarkana Texas,104.51,165.56,92.99,124.74,383.29,Single-ply,SBD,M
Boys,109.77,13,Colton Brown,Hooks,100.33,129.27,77.11,170.1,376.48,Single-ply,SBD,M
Boys,109.77,14,Grant Blackmon,Texarkana Texas,104.51,142.88,79.38,142.88,365.14,Single-ply,SBD,M
Boys,124.74,1,Tyrell King,Atlanta,117.39,256.28,156.49,235.87,648.64,Single-ply,SBD,M
Boys,124.74,2,Jashon Pogue,Mount Pleasant,111.04,204.12,127.01,244.94,576.06,Single-ply,SBD,M
Boys,124.74,3,Jaedon Murphy,Paris,115.3,199.58,124.74,219.99,544.31,Single-ply,SBD,M
Boys,124.74,4,Ian Lail,Mount Pleasant Chapel Hill,110.31,213.19,111.13,210.92,535.24,Single-ply,SBD,M
Boys,124.74,5,Christopher McDaniel,De Kalb,124.28,181.44,106.59,206.38,494.42,Single-ply,SBD,M
Boys,124.74,6,Josh Gamble,Texarkana Liberty-Eylau,121.11,165.56,131.54,181.44,478.54,Single-ply,SBD,M
Boys,124.74,7,Rajahn Gatelin,Texarkana Texas,112.94,174.63,117.93,181.44,474,Single-ply,SBD,M
Boys,124.74,8,Eric Poe,Texarkana Texas,117.03,147.42,129.27,181.44,458.13,Single-ply,SBD,M
Boys,124.74,9,Christon Surratt,Texarkana Texas,112.13,170.1,102.06,183.7,455.86,Single-ply,SBD,M
Boys,124.74,10,David Ardinger,Texarkana Liberty-Eylau,122.56,176.9,106.59,172.37,455.86,Single-ply,SBD,M
Boys,124.74,11,Isaiah Johnson,Texarkana Liberty-Eylau,120.75,181.44,122.47,142.88,446.79,Single-ply,SBD,M
Boys,124.74,12,Jamie Lewis,Texarkana Pleasant Grove,117.39,170.1,102.06,154.22,426.38,Single-ply,SBD,M
Boys,124.74,13,Aidyn Hunter,Texarkana Texas,121.11,142.88,102.06,181.44,426.38,Single-ply,SBD,M
Boys,124.74,14,Tyrane McBride,Texarkana Texas,118.48,142.88,83.91,183.7,410.5,Single-ply,SBD,M
Boys,124.74,15,Qushaun McCullugh,Texarkana Texas,123.29,117.93,83.91,158.76,360.61,Single-ply,SBD,M
Boys,124.74,DQ,Landon Watlington,Texarkana Pleasant Grove,123.65,190.51,,,,Single-ply,SBD,M
Boys,124.74,DQ,Blake Slade,Texarkana Pleasant Grove,117.48,161.03,111.13,,,Single-ply,SBD,M
Boys,124.74,DQ,Christian Chamness,Mount Vernon,120.02,317.51,,,,Single-ply,SBD,M
Boys,124.74+,1,Cody Rutherford,New Boston,135.44,195.04,111.13,206.38,512.56,Single-ply,SBD,M
Boys,124.74+,2,Demarcus Day,Texarkana Texas,158.49,163.29,115.67,208.65,487.61,Single-ply,SBD,M
Boys,124.74+,3,Devin Moten,Paris,129.55,188.24,104.33,192.78,485.34,Single-ply,SBD,M
Boys,124.74+,4,Matthew Estes,Hooks,131.54,172.37,99.79,185.97,458.13,Single-ply,SBD,M
Boys,124.74+,5,Tyler Welborn,Mount Pleasant,148.51,158.76,108.86,185.97,453.59,Single-ply,SBD,M
Boys,124.74+,6,Damien Coats,Texarkana Texas,147.05,158.76,83.91,174.63,417.3,Single-ply,SBD,M
Boys,124.74+,7,Breoskii Warren,Texarkana Texas,136.26,129.27,79.38,158.76,367.41,Single-ply,SBD,M
Boys,,NS,Jordan Stiger,Atlanta,,,,,,Single-ply,SBD,M
Boys,,NS,Deanthony Burt,Atlanta,,,,,,Single-ply,SBD,M
Boys,,NS,Dekorian Parker,Atlanta,,,,,,Single-ply,SBD,M
Boys,,NS,Lakecion Richardson,Atlanta,,,,,,Single-ply,SBD,M
Boys,,NS,Justin Lance,Queen City,,,,,,Single-ply,SBD,M
Boys,,NS,Tommy Stagner,Queen City,,,,,,Single-ply,SBD,M
Boys,,NS,Damon Tyler-Moore,Texarkana Texas,,,,,,Single-ply,SBD,M
