Division,WeightClassKg,Place,Name,Team,BodyweightKg,Best3SquatKg,Best3BenchKg,Best3DeadliftKg,TotalKg,Equipment,Event,Sex
Boys,51.71,1,Al Gardner,Sealy,50.8,102.06,61.23,111.13,274.42,Single-ply,SBD,M
Boys,51.71,2,Shawn Patterson,Bastrop Cedar Creek,51.71,79.38,56.7,104.33,240.4,Single-ply,SBD,M
Boys,51.71,3,Colt Baranowski,Smithville,39.28,90.72,43.09,92.99,226.8,Single-ply,SBD,M
Boys,51.71,4,Zane Timpson,Smithville,44.72,68.04,36.29,90.72,195.04,Single-ply,SBD,M
Boys,51.71,5,Clayton Tomes,Smithville,51.62,52.16,45.36,56.7,154.22,Single-ply,SBD,M
Boys,55.79,1,Brandon Powell,Caldwell,55.79,106.59,63.5,115.67,285.76,Single-ply,SBD,M
Boys,55.79,2,Ancelmo Cruces,Cuero,53.52,108.86,61.23,90.72,260.82,Single-ply,SBD,M
Boys,55.79,DQ,Devin Banda,Gonzales,53.98,90.72,,,,Single-ply,SBD,M
Boys,59.87,1,Leonardo Calderon,San Marcos,59.87,181.44,117.93,167.83,467.2,Single-ply,SBD,M
Boys,59.87,2,Zeke Martinez,San Marcos,57.15,154.22,90.72,190.51,435.45,Single-ply,SBD,M
Boys,59.87,3,Fernando Maldonado,Smithville,59.69,147.42,104.33,183.7,435.45,Single-ply,SBD,M
Boys,59.87,4,Frank Cobio,Brookshire Royal,58.97,142.88,95.25,158.76,396.89,Single-ply,SBD,M
Boys,59.87,5,Trey Motyka,Smithville,59.87,124.74,74.84,142.88,342.46,Single-ply,SBD,M
Boys,59.87,6,Raul Arizola,Smithville,59.87,102.06,81.65,120.2,303.91,Single-ply,SBD,M
Boys,59.87,7,Dylan Morales,Bastrop Cedar Creek,58.97,70.31,65.77,115.67,251.74,Single-ply,SBD,M
Boys,67.13,1,Nathaniel Olvera,Smithville,66.86,183.7,111.13,208.65,503.49,Single-ply,SBD,M
Boys,67.13,2,Alex Ortiz,Gonzales,67.13,197.31,113.4,192.78,503.49,Single-ply,SBD,M
Boys,67.13,3,Sam Muniz,San Marcos,64.86,154.22,90.72,204.12,449.06,Single-ply,SBD,M
Boys,67.13,4,Hunter Berry,Sealy,60.78,165.56,83.91,170.1,419.57,Single-ply,SBD,M
Boys,67.13,5,Josh Burkhalter,Caldwell,62.14,183.7,72.57,161.03,417.3,Single-ply,SBD,M
Boys,67.13,6,Trevor Howard,Bellville,66.68,147.42,61.23,158.76,367.41,Single-ply,SBD,M
Boys,67.13,7,Justin Ficklen,Cuero,67.13,122.47,70.31,147.42,340.19,Single-ply,SBD,M
Boys,67.13,8,Heber Cardona,Gonzales,62.6,113.4,83.91,129.27,326.59,Single-ply,SBD,M
Boys,67.13,9,George Sanchez,Luling,65.77,136.08,65.77,124.74,326.59,Single-ply,SBD,M
Boys,67.13,10,Klayton Morris,Bastrop Cedar Creek,63.96,111.13,65.77,129.27,306.17,Single-ply,SBD,M
Boys,67.13,11,David Duffala,Bellville,61.69,111.13,61.23,113.4,285.76,Single-ply,SBD,M
Boys,67.13,DQ,Ben Villereal,Cuero,67.13,124.74,,161.03,,Single-ply,SBD,M
Boys,67.13,DQ,Jacob Brumley,Caldwell,61.69,,,,,Single-ply,SBD,M
Boys,74.84,1,Abraham Ramirez,Cuero,73.94,229.06,161.03,231.33,621.42,Single-ply,SBD,M
Boys,74.84,2,Albian Leyva,San Marcos,72.12,197.31,120.2,208.65,526.17,Single-ply,SBD,M
Boys,74.84,3,Hunter Luscombe,Sealy,74.84,188.24,106.59,188.24,483.08,Single-ply,SBD,M
Boys,74.84,4,Andrew Wyatt,Smithville,73.48,163.29,113.4,188.24,464.93,Single-ply,SBD,M
Boys,74.84,5,Kalob Jonas,Smithville,70.31,176.9,90.72,183.7,451.32,Single-ply,SBD,M
Boys,74.84,6,Joseph Stewart,Brookshire Royal,72.12,188.24,104.33,158.76,451.32,Single-ply,SBD,M
Boys,74.84,7,Peyton Tuggle,Bastrop Cedar Creek,70.31,174.63,90.72,158.76,424.11,Single-ply,SBD,M
Boys,74.84,8,Kyle Thiele,Giddings,73.94,147.42,108.86,158.76,415.04,Single-ply,SBD,M
Boys,74.84,9,Briley Yancey,Smithville,74.39,149.69,102.06,158.76,410.5,Single-ply,SBD,M
Boys,74.84,10,James Martinez,Gonzales,72.12,133.81,83.91,158.76,376.48,Single-ply,SBD,M
Boys,74.84,11,Isaac Longoria,Gonzales,72.57,145.15,72.57,158.76,376.48,Single-ply,SBD,M
Boys,74.84,12,Abraham Moreno,Sealy,74.84,120.2,83.91,158.76,362.87,Single-ply,SBD,M
Boys,74.84,13,Keiran Grant,Cuero,74.84,122.47,90.72,142.88,356.07,Single-ply,SBD,M
Boys,74.84,14,Jordan Owens,San Marcos,70.31,129.27,72.57,142.88,344.73,Single-ply,SBD,M
Boys,74.84,15,Sergio Torres #1,Gonzales,74.39,104.33,83.91,133.81,322.05,Single-ply,SBD,M
Boys,74.84,16,Adrian Castaneda,Bellville,74.84,106.59,83.91,124.74,315.25,Single-ply,SBD,M
Boys,74.84,DQ,Gerardo Aleman,Caldwell,74.39,158.76,81.65,,,Single-ply,SBD,M
Boys,74.84,DQ,James Williams #7,Smithville,71.76,,,,,Single-ply,SBD,M
Boys,82.1,1,Jaric Crider,Bellville,80.29,206.38,124.74,206.38,537.51,Single-ply,SBD,M
Boys,82.1,2,Toby Proske,Giddings,81.65,217.72,124.74,181.44,523.9,Single-ply,SBD,M
Boys,82.1,3,Prudencio Calderon,San Marcos,82.1,170.1,108.86,231.33,510.29,Single-ply,SBD,M
Boys,82.1,4,Nomar Rivera,Smithville,77.29,190.51,115.67,188.24,494.42,Single-ply,SBD,M
Boys,82.1,5,Jestin Welch,Sealy,82.1,192.78,120.2,170.1,483.08,Single-ply,SBD,M
Boys,82.1,6,Cavion Garner,San Marcos,78.93,170.1,106.59,183.7,460.4,Single-ply,SBD,M
Boys,82.1,7,Victor Martinez,San Marcos,81.65,165.56,111.13,183.7,460.4,Single-ply,SBD,M
Boys,82.1,8,Frank Trevino,Smithville,81.92,156.49,99.79,179.17,435.45,Single-ply,SBD,M
Boys,82.1,9,Jake Salem,Schulenburg,81.65,158.76,102.06,147.42,408.23,Single-ply,SBD,M
Boys,82.1,10,Collin Ramos,San Marcos,75.75,136.08,81.65,158.76,376.48,Single-ply,SBD,M
Boys,82.1,11,Francisco Serrato,Brookshire Royal,78.47,102.06,72.57,129.27,303.91,Single-ply,SBD,M
Boys,82.1,12,Mauro Calderon,Brookshire Royal,81.65,113.4,68.04,122.47,303.91,Single-ply,SBD,M
Boys,82.1,13,Zach Banda,Cuero,80.74,90.72,65.77,113.4,269.89,Single-ply,SBD,M
Boys,82.1,14,BJ Alvarado,Sealy,76.66,83.91,61.23,90.72,235.87,Single-ply,SBD,M
Boys,89.81,1,Chris Lewis,Smithville,88.9,231.33,117.93,226.8,576.06,Single-ply,SBD,M
Boys,89.81,2,Ben Carmean,Bellville,88,219.99,136.08,181.44,537.51,Single-ply,SBD,M
Boys,89.81,3,Alex Reyes,Brookshire Royal,88.9,192.78,117.93,190.51,501.22,Single-ply,SBD,M
Boys,89.81,4,Dayton Ball,Cuero,85.28,170.1,106.59,192.78,469.47,Single-ply,SBD,M
Boys,89.81,5,Cullen Schrader,Bellville,83.91,158.76,120.2,174.63,453.59,Single-ply,SBD,M
Boys,89.81,6,Marques Henry,Bastrop Cedar Creek,89.81,147.42,102.06,154.22,403.7,Single-ply,SBD,M
Boys,89.81,7,Andrew Telg,Caldwell,88,140.61,90.72,170.1,401.43,Single-ply,SBD,M
Boys,89.81,8,Braden Tillery,Cuero,86.18,154.22,77.11,158.76,390.09,Single-ply,SBD,M
Boys,89.81,9,James Gracia,Bastrop Cedar Creek,82.55,136.08,88.45,163.29,387.82,Single-ply,SBD,M
Boys,89.81,10,Connor Kelly,Bastrop Cedar Creek,83.46,147.42,83.91,151.95,383.29,Single-ply,SBD,M
Boys,89.81,11,Daniel García,Brookshire Royal,83.46,113.4,88.45,170.1,371.95,Single-ply,SBD,M
Boys,99.79,1,Joseph Rodriguez,Bastrop Cedar Creek,98.43,238.14,136.08,231.33,605.55,Single-ply,SBD,M
Boys,99.79,2,Lex Leibfried,Bellville,98.43,226.8,149.69,226.8,603.28,Single-ply,SBD,M
Boys,99.79,3,Trent Shauer,Gonzales,91.63,190.51,136.08,199.58,526.17,Single-ply,SBD,M
Boys,99.79,4,Luke Berglund,Bellville,99.79,170.1,131.54,190.51,492.15,Single-ply,SBD,M
Boys,99.79,5,Caleb Zuniga,Bastrop Cedar Creek,99.79,165.56,124.74,181.44,471.74,Single-ply,SBD,M
Boys,99.79,6,Casey Marek,Bellville,98.88,158.76,102.06,165.56,426.38,Single-ply,SBD,M
Boys,99.79,7,Randy Reyes,Bastrop Cedar Creek,95.25,136.08,102.06,151.95,390.09,Single-ply,SBD,M
Boys,99.79,8,Jesus Bernal,Brookshire Royal,95.71,131.54,97.52,142.88,371.95,Single-ply,SBD,M
Boys,99.79,9,David Garza,Cuero,97.07,138.35,83.91,142.88,365.14,Single-ply,SBD,M
Boys,99.79,DQ,Michael Brietzke,Luling,95.71,,,,,Single-ply,SBD,M
Boys,109.77,1,Jose Hernandez,San Marcos,107.5,226.8,151.95,206.38,585.13,Single-ply,SBD,M
Boys,109.77,2,Kalob Barho,Smithville,103.87,204.12,117.93,204.12,526.17,Single-ply,SBD,M
Boys,109.77,3,Shawn Allen,Schulenburg,109.77,190.51,122.47,151.95,464.93,Single-ply,SBD,M
Boys,109.77,4,Wade Smith,Giddings,105.23,165.56,113.4,170.1,449.06,Single-ply,SBD,M
Boys,109.77,5,Tyler Allen,Sealy,108.86,161.03,102.06,151.95,415.04,Single-ply,SBD,M
Boys,109.77,6,Nick Searcy,Cuero,102.51,156.49,99.79,156.49,412.77,Single-ply,SBD,M
Boys,109.77,7,Kyle Nelson,Bellville,108.41,167.83,74.84,154.22,396.89,Single-ply,SBD,M
Boys,109.77,8,Kiezland Quintero,Schulenburg,107.95,154.22,99.79,136.08,390.09,Single-ply,SBD,M
Boys,109.77,9,Obed Alaniz,Sealy,101.6,111.13,72.57,129.27,312.98,Single-ply,SBD,M
Boys,124.74,1,Dylan Sillero,San Marcos,123.38,226.8,142.88,206.38,576.06,Single-ply,SBD,M
Boys,124.74,2,Luis Tello,Giddings,119.29,213.19,115.67,206.38,535.24,Single-ply,SBD,M
Boys,124.74,3,Hunter Breaux,Bellville,123.38,188.24,140.61,163.29,492.15,Single-ply,SBD,M
Boys,124.74,4,Nick Ramirez,Gonzales,113.4,179.17,120.2,170.1,469.47,Single-ply,SBD,M
Boys,124.74,5,Drake Broadwater,Bastrop Cedar Creek,113.85,158.76,113.4,170.1,442.25,Single-ply,SBD,M
Boys,124.74,DQ,Jacob Leos,Luling,113.4,136.08,99.79,,,Single-ply,SBD,M
Boys,124.74+,1,Joel Sanchez,Luling,169.19,249.48,136.08,215.46,601.01,Single-ply,SBD,M
Boys,124.74+,2,Diego Hernandez,Cuero,132.9,231.33,124.74,188.24,544.31,Single-ply,SBD,M
Boys,124.74+,3,Jonathyn Murry,Luling,137.89,226.8,124.74,188.24,539.77,Single-ply,SBD,M
Boys,124.74+,4,Pedro Govea,Luling,133.36,170.1,97.52,167.83,435.45,Single-ply,SBD,M
