Division,WeightClassKg,Place,Name,Team,BodyweightKg,Best3SquatKg,Best3BenchKg,Best3DeadliftKg,TotalKg,Equipment,Event,Sex
Boys,55.79,1,Cody McQueen,Fairfield,51.89,99.79,43.09,113.4,256.28,Single-ply,SBD,M
Boys,51.71,2,Corbin Feauto,Normangee,51.07,83.91,52.16,88.45,224.53,Single-ply,SBD,M
Boys,55.79,1,Miguel Contreras,Robinson,55.34,183.7,77.11,167.83,428.64,Single-ply,SBD,M
Boys,55.79,2,Tylor Chandler,Scurry-Rosser,53.98,124.74,61.23,161.03,347,Single-ply,SBD,M
Boys,55.79,3,Zan Baer,Normangee,55.61,99.79,63.5,124.74,288.03,Single-ply,SBD,M
Boys,59.87,1,Tanner Dodd,Robinson,59.33,129.27,97.52,149.69,376.48,Single-ply,SBD,M
Boys,59.87,2,Jaleen Pickett,Madisonville,58.24,147.42,72.57,154.22,374.21,Single-ply,SBD,M
Boys,59.87,3,Jonny Cabrera,Fairfield,58.15,70.31,52.16,120.2,242.67,Single-ply,SBD,M
Boys,59.87,4,Kylar Bonner,Fairfield,57.7,83.91,40.82,79.38,204.12,Single-ply,SBD,M
Boys,67.13,DQ,Jacob McLean,Scurry-Rosser,59.96,151.95,,,,Single-ply,SBD,M
Boys,67.13,1,Manuel Rodriguez,Robinson,65.23,208.65,102.06,192.78,503.49,Single-ply,SBD,M
Boys,67.13,2,Nick Harris,Madisonville,65.05,154.22,88.45,154.22,396.89,Single-ply,SBD,M
Boys,67.13,3,Ryan Leleux,Groesbeck,64.86,133.81,92.99,165.56,392.36,Single-ply,SBD,M
Boys,67.13,4,Nick Mooneyham,Fairfield,65.14,142.88,79.38,149.69,371.95,Single-ply,SBD,M
Boys,67.13,DQ,Brian Griffin,Scurry-Rosser,62.78,115.67,,,,Single-ply,SBD,M
Boys,67.13,DQ,Treshawn Townes,Groesbeck,67.13,,,,,Single-ply,SBD,M
Boys,74.84,1,Darius Dorsey,Mexia,69.94,147.42,104.33,165.56,417.3,Single-ply,SBD,M
Boys,74.84,2,JaColby Forge,Mexia,72.3,140.61,83.91,181.44,405.97,Single-ply,SBD,M
Boys,74.84,3,Jalyn Smith,Madisonville,72.39,142.88,97.52,151.95,392.36,Single-ply,SBD,M
Boys,74.84,4,Michael Caldwell,Normangee,73.03,117.93,102.06,133.81,353.8,Single-ply,SBD,M
Boys,74.84,5,Spencer Fair,Fairfield,70.85,124.74,77.11,145.15,347,Single-ply,SBD,M
Boys,74.84,6,Owen Awalt,Fairfield,71.3,122.47,52.16,124.74,299.37,Single-ply,SBD,M
Boys,82.1,1,Juan Villa,Robinson,79.29,208.65,140.61,197.31,546.58,Single-ply,SBD,M
Boys,82.1,2,Alberto Carrillo,Mexia,79.83,183.7,113.4,204.12,501.22,Single-ply,SBD,M
Boys,82.1,3,Aaron Ratliff,Normangee,78.56,165.56,104.33,181.44,451.32,Single-ply,SBD,M
Boys,82.1,4,Larry Reid,Robinson,79.11,165.56,115.67,170.1,451.32,Single-ply,SBD,M
Boys,82.1,5,Cesar Lopez,Groesbeck,81.1,163.29,104.33,174.63,442.25,Single-ply,SBD,M
Boys,89.81,6,Ian Morow,Madisonville,82.28,163.29,92.99,165.56,421.84,Single-ply,SBD,M
Boys,82.1,7,Jacob Allred,Fairfield,80.38,120.2,79.38,158.76,358.34,Single-ply,SBD,M
Boys,82.1,8,Jared Martin,Normangee,76.48,90.72,68.04,113.4,272.16,Single-ply,SBD,M
Boys,89.81,1,Ricky Thompson,Robinson,88.9,219.99,120.2,260.82,601.01,Single-ply,SBD,M
Boys,89.81,2,Chance Carroll,Fairfield,84.01,204.12,108.86,192.78,505.76,Single-ply,SBD,M
Boys,89.81,3,Clayton Carberry,Robinson,88.99,188.24,90.72,192.78,471.74,Single-ply,SBD,M
Boys,99.79,4,Matt Mooneyham,Fairfield,89.99,165.56,90.72,158.76,415.04,Single-ply,SBD,M
Boys,89.81,5,Tim Mosley,Robinson,87.82,147.42,79.38,174.63,401.43,Single-ply,SBD,M
Boys,89.81,6,Brandon Amaya,Fairfield,88.09,136.08,81.65,163.29,381.02,Single-ply,SBD,M
Boys,89.81,7,Aaron Phleeger,Fairfield,89.09,142.88,68.04,147.42,358.34,Single-ply,SBD,M
Boys,89.81,8,Jonathan Martinez,Madisonville,89.18,88.45,65.77,136.08,290.3,Single-ply,SBD,M
Boys,89.81,9,Caleb Fox,Fairfield,88.99,88.45,49.9,104.33,242.67,Single-ply,SBD,M
Boys,89.81,DQ,Case Adair,Mexia,83.55,,,,,Single-ply,SBD,M
Boys,99.79,1,Kalil Washington,Robinson,97.89,210.92,149.69,215.46,576.06,Single-ply,SBD,M
Boys,99.79,2,Cole Beddingfield,Fairfield,94.26,226.8,117.93,199.58,544.31,Single-ply,SBD,M
Boys,99.79,3,Riley Allen,Robinson,98.25,213.19,136.08,190.51,539.77,Single-ply,SBD,M
Boys,99.79,4,Jayson Day,Scurry-Rosser,96.62,217.72,136.08,181.44,535.24,Single-ply,SBD,M
Boys,99.79,5,Matt McNew,Robinson,95.07,192.78,127.01,204.12,523.9,Single-ply,SBD,M
Boys,99.79,6,David Bastardo,Madisonville,95.71,192.78,108.86,199.58,501.22,Single-ply,SBD,M
Boys,99.79,7,Arkiel Winn,Mexia,92.35,192.78,88.45,192.78,474,Single-ply,SBD,M
Boys,99.79,8,Jimmy Landess,Scurry-Rosser,92.26,165.56,86.18,185.97,437.72,Single-ply,SBD,M
Boys,99.79,9,Blaine Counsil,Madisonville,97.98,165.56,102.06,163.29,430.91,Single-ply,SBD,M
Boys,99.79,10,Jeremy Wood,Fairfield,93.44,170.1,90.72,147.42,408.23,Single-ply,SBD,M
Boys,99.79,11,Rahi Patel,Mexia,91.53,129.27,97.52,158.76,385.55,Single-ply,SBD,M
Boys,99.79,12,Pedro Franco,Madisonville,94.35,111.13,72.57,142.88,326.59,Single-ply,SBD,M
Boys,99.79,DQ,Michael Curtner,Normangee,93.71,161.03,,,,Single-ply,SBD,M
Boys,109.77,1,Leal Sample,Scurry-Rosser,106.32,231.33,151.95,229.06,612.35,Single-ply,SBD,M
Boys,109.77,2,Austin Ashley,Madisonville,107.23,226.8,147.42,226.8,601.01,Single-ply,SBD,M
Boys,109.77,3,Jose Reyes,Mexia,106.96,219.99,124.74,210.92,555.65,Single-ply,SBD,M
Boys,109.77,4,Oskar Garcia,Madisonville,105.41,181.44,113.4,181.44,476.27,Single-ply,SBD,M
Boys,109.77,5,Ricardo Molina,Mexia,101.79,183.7,102.06,174.63,460.4,Single-ply,SBD,M
Boys,109.77,6,MaCade Isbell,Groesbeck,102.87,138.35,97.52,161.03,396.89,Single-ply,SBD,M
Boys,109.77,7,Austin Hale,Fairfield,107.59,151.95,77.11,154.22,383.29,Single-ply,SBD,M
Boys,109.77,8,Jeremiah Brown,Fairfield,102.51,136.08,90.72,136.08,362.87,Single-ply,SBD,M
Boys,109.77,9,Chris Palmer,Scurry-Rosser,103.06,136.08,61.23,142.88,340.19,Single-ply,SBD,M
Boys,109.77,10,Ashton Simms,Groesbeck,101.24,95.25,61.23,113.4,269.89,Single-ply,SBD,M
Boys,109.77,DQ,Zack Richardson,Groesbeck,106.59,174.63,,,,Single-ply,SBD,M
Boys,109.77,DQ,Steven Contreras,Groesbeck,109.77,,,,,Single-ply,SBD,M
Boys,109.77,DQ,Dalton Gilbert,Madisonville,109.77,,,,,Single-ply,SBD,M
Boys,124.74,1,Stephen King,Groesbeck,120.11,192.78,142.88,183.7,519.36,Single-ply,SBD,M
Boys,124.74,2,Trent Watkins,Normangee,112.13,192.78,106.59,190.51,489.88,Single-ply,SBD,M
Boys,124.74,3,Zack Morgan,Groesbeck,111.31,181.44,115.67,176.9,474,Single-ply,SBD,M
Boys,124.74,4,Jax Donohoo,Fairfield,113.04,174.63,106.59,163.29,444.52,Single-ply,SBD,M
Boys,124.74,5,Jalyn Jackson,Fairfield,117.57,192.78,97.52,140.61,430.91,Single-ply,SBD,M
Boys,124.74,6,Garrett Huff,Scurry-Rosser,121.74,149.69,113.4,142.88,405.97,Single-ply,SBD,M
Boys,124.74+,1,Demetri Freeman,Mexia,130,188.24,108.86,172.37,469.47,Single-ply,SBD,M
Boys,124.74+,2,Dalton Hatcher,Scurry-Rosser,156.4,149.69,113.4,181.44,444.52,Single-ply,SBD,M
Boys,124.74+,3,Hunter Haynes,Fairfield,125.1,204.12,79.38,154.22,437.72,Single-ply,SBD,M
Boys,124.74+,4,Robert Anglin,Groesbeck,139.07,174.63,106.59,156.49,437.72,Single-ply,SBD,M
Boys,124.74+,5,Trederek Anglin,Mexia,143.7,167.83,106.59,142.88,417.3,Single-ply,SBD,M
