Division,WeightClassKg,Place,Name,Team,BodyweightKg,Best3SquatKg,Best3BenchKg,Best3DeadliftKg,TotalKg,Equipment,Event,Sex
Girls,44.23,1,Kassidy Colianni,Port Lavaca Calhoun,44.13,115.67,56.7,127.01,299.37,Single-ply,SBD,F
Girls,44.23,2,Karissa Arroyo,San Marcos,42.05,104.33,52.16,136.08,292.57,Single-ply,SBD,F
Girls,44.23,3,Ariel Coronado,San Antonio Southside,43.95,120.2,58.97,106.59,285.76,Single-ply,SBD,F
Girls,44.23,4,Odalys Pruneda,Pharr Valley View,44.18,108.86,40.82,122.47,272.16,Single-ply,SBD,F
Girls,44.23,5,Odalys Garduno,Victoria West,44.13,108.86,47.63,113.4,269.89,Single-ply,SBD,F
Girls,44.23,6,Yuliana Gonzalez,Sharyland Pioneer,43.14,102.06,43.09,115.67,260.82,Single-ply,SBD,F
Girls,44.23,7,Camryn Riggins,College Station,43.41,102.06,34.02,102.06,238.14,Single-ply,SBD,F
Girls,44.23,8,Lauren Aldape,Mercedes,43.82,88.45,36.29,104.33,229.06,Single-ply,SBD,F
Girls,44.23,9,Haily Alexander,Lumberton,42.68,83.91,43.09,99.79,226.8,Single-ply,SBD,F
Girls,44.23,10,Taylor Killgo,Vidor,44.23,79.38,40.82,102.06,222.26,Single-ply,SBD,F
Girls,44.23,11,Ashley Fink,Little Elm,42.46,83.91,36.29,90.72,210.92,Single-ply,SBD,F
Girls,44.23,12,Annette Roberts,Forney,43.54,36.29,22.68,72.57,131.54,Single-ply,SBD,F
Girls,44.23,DQ,Marisa Lourenco,Wylie,44.18,,,,,Single-ply,SBD,F
Girls,47.85,1,Marisol Munoz,San Antonio Southside,47.76,140.61,70.31,138.35,349.27,Single-ply,SBD,F
Girls,47.85,2,Sarah Moraida,Brownsville Pace,46.81,131.54,61.23,142.88,335.66,Single-ply,SBD,F
Girls,47.85,3,Clarissa Molina,Pharr Valley View,47.72,140.61,63.5,127.01,331.12,Single-ply,SBD,F
Girls,47.85,4,Marissa Ruiz,Gregory-Portland,46.4,127.01,58.97,122.47,308.44,Single-ply,SBD,F
Girls,47.85,5,Christi Corkran,College Station A&M Cons,47.45,120.2,49.9,131.54,301.64,Single-ply,SBD,F
Girls,47.85,6,Skye Johnson,Denison,47.49,111.13,52.16,127.01,290.3,Single-ply,SBD,F
Girls,47.85,7,Jenica Flores,San Marcos,45.13,108.86,45.36,124.74,278.96,Single-ply,SBD,F
Girls,47.85,8,Briseidi Cantu,Rio Grande City,46.54,102.06,54.43,122.47,278.96,Single-ply,SBD,F
Girls,47.85,9,Kim Balderas,Plainview,47.72,97.52,47.63,113.4,258.55,Single-ply,SBD,F
Girls,47.85,10,Emma Beebe,Wylie East,47.72,99.79,40.82,117.93,258.55,Single-ply,SBD,F
Girls,47.85,11,Sonni Gehring,Wylie,47.08,104.33,47.63,102.06,254.01,Single-ply,SBD,F
Girls,47.85,12,Sarah Buffington,Santa Fe,47.13,106.59,38.56,106.59,251.74,Single-ply,SBD,F
Girls,47.85,13,Brittany Golladay,Wylie,46.99,86.18,47.63,108.86,242.67,Single-ply,SBD,F
Girls,47.85,14,Annie Tidwell,Terrell,46.54,81.65,24.95,81.65,188.24,Single-ply,SBD,F
Girls,47.85,15,Sage Landeros,Plainview,47.81,63.5,29.48,79.38,172.37,Single-ply,SBD,F
Girls,47.85,NS,Abril Salinas,Pharr Valley View,,,,,,Single-ply,SBD,F
Girls,47.85,NS,Brianna Rugerio,Mission Sharyland,,,,,,Single-ply,SBD,F
Girls,47.85,NS,Katelyn Keneson,Vidor,,,,,,Single-ply,SBD,F
Girls,47.85,DQ,Kirsten Alaniz,Alice,47.85,136.08,,,,Single-ply,SBD,F
Girls,51.94,1,Alexandra Winfree,Sharyland Pioneer,50.8,138.35,65.77,165.56,369.68,Single-ply,SBD,F
Girls,51.94,2,Ashley Martinez,Donna,50.44,133.81,65.77,147.42,347,Single-ply,SBD,F
Girls,51.94,3,Bianca Alvarez,Alice,51.44,140.61,52.16,149.69,342.46,Single-ply,SBD,F
Girls,51.94,4,Miranda Smith,Port Lavaca Calhoun,51.66,136.08,61.23,142.88,340.19,Single-ply,SBD,F
Girls,51.94,5,Jennifer Martinez,Fort Worth North Side,49.31,127.01,70.31,136.08,333.39,Single-ply,SBD,F
Girls,51.94,6,Melissa Butler,Longview Pine Tree,51.03,113.4,61.23,154.22,328.85,Single-ply,SBD,F
Girls,51.94,7,Andie Hernandez,Seguin,50.17,129.27,72.57,113.4,315.25,Single-ply,SBD,F
Girls,51.94,8,Danielle Bacon,Port Lavaca Calhoun,50.67,136.08,54.43,124.74,315.25,Single-ply,SBD,F
Girls,51.94,9,Aliyah Tyson,Wylie,50.85,106.59,54.43,136.08,297.1,Single-ply,SBD,F
Girls,51.94,10,Destini Thomas,Donna,51.94,113.4,58.97,117.93,290.3,Single-ply,SBD,F
Girls,51.94,11,Amanda Rodriguez,Mission Sharyland,50.76,108.86,49.9,124.74,283.5,Single-ply,SBD,F
Girls,51.94,12,Danyella Norman,Lockhart,51.17,117.93,52.16,113.4,283.5,Single-ply,SBD,F
Girls,51.94,13,Belen Morales,San Antonio Kennedy,51.75,113.4,54.43,115.67,283.5,Single-ply,SBD,F
Girls,51.94,14,Teyama Lewis,Greenville,51.12,120.2,36.29,122.47,278.96,Single-ply,SBD,F
Girls,51.94,15,Paige Mostyn,Magnolia,51.35,104.33,52.16,122.47,278.96,Single-ply,SBD,F
Girls,51.94,16,Katelyn Watts,Wylie,51.44,104.33,61.23,113.4,278.96,Single-ply,SBD,F
Girls,51.94,17,Kaylynn Ortiz,Plainview,51.62,81.65,38.56,117.93,238.14,Single-ply,SBD,F
Girls,51.94,NS,Karli Brewer,Nederland,,,,,,Single-ply,SBD,F
Girls,51.94,DQ,Priscilla Reyna,Mission Sharyland,50.76,117.93,,,,Single-ply,SBD,F
Girls,51.94,DQ,Alyssa Lefevre,Dripping Springs,51.8,115.67,74.84,,,Single-ply,SBD,F
Girls,51.94,DQ,Anissa Porras,Plainview,51.35,79.38,47.63,,,Single-ply,SBD,F
Girls,51.94,DQ,Lorissa Medina,Pharr Valley View,51.53,,,,,Single-ply,SBD,F
Girls,51.94,DQ,Jade Hays,Terrell,51.8,,,,,Single-ply,SBD,F
Girls,56.02,1,Marissa Martinez,Port Lavaca Calhoun,55.66,156.49,74.84,161.03,392.36,Single-ply,SBD,F
Girls,56.02,2,April Botello,San Antonio Southside,55.25,151.95,72.57,151.95,376.48,Single-ply,SBD,F
Girls,56.02,3,Cory Nutall,College Station,55.52,156.49,68.04,142.88,367.41,Single-ply,SBD,F
Girls,56.02,4,Ravyn Deangel,Donna,54.61,151.95,58.97,129.27,340.19,Single-ply,SBD,F
Girls,56.02,5,Belinda Perez,Port Lavaca Calhoun,55.34,136.08,68.04,131.54,335.66,Single-ply,SBD,F
Girls,56.02,6,Ivy Walker,Mansfield Summit,56.02,122.47,61.23,140.61,324.32,Single-ply,SBD,F
Girls,56.02,7,Beatriz Mages,Little Elm,55.61,124.74,58.97,133.81,317.51,Single-ply,SBD,F
Girls,56.02,8,Morgan McNutt,College Station,54.34,131.54,47.63,136.08,315.25,Single-ply,SBD,F
Girls,56.02,9,Baylee Hill,Georgetown,54.79,115.67,56.7,142.88,315.25,Single-ply,SBD,F
Girls,56.02,10,Brittany Trunnell,Wylie,55.79,127.01,52.16,136.08,315.25,Single-ply,SBD,F
Girls,56.02,11,Lexi Villalobos,Elgin,53.8,120.2,52.16,131.54,303.91,Single-ply,SBD,F
Girls,56.02,12,Allee Dana,Wylie,54.7,122.47,56.7,120.2,299.37,Single-ply,SBD,F
Girls,56.02,13,Katelan House,San Angelo Lake View,55.34,117.93,54.43,122.47,294.84,Single-ply,SBD,F
Girls,56.02,14,Victoria Olivarez,Mission Veterans Memorial,55.34,111.13,56.7,124.74,292.57,Single-ply,SBD,F
Girls,56.02,15,Jenna Hoffman #2,Vidor,54.39,117.93,52.16,115.67,285.76,Single-ply,SBD,F
Girls,56.02,16,Katy Williams,Forney,55.25,113.4,49.9,122.47,285.76,Single-ply,SBD,F
Girls,56.02,17,Alexis Haley,Vidor,53.98,113.4,49.9,120.2,283.5,Single-ply,SBD,F
Girls,56.02,18,Aracely Rodriguez,Pharr Valley View,54.11,113.4,54.43,111.13,278.96,Single-ply,SBD,F
Girls,56.02,DQ,Kimberly Kelly,Mission Sharyland,53.84,,,,,Single-ply,SBD,F
Girls,56.02,DQ,Angela Banda,Plainview,55.7,,,,,Single-ply,SBD,F
Girls,56.02,DQ,Chassity Sims,Lindale,54.66,,,,,Single-ply,SBD,F
Girls,56.02,DQ,Myna Martinez,Edcouch-Elsa,56.02,117.93,,,,Single-ply,SBD,F
Girls,60.1,1,Ashley Troutman,College Station,59.83,165.56,81.65,163.29,410.5,Single-ply,SBD,F
Girls,60.1,2,Perla Resendiz,Port Lavaca Calhoun,59.74,163.29,68.04,145.15,376.48,Single-ply,SBD,F
Girls,60.1,3,Azalia Jones,Corpus Christi Tuloso-Midway,59.6,140.61,70.31,149.69,360.61,Single-ply,SBD,F
Girls,60.1,4,Cierra Jackson,Mansfield Timberview,60.06,145.15,54.43,161.03,360.61,Single-ply,SBD,F
Girls,60.1,5,Brooke Downs,Port Lavaca Calhoun,57.79,133.81,83.91,140.61,358.34,Single-ply,SBD,F
Girls,60.1,6,Breanne Haesche,Conroe Caney Creek,59.33,136.08,52.16,145.15,333.39,Single-ply,SBD,F
Girls,60.1,7,Maddie Arseneaux,College Station,57.88,136.08,45.36,142.88,324.32,Single-ply,SBD,F
Girls,60.1,8,Talissa Soto,Corpus Christi Calallen,59.74,127.01,61.23,133.81,322.05,Single-ply,SBD,F
Girls,60.1,9,Bea Uribe,Mission Sharyland,58.29,127.01,68.04,122.47,317.51,Single-ply,SBD,F
Girls,60.1,10,Paxton Venable,Texarkana Texas,59.24,117.93,58.97,129.27,306.17,Single-ply,SBD,F
Girls,60.1,11,Veronica Rodriguez,Laredo Nixon,59.24,127.01,54.43,124.74,306.17,Single-ply,SBD,F
Girls,60.1,12,Raven Reese,Longview Pine Tree,60.06,99.79,49.9,145.15,294.84,Single-ply,SBD,F
Girls,60.1,13,Jamie Williams,Royse City,58.6,120.2,52.16,120.2,292.57,Single-ply,SBD,F
Girls,60.1,14,Bailey Walser,Canyon Randall,59.06,108.86,54.43,115.67,278.96,Single-ply,SBD,F
Girls,60.1,DQ,Allison Rodriguez,Edcouch-Elsa,60.1,,,,,Single-ply,SBD,F
Girls,60.1,DQ,Bianca Beruman,Plainview,58.69,,,,,Single-ply,SBD,F
Girls,60.1,DQ,Brissa Ramirez,Mission Sharyland,57.24,,,,,Single-ply,SBD,F
Girls,60.1,DQ,Lizette Guerrero,Sharyland Pioneer,59.42,,,,,Single-ply,SBD,F
Girls,67.36,1,Bree Gossett,Cleburne,64.73,167.83,83.91,174.63,426.38,Single-ply,SBD,F
Girls,67.36,2,Ashley DeAnda,Laredo Martin,66.45,147.42,74.84,161.03,383.29,Single-ply,SBD,F
Girls,67.36,3,Zoey Dierlam,Port Lavaca Calhoun,65.54,149.69,79.38,151.95,381.02,Single-ply,SBD,F
Girls,67.36,4,Bryanna Ramirez,Mission Sharyland,64.36,142.88,72.57,161.03,376.48,Single-ply,SBD,F
Girls,67.36,5,Norma Chapa,Donna North,66.77,136.08,77.11,161.03,374.21,Single-ply,SBD,F
Girls,67.36,6,Abby McFall,Port Lavaca Calhoun,61.46,145.15,63.5,158.76,367.41,Single-ply,SBD,F
Girls,67.36,7,Maegen Delgado,San Marcos,66.13,142.88,61.23,158.76,362.87,Single-ply,SBD,F
Girls,67.36,8,Loreal Jones,Wylie,65.36,142.88,47.63,163.29,353.8,Single-ply,SBD,F
Girls,67.36,9,Cheyenne Fly,College Station,61.55,142.88,54.43,145.15,342.46,Single-ply,SBD,F
Girls,67.36,10,Natasha Lopez,Brownsville Porter,65.36,136.08,61.23,145.15,342.46,Single-ply,SBD,F
Girls,67.36,11,Corina Yanez,Donna,63.96,140.61,65.77,129.27,335.66,Single-ply,SBD,F
Girls,67.36,12,Alejandra Garcia,Edcouch-Elsa,65.5,147.42,56.7,131.54,335.66,Single-ply,SBD,F
Girls,67.36,13,Ashley Otah,Wylie,67.13,111.13,61.23,163.29,335.66,Single-ply,SBD,F
Girls,67.36,14,Celena Perez,Wichita Falls,66.59,124.74,61.23,145.15,331.12,Single-ply,SBD,F
Girls,67.36,15,Crystal Hernandez,Edcouch-Elsa,66.5,136.08,56.7,136.08,328.85,Single-ply,SBD,F
Girls,67.36,16,Jasmine Miller,Waller,66.95,136.08,54.43,136.08,326.59,Single-ply,SBD,F
Girls,67.36,17,Tyra Lacey,Waxahachie,61.69,117.93,56.7,142.88,317.51,Single-ply,SBD,F
Girls,67.36,18,Cassie Nix,Gregory-Portland,64.55,124.74,56.7,133.81,315.25,Single-ply,SBD,F
Girls,67.36,19,Abbey Evans,Waxahachie,66.68,108.86,61.23,140.61,310.71,Single-ply,SBD,F
Girls,67.36,20,Shyann Nevares,Plainview,66.41,113.4,58.97,133.81,306.17,Single-ply,SBD,F
Girls,67.36,21,Skyler Thames,Willis,67.18,113.4,61.23,117.93,292.57,Single-ply,SBD,F
Girls,67.36,DQ,Charity Acuna,San Antonio Southside,66.18,,,,,Single-ply,SBD,F
Girls,67.36,DQ,Rebecca Hummel,Abilene Cooper,64.82,,,,,Single-ply,SBD,F
Girls,75.07,1,Allison Macias,Alice,74.16,170.1,83.91,165.56,419.57,Single-ply,SBD,F
Girls,75.07,2,Katie Lollar,College Station,72.48,172.37,74.84,156.49,403.7,Single-ply,SBD,F
Girls,75.07,3,Julia McGinnis,College Station,73.89,172.37,65.77,158.76,396.89,Single-ply,SBD,F
Girls,75.07,4,Nora Monie,Sharyland Pioneer,72.71,154.22,58.97,167.83,381.02,Single-ply,SBD,F
Girls,75.07,5,Ashley Garza,Sharyland Pioneer,74.34,145.15,70.31,163.29,378.75,Single-ply,SBD,F
Girls,75.07,6,Lorraine Rodriguez,Floresville,69.76,142.88,52.16,181.44,376.48,Single-ply,SBD,F
Girls,75.07,7,Daniela Alfaro,Sharyland Pioneer,71.76,163.29,61.23,147.42,371.95,Single-ply,SBD,F
Girls,75.07,8,Daniela Gaytan,Fort Worth North Side,72.67,156.49,63.5,145.15,365.14,Single-ply,SBD,F
Girls,75.07,9,Mirenda Garcia,Seguin,71.85,129.27,63.5,170.1,362.87,Single-ply,SBD,F
Girls,75.07,10,Avery Coronado,Sharyland Pioneer,74.71,136.08,63.5,163.29,362.87,Single-ply,SBD,F
Girls,75.07,11,Katy Shiply,Rockwall-Heath,72.8,149.69,61.23,149.69,360.61,Single-ply,SBD,F
Girls,75.07,12,Vanessa Rivera,Brownsville Pace,73.3,151.95,61.23,145.15,358.34,Single-ply,SBD,F
Girls,75.07,13,Kaitlyn Jackson,San Marcos,73.48,136.08,63.5,158.76,358.34,Single-ply,SBD,F
Girls,75.07,14,Breelyn Thames,Lumberton,70.22,149.69,63.5,136.08,349.27,Single-ply,SBD,F
Girls,75.07,15,Jackie Cano,Brownsville Pace,73.16,136.08,70.31,142.88,349.27,Single-ply,SBD,F
Girls,75.07,16,Kailey Jones,Denison,72.48,138.35,58.97,142.88,340.19,Single-ply,SBD,F
Girls,75.07,17,Ashtyn Burget,Wylie,71.21,133.81,56.7,142.88,333.39,Single-ply,SBD,F
Girls,75.07,18,Kaylen Evans,Joshua,71.21,142.88,54.43,136.08,333.39,Single-ply,SBD,F
Girls,75.07,19,Matilda Marquez,Mercedes,72.12,133.81,56.7,133.81,324.32,Single-ply,SBD,F
Girls,75.07,20,Dezz Carrillo,San Angelo Lake View,73.94,127.01,61.23,136.08,324.32,Single-ply,SBD,F
Girls,75.07,21,Mayan Young,Mansfield Timberview,72.17,127.01,54.43,138.35,319.78,Single-ply,SBD,F
Girls,75.07,22,Michaela Braly,Red Oak,67.95,122.47,63.5,131.54,317.51,Single-ply,SBD,F
Girls,75.07,23,Mykalah Lazay,Santa Fe,72.3,131.54,61.23,124.74,317.51,Single-ply,SBD,F
Girls,75.07,24,Sarah Bowen,Lubbock Cooper,74.93,113.4,56.7,120.2,290.3,Single-ply,SBD,F
Girls,75.07,DQ,Victoria Longoria,Donna,73.44,,,,,Single-ply,SBD,F
Girls,75.07,DQ,Mary Ann Gonzalez,Brownsville Porter,73.21,,,,,Single-ply,SBD,F
Girls,75.07,DQ,Lauren Higbee,Rockwall-Heath,74.98,151.95,72.57,,,Single-ply,SBD,F
Girls,75.07,DQ,Kathy Gaytan,Terrell,73.3,,,,,Single-ply,SBD,F
Girls,82.33,1,Mikayla Kohn,Vidor,81.19,165.56,102.06,172.37,439.98,Single-ply,SBD,F
Girls,82.33,2,Kyndall Foust,College Station A&M Cons,80.1,174.63,83.91,172.37,430.91,Single-ply,SBD,F
Girls,82.33,3,Kylea Nix,Gregory-Portland,78.15,165.56,65.77,167.83,399.16,Single-ply,SBD,F
Girls,82.33,4,Alexandra Howard,Lockhart,80.56,154.22,63.5,181.44,399.16,Single-ply,SBD,F
Girls,82.33,5,Dyana Morales,Donna,75.84,147.42,79.38,165.56,392.36,Single-ply,SBD,F
Girls,82.33,6,Abigail Lutz,Wylie East,79.15,161.03,68.04,154.22,383.29,Single-ply,SBD,F
Girls,82.33,7,Alyssa De Los Santos,San Marcos,80.74,158.76,72.57,149.69,381.02,Single-ply,SBD,F
Girls,82.33,8,Monica Garcia,Sharyland Pioneer,80.92,147.42,74.84,154.22,376.48,Single-ply,SBD,F
Girls,82.33,9,Deanna Edwards,New Caney,77.56,142.88,86.18,122.47,351.53,Single-ply,SBD,F
Girls,82.33,10,Ashley Vargas,San Angelo Lake View,82.1,142.88,61.23,142.88,347,Single-ply,SBD,F
Girls,82.33,11,Furnice Bates,Lindale,81.28,138.35,58.97,131.54,328.85,Single-ply,SBD,F
Girls,82.33,12,Karizma Alexander,Waxahachie,79.79,120.2,52.16,147.42,319.78,Single-ply,SBD,F
Girls,82.33,13,Kyla Clark,Dumas,80.74,111.13,58.97,120.2,290.3,Single-ply,SBD,F
Girls,82.33,DQ,Julie Stanford,Corpus Christi Tuloso-Midway,80.15,,,,,Single-ply,SBD,F
Girls,82.33,DQ,Chloe Zapata,Alice,81.42,181.44,77.11,,,Single-ply,SBD,F
Girls,82.33,DQ,Kimberlynn Patzold,New Caney Porter,79.79,,,,,Single-ply,SBD,F
Girls,82.33,DQ,Madalyn Whaley,Wylie,80.6,,,,,Single-ply,SBD,F
Girls,90.04,1,Elizabeth Neitch,Victoria West,87.77,192.78,92.99,174.63,460.4,Single-ply,SBD,F
Girls,90.04,2,Suba Johnson,College Station,88.13,197.31,72.57,176.9,446.79,Single-ply,SBD,F
Girls,90.04,3,Megan Doyle,Denison,88.04,151.95,70.31,163.29,385.55,Single-ply,SBD,F
Girls,90.04,4,Taylor Barrow,Santa Fe,84.96,151.95,79.38,151.95,383.29,Single-ply,SBD,F
Girls,90.04,5,Mercedes Hernandez,Plainview,86.55,151.95,61.23,149.69,362.87,Single-ply,SBD,F
Girls,90.04,6,Ericah Fletcher,Burleson Centennial,86.59,124.74,68.04,163.29,356.07,Single-ply,SBD,F
Girls,90.04,7,Sammie Slagle,Wichita Falls,83.69,147.42,63.5,142.88,353.8,Single-ply,SBD,F
Girls,90.04,8,Ravan Chism,Longview,86.91,129.27,58.97,158.76,347,Single-ply,SBD,F
Girls,90.04,9,Jasmen Perry,Waller,86.64,131.54,49.9,149.69,331.12,Single-ply,SBD,F
Girls,90.04,10,Sandi Reyes,Plainview,90.04,131.54,61.23,111.13,303.91,Single-ply,SBD,F
Girls,90.04,DQ,Nadia Gomez,Uvalde,89.58,174.63,,,,Single-ply,SBD,F
Girls,90.04,NS,Ashley Donaldson,Corsicana,,,,,,Single-ply,SBD,F
Girls,90.04,DQ,Stephanie Urquieta,Corpus Christi Tuloso-Midway,85.55,,,,,Single-ply,SBD,F
Girls,90.04,DQ,Allison Villarreal,Edcouch-Elsa,86.14,,,,,Single-ply,SBD,F
Girls,90.04,DQ,Edy Garza,Alice,83.01,170.1,,,,Single-ply,SBD,F
Girls,90.04,DQ,Nykesciah Williams,Saginaw,87.68,,,,,Single-ply,SBD,F
Girls,100.02,1,Ashley Tapia,PSJA,98.75,170.1,74.84,167.83,412.77,Single-ply,SBD,F
Girls,100.02,2,Katrena Njiki,Wylie,99.93,167.83,74.84,165.56,408.23,Single-ply,SBD,F
Girls,100.02,3,Maxine Etti,Mansfield Timberview,97.48,158.76,56.7,179.17,394.63,Single-ply,SBD,F
Girls,100.02,4,Savannah Valenzuela,Corpus Christi Calallen,96.8,165.56,74.84,151.95,392.36,Single-ply,SBD,F
Girls,100.02,5,Corrina Garcia,Corpus Christi Tuloso-Midway,95.35,170.1,74.84,145.15,390.09,Single-ply,SBD,F
Girls,100.02,6,Jazzmyn Moreno,Donna,95.84,172.37,70.31,145.15,387.82,Single-ply,SBD,F
Girls,100.02,7,Mya Lindsey,San Angelo Lake View,96.84,158.76,63.5,158.76,381.02,Single-ply,SBD,F
Girls,100.02,8,Selvedina Cajic,College Station,99.93,165.56,58.97,138.35,362.87,Single-ply,SBD,F
Girls,100.02,9,Abby Rains,Lumberton,91.26,149.69,65.77,133.81,349.27,Single-ply,SBD,F
Girls,100.02,10,Brittany Alvarado,Lubbock Cooper,91.94,145.15,65.77,129.27,340.19,Single-ply,SBD,F
Girls,100.02,11,Leticia Lopez,Waco University,91.04,113.4,63.5,142.88,319.78,Single-ply,SBD,F
Girls,100.02,12,Shannon Halbert,Red Oak,96.34,124.74,54.43,129.27,308.44,Single-ply,SBD,F
Girls,100.02,13,Megan Landin,Waller,97.7,127.01,58.97,115.67,301.64,Single-ply,SBD,F
Girls,100.02,14,Haley Lord,Red Oak,97.48,115.67,52.16,124.74,292.57,Single-ply,SBD,F
Girls,100.02,DQ,Jasmine Ayena,Mansfield Summit,98.88,,,,,Single-ply,SBD,F
Girls,100.02,DQ,Alyssa Ybarra,Edcouch-Elsa,95.84,,,,,Single-ply,SBD,F
Girls,100.02+,1,Cheyanne Kennedy,Livingston,143.7,231.33,136.08,190.51,557.92,Single-ply,SBD,F
Girls,100.02+,2,Lexi Harris,Cleburne,158.94,204.12,127.01,208.65,539.77,Single-ply,SBD,F
Girls,100.02+,3,Ellie Hair,College Station,115.76,208.65,81.65,185.97,476.27,Single-ply,SBD,F
Girls,100.02+,4,Ebony Cortez,Floresville,121.65,174.63,111.13,181.44,467.2,Single-ply,SBD,F
Girls,100.02+,5,Mary Chavez,Corpus Christi Tuloso-Midway,136.62,206.38,97.52,149.69,453.59,Single-ply,SBD,F
Girls,100.02+,6,Timmea Joiner,Temple,104.69,176.9,81.65,185.97,444.52,Single-ply,SBD,F
Girls,100.02+,7,Jeanette Olachia,Port Lavaca Calhoun,110.86,183.7,81.65,176.9,442.25,Single-ply,SBD,F
Girls,100.02+,8,Karina Davalos,Laredo Nixon,118.48,190.51,88.45,163.29,442.25,Single-ply,SBD,F
Girls,100.02+,9,London Leslie,Fort Worth Arlington Heights,133.27,181.44,81.65,176.9,439.98,Single-ply,SBD,F
Girls,100.02+,10,Serena Saldivar,Wylie,106.96,199.58,90.72,147.42,437.72,Single-ply,SBD,F
Girls,100.02+,11,Baleigh Smith,Lumberton,112.85,172.37,77.11,165.56,415.04,Single-ply,SBD,F
Girls,100.02+,12,Racquel Blue,Bryan,116.39,183.7,72.57,156.49,412.77,Single-ply,SBD,F
Girls,100.02+,13,Kaley Golnisch,Conroe Caney Creek,109.13,185.97,81.65,142.88,410.5,Single-ply,SBD,F
Girls,100.02+,14,Allesa Blue,San Angelo Lake View,108.59,149.69,68.04,156.49,374.21,Single-ply,SBD,F
Girls,100.02+,15,Artoria Hunter,Tyler,104.96,154.22,58.97,156.49,369.68,Single-ply,SBD,F
Girls,100.02+,16,Lorna Baulechong,Corsicana,132.09,154.22,61.23,149.69,365.14,Single-ply,SBD,F
Girls,100.02+,DQ,Carissa Castillo,Plainview,106.87,,,,,Single-ply,SBD,F
