Division,WeightClassKg,Place,Name,Team,BodyweightKg,Best3SquatKg,Best3BenchKg,Best3DeadliftKg,TotalKg,Equipment,Event,Sex
Boys,51.71,1,Zachary Tucker,Perrin-Whitt,50.76,99.79,52.16,102.06,254.01,Single-ply,SBD,M
Boys,51.71,2,Kyle Reed,Wichita Falls City View,48.17,102.06,45.36,102.06,249.48,Single-ply,SBD,M
Boys,51.71,3,Cesar Montano,Stephenville,48.72,83.91,61.23,68.04,213.19,Single-ply,SBD,M
Boys,51.71,4,Hunter Addison,Krum,50.71,61.23,38.56,113.4,213.19,Single-ply,SBD,M
Boys,51.71,5,Trey Strickland,Archer City,42.46,70.31,38.56,90.72,199.58,Single-ply,SBD,M
Boys,55.79,1,Jordan Whiteside,Peaster,55.79,136.08,102.06,158.76,396.89,Single-ply,SBD,M
Boys,55.79,2,Blaine Brooks,Krum,55.43,136.08,83.91,170.1,390.09,Single-ply,SBD,M
Boys,55.79,3,Dallas Salinas,Jacksboro,55.7,136.08,81.65,151.95,369.68,Single-ply,SBD,M
Boys,55.79,4,Daniel Pafford,Godley,55.61,149.69,72.57,145.15,367.41,Single-ply,SBD,M
Boys,55.79,5,Josh Vandygrift,Godley,55.16,129.27,70.31,138.35,337.93,Single-ply,SBD,M
Boys,55.79,6,Grayson Parker,Godley,52.8,124.74,81.65,127.01,333.39,Single-ply,SBD,M
Boys,59.87,7,Jaime Padron,Millsap,55.97,117.93,79.38,136.08,333.39,Single-ply,SBD,M
Boys,55.79,8,Nic Kiser,Iowa Park,54.88,102.06,61.23,127.01,290.3,Single-ply,SBD,M
Boys,55.79,9,Tino Dominquez,Wichita Falls City View,55.07,111.13,63.5,113.4,288.03,Single-ply,SBD,M
Boys,55.79,10,Trayce Barber,Boyd,54.52,95.25,74.84,111.13,281.23,Single-ply,SBD,M
Boys,55.79,11,Jacob Wooten,Wichita Falls Rider,53.25,88.45,52.16,117.93,258.55,Single-ply,SBD,M
Boys,59.87,1,Jared Holmes,Perrin-Whitt,58.29,136.08,79.38,172.37,387.82,Single-ply,SBD,M
Boys,59.87,2,Jaden Smith,Krum,58.51,140.61,79.38,147.42,367.41,Single-ply,SBD,M
Boys,67.13,3,Kade Weldon,Jacksboro,60.1,133.81,86.18,142.88,362.87,Single-ply,SBD,M
Boys,59.87,4,Louis Gonzales,Wichita Falls City View,58.97,136.08,79.38,138.35,353.8,Single-ply,SBD,M
Boys,59.87,5,Keith Ray,Stephenville,58.79,136.08,70.31,142.88,349.27,Single-ply,SBD,M
Boys,59.87,6,Andres Perez,Krum,56.06,106.59,72.57,136.08,315.25,Single-ply,SBD,M
Boys,59.87,7,Chris Meredith,Mineral Wells,59.51,108.86,70.31,124.74,303.91,Single-ply,SBD,M
Boys,59.87,8,Hayden Butler,Northwest Nelson,57.79,113.4,70.31,113.4,297.1,Single-ply,SBD,M
Boys,59.87,9,Alex Arellando,Justin Northwest,57.88,88.45,61.23,104.33,254.01,Single-ply,SBD,M
Boys,67.13,10,Kacy Price,Stephenville,60.1,61.23,70.31,72.57,204.12,Single-ply,SBD,M
Boys,74.84,1,Oscar Orozco,Castleberry,67.31,174.63,108.86,210.92,494.42,Single-ply,SBD,M
Boys,67.13,2,Darian Sotomi,Paradise,66.5,185.97,102.06,183.7,471.74,Single-ply,SBD,M
Boys,67.13,3,Tinnin Smith,Jacksboro,65.05,167.83,113.4,161.03,442.25,Single-ply,SBD,M
Boys,67.13,4,Josh Wells,Jacksboro,65.32,142.88,83.91,170.1,396.89,Single-ply,SBD,M
Boys,74.84,5,Spencer Nunley,Perrin-Whitt,67.31,149.69,95.25,151.95,396.89,Single-ply,SBD,M
Boys,67.13,6,Kalyb Conner,Paradise,62.6,147.42,77.11,156.49,381.02,Single-ply,SBD,M
Boys,67.13,7,Jesse Neagle,Chico,66.86,136.08,74.84,147.42,358.34,Single-ply,SBD,M
Boys,67.13,8,Matt Robinson,Krum,66.41,120.2,77.11,140.61,337.93,Single-ply,SBD,M
Boys,74.84,9,Nakoda Mastin,Bridgeport,67.31,113.4,72.57,149.69,335.66,Single-ply,SBD,M
Boys,67.13,10,Mathew Shiver,Wichita Falls Rider,64.05,122.47,68.04,136.08,326.59,Single-ply,SBD,M
Boys,67.13,11,Avery Rangel,Castleberry,62.96,115.67,70.31,136.08,322.05,Single-ply,SBD,M
Boys,67.13,12,Brian Munn,Bridgeport,62.51,90.72,74.84,142.88,308.44,Single-ply,SBD,M
Boys,67.13,13,Brayden Kennington,Peaster,61.96,106.59,79.38,120.2,306.17,Single-ply,SBD,M
Boys,67.13,14,Ryan Dunn,Bridgeport,65.05,117.93,65.77,122.47,306.17,Single-ply,SBD,M
Boys,67.13,15,Benji Soto,Wichita Falls,63.96,102.06,61.23,129.27,292.57,Single-ply,SBD,M
Boys,67.13,16,Nick Benda,Wichita Falls City View,65.23,102.06,68.04,111.13,281.23,Single-ply,SBD,M
Boys,67.13,17,Adrian Perez,Castleberry,66.68,86.18,68.04,102.06,256.28,Single-ply,SBD,M
Boys,74.84,1,Danny Ho,Wichita Falls City View,73.75,197.31,124.74,219.99,542.04,Single-ply,SBD,M
Boys,74.84,2,Tres Cox,Northwest Nelson,73.21,217.72,127.01,195.04,539.77,Single-ply,SBD,M
Boys,74.84,3,Grayson Cobb,Paradise,71.21,185.97,92.99,181.44,460.4,Single-ply,SBD,M
Boys,74.84,4,Aaron Clement,Wichita Falls,70.22,158.76,115.67,183.7,458.13,Single-ply,SBD,M
Boys,74.84,5,Roger Mastin,Bridgeport,72.39,156.49,97.52,204.12,458.13,Single-ply,SBD,M
Boys,74.84,6,Aaron Fraga,Wichita Falls,74.39,167.83,115.67,167.83,451.32,Single-ply,SBD,M
Boys,74.84,7,Grant Peters,Mineral Wells,74.84,158.76,115.67,174.63,449.06,Single-ply,SBD,M
Boys,74.84,8,Bryan Ortiz,Castleberry,72.57,174.63,104.33,163.29,442.25,Single-ply,SBD,M
Boys,74.84,9,Dakota Cruthrid,Iowa Park,74.48,167.83,99.79,170.1,437.72,Single-ply,SBD,M
Boys,74.84,10,Parker Marshall,Nocona,74.84,156.49,106.59,165.56,428.64,Single-ply,SBD,M
Boys,74.84,11,Colten Inglet,Justin Northwest,73.21,136.08,92.99,181.44,410.5,Single-ply,SBD,M
Boys,74.84,12,Jacob Hull,Jacksboro,74.39,136.08,83.91,158.76,378.75,Single-ply,SBD,M
Boys,74.84,13,Jeffery Parsons,Lake Worth,74.84,136.08,92.99,142.88,371.95,Single-ply,SBD,M
Boys,74.84,14,Lane Morrow,Bridgeport,70.94,138.35,77.11,142.88,358.34,Single-ply,SBD,M
Boys,74.84,15,Juan Mancilla,Nocona,74.84,136.08,70.31,151.95,358.34,Single-ply,SBD,M
Boys,74.84,16,William Kurnes,Chico,74.84,147.42,63.5,140.61,351.53,Single-ply,SBD,M
Boys,74.84,17,Jonathan McCombs,Lake Worth,72.48,129.27,81.65,138.35,349.27,Single-ply,SBD,M
Boys,74.84,18,Jack Fulcher,Godley,73.94,104.33,86.18,122.47,312.98,Single-ply,SBD,M
Boys,74.84,19,Billy Boren,Wichita Falls,71.21,83.91,63.5,136.08,283.5,Single-ply,SBD,M
Boys,74.84,DQ,Tyler Campbell,Iowa Park,74.48,,,,,Single-ply,SBD,M
Boys,82.1,1,Garrett Gill,Wichita Falls,81.28,195.04,120.2,181.44,496.68,Single-ply,SBD,M
Boys,82.1,2,Manuel Fierro,Lake Worth,79.65,185.97,117.93,170.1,474,Single-ply,SBD,M
Boys,82.1,3,Isaiah Charles,Wichita Falls City View,76.29,158.76,95.25,163.29,417.3,Single-ply,SBD,M
Boys,82.1,4,Tyler Martin,Perrin-Whitt,78.06,154.22,83.91,172.37,410.5,Single-ply,SBD,M
Boys,82.1,5,Tim Landers,Castleberry,80.1,133.81,77.11,181.44,392.36,Single-ply,SBD,M
Boys,82.1,6,Lane James,Justin Northwest,78.38,138.35,97.52,154.22,390.09,Single-ply,SBD,M
Boys,82.1,7,Evan Molini,Archer City,79.56,149.69,81.65,158.76,390.09,Single-ply,SBD,M
Boys,82.1,8,Josh Cummins,Krum,78.2,145.15,83.91,158.76,387.82,Single-ply,SBD,M
Boys,82.1,9,Carson Lane,Justin Northwest,80.38,140.61,99.79,136.08,376.48,Single-ply,SBD,M
Boys,82.1,10,Jared Stone,Mineral Wells,77.29,140.61,72.57,158.76,371.95,Single-ply,SBD,M
Boys,82.1,11,Johnathan Green,Jacksboro,78.65,136.08,90.72,142.88,369.68,Single-ply,SBD,M
Boys,82.1,12,Walynn Williams,Iowa Park,77.75,149.69,81.65,136.08,367.41,Single-ply,SBD,M
Boys,82.1,13,Jacob Slimp,Bridgeport,82.1,127.01,83.91,149.69,360.61,Single-ply,SBD,M
Boys,82.1,14,James Gilbert,Justin Northwest,77.02,142.88,83.91,124.74,351.53,Single-ply,SBD,M
Boys,82.1,15,John Robison,Iowa Park,82.01,131.54,83.91,136.08,351.53,Single-ply,SBD,M
Boys,82.1,16,Hunter Whaley,Stephenville,76.75,111.13,83.91,120.2,315.25,Single-ply,SBD,M
Boys,82.1,17,Brandon Guilkey,Peaster,77.61,97.52,81.65,131.54,310.71,Single-ply,SBD,M
Boys,82.1,18,Brian Chapa,Castleberry,78.2,115.67,61.23,124.74,301.64,Single-ply,SBD,M
Boys,82.1,DQ,Christian Carter,Northwest Nelson,79.74,179.17,,,,Single-ply,SBD,M
Boys,89.81,1,Lio Garcia,Stephenville,87.36,183.7,142.88,204.12,530.7,Single-ply,SBD,M
Boys,89.81,2,Ragan Wood,Stephenville,85.82,219.99,124.74,179.17,523.9,Single-ply,SBD,M
Boys,89.81,3,Tristen Sosa,Wichita Falls,86.41,201.85,124.74,190.51,517.1,Single-ply,SBD,M
Boys,89.81,4,Spencer Garcia,Wichita Falls City View,88.27,183.7,104.33,195.04,483.08,Single-ply,SBD,M
Boys,89.81,5,Nick Guidry,Northwest Nelson,87.36,183.7,115.67,165.56,464.93,Single-ply,SBD,M
Boys,89.81,6,Mike Galindo,Chico,87.18,172.37,95.25,185.97,453.59,Single-ply,SBD,M
Boys,89.81,7,Jason Escobedo,Lake Worth,88.09,174.63,104.33,167.83,446.79,Single-ply,SBD,M
Boys,89.81,8,Hunter Bagley,Iowa Park,89.27,161.03,102.06,181.44,444.52,Single-ply,SBD,M
Boys,89.81,9,Lucas Ramsey,Perrin-Whitt,88.31,174.63,95.25,163.29,433.18,Single-ply,SBD,M
Boys,89.81,10,Coleton Spradley,Krum,88.45,140.61,97.52,185.97,424.11,Single-ply,SBD,M
Boys,89.81,11,Mason Chapa,Castleberry,89.36,161.03,90.72,172.37,424.11,Single-ply,SBD,M
Boys,89.81,12,Corey Duffy,Justin Northwest,86.45,158.76,111.13,147.42,417.3,Single-ply,SBD,M
Boys,89.81,13,Logan Ramsey,Perrin-Whitt,87.41,158.76,99.79,149.69,408.23,Single-ply,SBD,M
Boys,89.81,14,Sebastian Hernandez,Castleberry,85.64,156.49,77.11,158.76,392.36,Single-ply,SBD,M
Boys,89.81,15,Devin Lummus,Godley,88.9,149.69,92.99,127.01,369.68,Single-ply,SBD,M
Boys,89.81,16,Tristan Barbare,Perrin-Whitt,87.91,136.08,81.65,145.15,362.87,Single-ply,SBD,M
Boys,89.81,17,Cole Hall,Perrin-Whitt,84.55,136.08,77.11,147.42,360.61,Single-ply,SBD,M
Boys,89.81,18,Isaiah Magana,Krum,85.82,111.13,81.65,156.49,349.27,Single-ply,SBD,M
Boys,89.81,19,Trent Thibault,Mineral Wells,84.91,113.4,77.11,136.08,326.59,Single-ply,SBD,M
Boys,89.81,20,Hector Zargosa,Chico,85.64,104.33,77.11,136.08,317.51,Single-ply,SBD,M
Boys,89.81,DQ,Nick Denton,Archer City,86.91,120.2,,,,Single-ply,SBD,M
Boys,89.81,DQ,Abel Barboza,Castleberry,87.27,192.78,,,,Single-ply,SBD,M
Boys,89.81,DQ,Aubrey Beverly,Lake Worth,83.1,102.06,,120.2,,Single-ply,SBD,M
Boys,89.81,DQ,Kody Wages,Millsap,83.1,163.29,,176.9,,Single-ply,SBD,M
Boys,99.79,1,Andrew Rodriguez,Wichita Falls City View,96.25,231.33,149.69,210.92,591.94,Single-ply,SBD,M
Boys,99.79,2,Dylan Michecoby,Wichita Falls Rider,97.89,181.44,111.13,195.04,487.61,Single-ply,SBD,M
Boys,99.79,3,Tyler Kindig,Wichita Falls Rider,92.08,185.97,97.52,167.83,451.32,Single-ply,SBD,M
Boys,99.79,4,David Garcia,Mineral Wells,95.71,174.63,99.79,165.56,439.98,Single-ply,SBD,M
Boys,99.79,5,Cody Armstrong,Chico,94.44,181.44,88.45,158.76,428.64,Single-ply,SBD,M
Boys,99.79,6,JR Gipson,Krum,98.07,147.42,92.99,181.44,421.84,Single-ply,SBD,M
Boys,99.79,7,Channing Hamilton,Paradise,90.72,165.56,102.06,140.61,408.23,Single-ply,SBD,M
Boys,99.79,8,Colt Ryle,Paradise,95.44,142.88,97.52,129.27,369.68,Single-ply,SBD,M
Boys,99.79,9,Jeremy Ansley,Lake Worth,91.53,138.35,83.91,142.88,365.14,Single-ply,SBD,M
Boys,99.79,10,Michael Robinson,Millsap,93.89,90.72,68.04,120.2,278.96,Single-ply,SBD,M
Boys,99.79,11,Brian Woody,Justin Northwest,95.89,77.11,61.23,104.33,242.67,Single-ply,SBD,M
Boys,99.79,DQ,Zac Marks,Justin Northwest,94.08,106.59,,136.08,,Single-ply,SBD,M
Boys,99.79,DQ,Zac Newman,Justin Northwest,94.08,,81.65,115.67,,Single-ply,SBD,M
Boys,99.79,DQ,Austin Davenport,Archer City,93.89,,,,,Single-ply,SBD,M
Boys,109.77,1,Ronnie Killen,Wichita Falls City View,106.41,238.14,124.74,251.74,614.62,Single-ply,SBD,M
Boys,109.77,2,Guillermo Parham,Wichita Falls Rider,103.33,249.48,147.42,195.04,591.94,Single-ply,SBD,M
Boys,109.77,3,Diamond Cardona,Godley,106.87,219.99,136.08,231.33,587.4,Single-ply,SBD,M
Boys,109.77,4,Jacob Boyd,Mineral Wells,109.13,195.04,154.22,195.04,544.31,Single-ply,SBD,M
Boys,109.77,5,Tyler Jennings,Bridgeport,106.05,195.04,151.95,188.24,535.24,Single-ply,SBD,M
Boys,109.77,6,Chance Pierce,Bridgeport,104.14,172.37,131.54,224.53,528.44,Single-ply,SBD,M
Boys,109.77,7,Matthew Dotson,Northwest Nelson,106.68,199.58,136.08,190.51,526.17,Single-ply,SBD,M
Boys,109.77,8,Deric Conner,Paradise,107.68,206.38,149.69,170.1,526.17,Single-ply,SBD,M
Boys,109.77,9,Johnny Morales,Mineral Wells,102.51,158.76,136.08,204.12,498.95,Single-ply,SBD,M
Boys,109.77,10,Logan Sloniger,Northwest Nelson,107.77,199.58,106.59,185.97,492.15,Single-ply,SBD,M
Boys,109.77,11,Ramon Guerra,Wichita Falls City View,100.79,201.85,104.33,176.9,483.08,Single-ply,SBD,M
Boys,109.77,12,Aaron Hite,Mineral Wells,107.59,190.51,117.93,165.56,474,Single-ply,SBD,M
Boys,109.77,13,Anthony Castillo,Castleberry,100.33,172.37,92.99,158.76,424.11,Single-ply,SBD,M
Boys,109.77,14,Trace Coe,Mineral Wells,102.87,163.29,102.06,158.76,424.11,Single-ply,SBD,M
Boys,109.77,15,John Salazar,Chico,106.41,163.29,86.18,172.37,421.84,Single-ply,SBD,M
Boys,109.77,16,Justin Dominguez,Mineral Wells,107.86,158.76,102.06,145.15,405.97,Single-ply,SBD,M
Boys,109.77,17,Blake Boyd,Bridgeport,109.13,158.76,83.91,129.27,371.95,Single-ply,SBD,M
Boys,109.77,18,Cole Green,Justin Northwest,100.24,136.08,90.72,136.08,362.87,Single-ply,SBD,M
Boys,109.77,19,Joseph Crouse,Archer City,106.68,127.01,81.65,136.08,344.73,Single-ply,SBD,M
Boys,109.77,DQ,Freddy Arvisu,Castleberry,101.33,208.65,,190.51,,Single-ply,SBD,M
Boys,109.77,DQ,Jed Martin,Krum,109.77,165.56,86.18,,,Single-ply,SBD,M
Boys,109.77,DQ,Tyson Robison,Stephenville,100.88,136.08,102.06,,,Single-ply,SBD,M
Boys,124.74,1,Justin Self,Northwest Nelson,124.1,260.82,149.69,219.99,630.49,Single-ply,SBD,M
Boys,124.74,2,Bronson Burks,Bridgeport,121.65,249.48,138.35,235.87,623.69,Single-ply,SBD,M
Boys,124.74,3,Austin Northcutt,Stephenville,116.39,229.06,129.27,235.87,594.21,Single-ply,SBD,M
Boys,124.74,4,Tanner Edwards,Paradise,113.58,238.14,145.15,181.44,564.72,Single-ply,SBD,M
Boys,124.74,5,Zach Andrews,Northwest Nelson,122.38,195.04,124.74,158.76,478.54,Single-ply,SBD,M
Boys,124.74,6,Andrew Fry,Wichita Falls Rider,118.66,183.7,104.33,163.29,451.32,Single-ply,SBD,M
Boys,124.74,7,Joseph Lindley,Mineral Wells,115.85,158.76,108.86,147.42,415.04,Single-ply,SBD,M
Boys,124.74,8,Nate Ramirez,Bridgeport,111.86,156.49,97.52,158.76,412.77,Single-ply,SBD,M
Boys,124.74,DQ,Shawn Wheat,Northwest Nelson,113.58,,,,,Single-ply,SBD,M
Boys,124.74+,1,Ryan Ford,Wichita Falls City View,140.84,215.46,120.2,206.38,542.04,Single-ply,SBD,M
Boys,124.74+,2,Jacob Venable,Wichita Falls,130.91,181.44,104.33,170.1,455.86,Single-ply,SBD,M
Boys,124.74+,DQ,Jacob Lopez,Stephenville,140.34,183.7,,192.78,,Single-ply,SBD,M
Boys,124.74+,DQ,Riley Russell,Millsap,129.55,,,,,Single-ply,SBD,M
Boys,124.74+,DQ,Luis Ramos,Northwest Nelson,131.36,158.76,,,,Single-ply,SBD,M
Boys,124.74+,DQ,Trouper Arnold,Northwest Nelson,125.01,181.44,,,,Single-ply,SBD,M
Boys,124.74+,DQ,Collin Partridge,Wichita Falls Rider,140.52,,,,,Single-ply,SBD,M
