Division,WeightClassKg,Place,Name,Team,BodyweightKg,Best3SquatKg,Best3BenchKg,Best3DeadliftKg,TotalKg,Equipment,Event,Sex
Boys,51.71,1,Cade Janecek,East Bernard,50.98,111.13,54.43,108.86,274.42,Single-ply,SBD,M
Boys,51.71,DQ,Nathaniel Harmon,Clute Brazoswood,49.99,,47.63,104.33,,Single-ply,SBD,M
Boys,55.79,1,D'Orean Steamer,Freeport Brazosport,55.79,117.93,72.57,140.61,331.12,Single-ply,SBD,M
Boys,55.79,2,Lorenzo Garza,Freeport Brazosport,55.25,108.86,77.11,108.86,294.84,Single-ply,SBD,M
Boys,55.79,3,Matt Cunningham,Freeport Brazosport,55.79,120.2,61.23,113.4,294.84,Single-ply,SBD,M
Boys,55.79,4,Travis Salias,Pasadena Rayburn,55.52,102.06,58.97,102.06,263.08,Single-ply,SBD,M
Boys,59.87,1,Caide Brewer,Sweeny,57.97,133.81,97.52,138.35,369.68,Single-ply,SBD,M
Boys,59.87,2,Brody Reinecke,East Bernard,59.87,129.27,65.77,147.42,342.46,Single-ply,SBD,M
Boys,59.87,3,Bryan Lara,Alvin Shadow Creek,59.15,113.4,74.84,151.95,340.19,Single-ply,SBD,M
Boys,59.87,4,Alain Yaptangco,Alvin Shadow Creek,59.87,83.91,52.16,106.59,242.67,Single-ply,SBD,M
Boys,67.13,1,Elias Arcia,Sweeny,64.41,181.44,136.08,185.97,503.49,Single-ply,SBD,M
Boys,67.13,2,Robert Martinez,West Columbia,67.13,188.24,108.86,188.24,485.34,Single-ply,SBD,M
Boys,67.13,3,Regie Marges,Alvin Shadow Creek,67.13,145.15,99.79,195.04,439.98,Single-ply,SBD,M
Boys,67.13,4,Richard Salazar,West Columbia,66.22,142.88,115.67,174.63,433.18,Single-ply,SBD,M
Boys,67.13,5,Gregory James,Galveston Ball,66.13,145.15,83.91,165.56,394.63,Single-ply,SBD,M
Boys,67.13,6,Grant Crawford,Alvin Shadow Creek,67.13,140.61,86.18,142.88,369.68,Single-ply,SBD,M
Boys,67.13,7,Sam Coker,East Bernard,66.5,136.08,63.5,136.08,335.66,Single-ply,SBD,M
Boys,67.13,8,Noah Burton,Alvin Shadow Creek,60.78,120.2,83.91,115.67,319.78,Single-ply,SBD,M
Boys,67.13,9,Geavon Evans,Galveston Ball,63.78,113.4,65.77,129.27,308.44,Single-ply,SBD,M
Boys,67.13,10,Angel Reyes,Pasadena Rayburn,67.13,106.59,72.57,124.74,303.91,Single-ply,SBD,M
Boys,67.13,11,Nathan Neely,Clute Brazoswood,61.6,142.88,92.99,58.97,294.84,Single-ply,SBD,M
Boys,67.13,12,Clayton Gallaugher,Alvin Shadow Creek,65.5,142.88,92.99,58.97,294.84,Single-ply,SBD,M
Boys,67.13,DQ,Robert Ellis,Galveston Ball,64.5,,,,,Single-ply,SBD,M
Boys,74.84,1,Pristine Hysten,Sweeny,74.84,183.7,117.93,190.51,492.15,Single-ply,SBD,M
Boys,74.84,2,Alex Villareal,Freeport Brazosport,74.03,188.24,111.13,181.44,480.81,Single-ply,SBD,M
Boys,74.84,3,Jarod Pearson,Clute Brazoswood,73.21,183.7,108.86,183.7,476.27,Single-ply,SBD,M
Boys,74.84,4,Wai Kaung,Galveston Ball,73.94,170.1,92.99,195.04,458.13,Single-ply,SBD,M
Boys,74.84,5,Keegan Anderson,West Columbia,72.76,161.03,117.93,163.29,442.25,Single-ply,SBD,M
Boys,74.84,6,Chris West,Clute Brazoswood,74.03,154.22,88.45,165.56,408.23,Single-ply,SBD,M
Boys,74.84,7,David Zavala,East Bernard,74.84,151.95,74.84,161.03,387.82,Single-ply,SBD,M
Boys,74.84,8,NIgel Ashton,Galveston Ball,67.86,113.4,72.57,185.97,371.95,Single-ply,SBD,M
Boys,74.84,9,Kolby Rivera,East Bernard,71.03,145.15,70.31,154.22,369.68,Single-ply,SBD,M
Boys,74.84,10,Wilhelm Tampo,Alvin Shadow Creek,68.13,102.06,68.04,136.08,306.17,Single-ply,SBD,M
Boys,74.84,11,Nathan Dandoy,Alvin Shadow Creek,71.3,102.06,79.38,124.74,306.17,Single-ply,SBD,M
Boys,74.84,12,David Garcia,Galveston Ball,71.03,88.45,68.04,102.06,258.55,Single-ply,SBD,M
Boys,74.84,DQ,Stephen Morales,Hitchcock,73.12,,113.4,,,Single-ply,SBD,M
Boys,82.1,1,Micah Bumgarner,Hitchcock,82.1,213.19,129.27,204.12,546.58,Single-ply,SBD,M
Boys,82.1,2,Joshua Pena,Hitchcock,81.28,183.7,120.2,222.26,526.17,Single-ply,SBD,M
Boys,82.1,3,Sean Burns,Stafford,75.48,190.51,147.42,183.7,521.63,Single-ply,SBD,M
Boys,82.1,4,Sovanara Kuy,Alvin Shadow Creek,81.74,158.76,106.59,215.46,480.81,Single-ply,SBD,M
Boys,82.1,5,Chris Murrille,East Bernard,79.83,176.9,111.13,170.1,458.13,Single-ply,SBD,M
Boys,82.1,6,Tony Rotramel,Clute Brazoswood,82.1,170.1,95.25,154.22,419.57,Single-ply,SBD,M
Boys,82.1,7,Isiah Lorens,Stafford,75.57,145.15,104.33,156.49,405.97,Single-ply,SBD,M
Boys,82.1,8,Jayson Peters,Alvin Shadow Creek,81.92,151.95,95.25,154.22,401.43,Single-ply,SBD,M
Boys,82.1,9,Nelson Canul,Pasadena Rayburn,81.65,142.88,92.99,149.69,385.55,Single-ply,SBD,M
Boys,82.1,10,Daniel Sánchez,Pasadena Rayburn,76.66,136.08,92.99,149.69,378.75,Single-ply,SBD,M
Boys,82.1,DQ,Logan Page,Sweeny,81.01,208.65,127.01,,,Single-ply,SBD,M
Boys,89.81,1,Juan Cuevas,West Columbia,86.55,176.9,108.86,183.7,469.47,Single-ply,SBD,M
Boys,89.81,2,Tyler Norman,Hitchcock,83.46,138.35,77.11,142.88,358.34,Single-ply,SBD,M
Boys,89.81,3,Joshua Dia,Alvin Shadow Creek,89.81,108.86,95.25,149.69,353.8,Single-ply,SBD,M
Boys,89.81,4,Segio Aragon,Pasadena Rayburn,88.09,115.67,81.65,136.08,333.39,Single-ply,SBD,M
Boys,89.81,5,Edwin Diaz,Pasadena Rayburn,83.01,102.06,79.38,149.69,331.12,Single-ply,SBD,M
Boys,89.81,DQ,Brett Bible,Sweeny,88.63,170.1,127.01,,,Single-ply,SBD,M
Boys,99.79,1,Joey Avalos,Manvel,94.08,238.14,163.29,242.67,644.1,Single-ply,SBD,M
Boys,99.79,2,Brady Byrd,Sweeny,98.34,249.48,142.88,219.99,612.35,Single-ply,SBD,M
Boys,99.79,3,Ken Savanah,Stafford,95.62,219.99,158.76,231.33,610.08,Single-ply,SBD,M
Boys,99.79,4,Kelvon York-Norman,Hitchcock,93.44,272.16,113.4,219.99,605.55,Single-ply,SBD,M
Boys,99.79,5,Kody Gums,Stafford,95.71,208.65,142.88,240.4,591.94,Single-ply,SBD,M
Boys,99.79,6,Braden Davis,West Columbia,98.97,210.92,165.56,206.38,582.87,Single-ply,SBD,M
Boys,99.79,7,Ben Sandoval,East Bernard,90.9,238.14,120.2,210.92,569.26,Single-ply,SBD,M
Boys,99.79,8,Hogan Ashford,Sweeny,92.9,197.31,111.13,183.7,492.15,Single-ply,SBD,M
Boys,99.79,9,Luke Trevino,East Bernard,95.53,197.31,138.35,149.69,485.34,Single-ply,SBD,M
Boys,99.79,10,Chancellor Burford,Alvin Shadow Creek,95.8,142.88,120.2,204.12,467.2,Single-ply,SBD,M
Boys,99.79,11,Devin Bowen,East Bernard,99.25,197.31,95.25,149.69,442.25,Single-ply,SBD,M
Boys,99.79,12,Jose Carrizales Garcia,Alvin Shadow Creek,97.61,151.95,88.45,183.7,424.11,Single-ply,SBD,M
Boys,99.79,13,Kevin Garza,Pasadena Rayburn,96.07,142.88,102.06,161.03,405.97,Single-ply,SBD,M
Boys,109.77,1,Nic Nail,Sweeny,108.14,226.8,176.9,244.94,648.64,Single-ply,SBD,M
Boys,109.77,2,James Cobb,Sweeny,109.68,238.14,140.61,217.72,596.47,Single-ply,SBD,M
Boys,109.77,3,Sebastian Carrier,Stafford,102.06,151.95,127.01,215.46,494.42,Single-ply,SBD,M
Boys,109.77,4,Rafael Martinez,West Columbia,108.77,183.7,111.13,179.17,474,Single-ply,SBD,M
Boys,109.77,5,Pedro Campos,Pasadena Rayburn,104.24,149.69,104.33,151.95,405.97,Single-ply,SBD,M
Boys,109.77,6,Ryan Zeigler,Galveston Ball,106.23,129.27,74.84,142.88,347,Single-ply,SBD,M
Boys,124.74,1,Randy Robertson,Freeport Brazosport,111.86,233.6,140.61,226.8,601.01,Single-ply,SBD,M
Boys,124.74,2,Alex Zavala,Clute Brazoswood,114.4,219.99,138.35,222.26,580.6,Single-ply,SBD,M
Boys,124.74,3,Cruz Soria,Freeport Brazosport,118.57,226.8,158.76,147.42,532.97,Single-ply,SBD,M
Boys,124.74,4,Dylan Hughes,Alvin Shadow Creek,119.02,185.97,115.67,199.58,501.22,Single-ply,SBD,M
Boys,124.74,5,Jacob Jiminez,Stafford,124.01,195.04,140.61,163.29,498.95,Single-ply,SBD,M
Boys,124.74,6,Raul Tavares,East Bernard,113.67,226.8,115.67,154.22,496.68,Single-ply,SBD,M
Boys,124.74,7,Gavin Smith,Hitchcock,115.12,215.46,113.4,158.76,487.61,Single-ply,SBD,M
Boys,124.74,8,Michael Gonsalves,Clute Brazoswood,118.84,183.7,106.59,183.7,474,Single-ply,SBD,M
Boys,124.74,9,Bryan Torres,Pasadena Rayburn,117.39,174.63,113.4,183.7,471.74,Single-ply,SBD,M
Boys,124.74,10,Casen Ivy,East Bernard,118.12,183.7,99.79,176.9,460.4,Single-ply,SBD,M
Boys,124.74,11,Gabriel Trevino,Pasadena Rayburn,111.77,151.95,92.99,172.37,417.3,Single-ply,SBD,M
Boys,124.74,DQ,Arman Chowdhury,Sweeny,115.67,,,,,Single-ply,SBD,M
Boys,124.74+,1,Mikel Richey,Clute Brazoswood,130,217.72,154.22,231.33,603.28,Single-ply,SBD,M
Boys,124.74+,2,Bennie Moore,Freeport Brazosport,146.06,226.8,136.08,226.8,589.67,Single-ply,SBD,M
Boys,124.74+,3,Lance McLaren,Sweeny,128.19,201.85,131.54,197.31,530.7,Single-ply,SBD,M
Boys,124.74+,4,Mikal Bryan,Hitchcock,144.7,201.85,113.4,190.51,505.76,Single-ply,SBD,M
Boys,124.74+,5,Adrian Vega,Pasadena Rayburn,132.9,183.7,113.4,185.97,483.08,Single-ply,SBD,M
Boys,124.74+,6,Manny Galindo,Freeport Brazosport,148.14,172.37,115.67,163.29,451.32,Single-ply,SBD,M
Boys,124.74+,7,Shimir Lewis,Freeport Brazosport,181.89,158.76,115.67,170.1,444.52,Single-ply,SBD,M
Boys,124.74+,DQ,Demarius Countee,Manvel,147.78,272.16,163.29,,,Single-ply,SBD,M
