Division,WeightClassKg,Place,Name,Team,BodyweightKg,Best3SquatKg,Best3BenchKg,Best3DeadliftKg,TotalKg,Equipment,Event,Sex
Freshmen,51.71,1,Hector Lozano,Laredo United South,49.9,81.65,56.7,115.67,254.01,Single-ply,SBD,M
Freshmen,55.79,2,Juan Martinez,Laredo United South,51.85,99.79,47.63,95.25,242.67,Single-ply,SBD,M
Freshmen,51.71,3,Nelson Carmona,Laredo Martin,44.27,65.77,43.09,104.33,213.19,Single-ply,SBD,M
Freshmen,59.87,1,Jonathan Vedia,Bruni,55.84,106.59,65.77,122.47,294.84,Single-ply,SBD,M
Freshmen,59.87,2,Justin Delgadillo,Laredo Martin,55.84,88.45,52.16,111.13,251.74,Single-ply,SBD,M
Freshmen,59.87,1,Gregorio Abundis,Laredo United South,59.78,117.93,68.04,165.56,351.53,Single-ply,SBD,M
Freshmen,59.87,DQ,Maclovio Gomez,Zapata,58.69,,,,,Single-ply,SBD,M
Freshmen,67.13,1,Jonathan Ramirez,Bruni,62.23,136.08,79.38,127.01,342.46,Single-ply,SBD,M
Freshmen,67.13,2,Rico Barrientos,Laredo Alexander,62.64,117.93,72.57,131.54,322.05,Single-ply,SBD,M
Freshmen,67.13,3,Alexis Villanueva,Laredo United,61.51,102.06,70.31,120.2,292.57,Single-ply,SBD,M
Freshmen,67.13,4,Rene Cabrera,Laredo Cigarroa,62.6,115.67,63.5,113.4,292.57,Single-ply,SBD,M
Freshmen,67.13,5,Erasto Trevino,Laredo Nixon,64.77,106.59,56.7,124.74,288.03,Single-ply,SBD,M
Freshmen,74.84,6,Jose Martinez,Laredo Johnson,67.36,102.06,58.97,120.2,281.23,Single-ply,SBD,M
Freshmen,67.13,7,Pablo Osorio,Laredo United,61.1,79.38,63.5,129.27,272.16,Single-ply,SBD,M
Freshmen,67.13,8,Luis Hernandez,Laredo United South,61.51,90.72,47.63,127.01,265.35,Single-ply,SBD,M
Freshmen,67.13,9,Raul Solis,Laredo Cigarroa,66.86,86.18,45.36,117.93,249.48,Single-ply,SBD,M
Freshmen,74.84,1,Jordan Perez,Laredo United South,71.76,124.74,77.11,142.88,344.73,Single-ply,SBD,M
Freshmen,74.84,2,David De Luna,Laredo United South,73.62,120.2,72.57,145.15,337.93,Single-ply,SBD,M
Freshmen,74.84,3,Fernie Cruz,Laredo Alexander,72.21,113.4,79.38,142.88,335.66,Single-ply,SBD,M
Freshmen,74.84,4,John Brooks,Laredo Martin,74.84,111.13,81.65,142.88,335.66,Single-ply,SBD,M
Freshmen,74.84,5,Eddie McCoy,Laredo Nixon,74.39,124.74,72.57,133.81,331.12,Single-ply,SBD,M
Freshmen,74.84,6,Jesse Boutwell,Laredo Alexander,69.4,104.33,74.84,138.35,317.51,Single-ply,SBD,M
Freshmen,74.84,7,Oscar Trevino,Laredo Nixon,72.94,104.33,70.31,133.81,308.44,Single-ply,SBD,M
Freshmen,74.84,8,David Martinez,Laredo United South,70.13,99.79,56.7,142.88,299.37,Single-ply,SBD,M
Freshmen,74.84,9,Eddie Alarcon,Laredo Nixon,69.67,106.59,65.77,117.93,290.3,Single-ply,SBD,M
Freshmen,82.1,10,Calvin Pena,Laredo Nixon,75.07,83.91,45.36,111.13,240.4,Single-ply,SBD,M
Freshmen,82.1,1,Rafael Estevis,Laredo United South,80.65,122.47,102.06,181.44,405.97,Single-ply,SBD,M
Freshmen,82.1,2,Luis Hernandez,Laredo Nixon,81.37,138.35,79.38,167.83,385.55,Single-ply,SBD,M
Freshmen,82.1,3,Mercy Hernandez,Laredo Alexander,75.84,124.74,88.45,158.76,371.95,Single-ply,SBD,M
Freshmen,82.1,4,Mathew Guzman,Laredo Nixon,79.74,138.35,83.91,149.69,371.95,Single-ply,SBD,M
Freshmen,82.1,5,Gilbert Arredondo,Laredo United South,78.88,117.93,83.91,151.95,353.8,Single-ply,SBD,M
Freshmen,82.1,6,Gilbert Meza,Laredo United,78.93,108.86,81.65,136.08,326.59,Single-ply,SBD,M
Freshmen,82.1,7,Elmer Garza,Laredo United,78.24,99.79,47.63,102.06,249.48,Single-ply,SBD,M
Freshmen,89.81,1,Mauricio Gutierrez,Laredo Alexander,87.95,147.42,111.13,176.9,435.45,Single-ply,SBD,M
Freshmen,89.81,2,Jonathan Rodriguez,Laredo Nixon,82.64,161.03,79.38,181.44,421.84,Single-ply,SBD,M
Freshmen,89.81,3,Juan Cisneros,Laredo Johnson,84.05,163.29,97.52,156.49,417.3,Single-ply,SBD,M
Freshmen,89.81,4,Eloy E Soto,Laredo Cigarroa,82.42,149.69,86.18,151.95,387.82,Single-ply,SBD,M
Freshmen,109.77,1,Jonathan Guzman,Roma,99.93,195.04,88.45,195.04,478.54,Single-ply,SBD,M
Freshmen,99.79,2,Amando Castillo,Laredo Alexander,97.75,147.42,102.06,183.7,433.18,Single-ply,SBD,M
Freshmen,99.79,3,Eduardo Dominguez,Laredo United,95.44,145.15,74.84,145.15,365.14,Single-ply,SBD,M
Freshmen,99.79,4,Max Ramos,Laredo Johnson,93.8,120.2,61.23,145.15,326.59,Single-ply,SBD,M
Freshmen,99.79,5,Frank Ramos,Laredo Nixon,98.97,115.67,61.23,140.61,317.51,Single-ply,SBD,M
Freshmen,109.77,1,Josh Beltran,Laredo Martin,103.28,133.81,88.45,161.03,383.29,Single-ply,SBD,M
Freshmen,109.77,2,Andrew Servin,Laredo Cigarroa,105.14,115.67,90.72,120.2,326.59,Single-ply,SBD,M
Freshmen,124.74,1,Carlos Sanchez,Laredo United South,114.21,172.37,99.79,185.97,458.13,Single-ply,SBD,M
Freshmen,124.74,2,Fernando Guevara,Laredo Johnson,112.4,145.15,72.57,181.44,399.16,Single-ply,SBD,M
Freshmen,124.74,3,David Alejandres,Laredo United South,112.76,133.81,88.45,172.37,394.63,Single-ply,SBD,M
Freshmen,124.74,4,Raul Gomez,Laredo Cigarroa,118.02,92.99,63.5,127.01,283.5,Single-ply,SBD,M
Freshmen,124.74,DQ,Ramiro Soliz,Falfurrias,121.97,,,,,Single-ply,SBD,M
Freshmen,124.74+,1,Sergio Rodriguez #5,Laredo United,141.97,172.37,95.25,161.03,428.64,Single-ply,SBD,M
Freshmen,124.74+,2,Jesus Lopez,Laredo United,126.19,124.74,95.25,167.83,387.82,Single-ply,SBD,M
Freshmen,124.74+,3,Isaac Paredes,Laredo United South,151,140.61,74.84,136.08,351.53,Single-ply,SBD,M
Freshmen,,NS,Juan Palomo,Laredo United,,,,,,Single-ply,SBD,M
Freshmen,,NS,Oscar Almanza,Laredo United,,,,,,Single-ply,SBD,M
Freshmen,,NS,Aaron Campos,Laredo United,,,,,,Single-ply,SBD,M
Freshmen,,NS,Isaac Ramos,Bruni,,,,,,Single-ply,SBD,M
Freshmen,,NS,Victor Mejia,Bruni,,,,,,Single-ply,SBD,M
Freshmen,,NS,Christian Perez,Falfurrias,,,,,,Single-ply,SBD,M
Freshmen,,NS,Anthony Flores,Falfurrias,,,,,,Single-ply,SBD,M
Freshmen,,NS,Martin Castillo,Laredo Johnson,,,,,,Single-ply,SBD,M
Freshmen,,NS,Marcos Casas,Laredo Johnson,,,,,,Single-ply,SBD,M
Freshmen,,NS,Joel Garza,Laredo Johnson,,,,,,Single-ply,SBD,M
Freshmen,,NS,Mario Fuentes,Laredo Martin,,,,,,Single-ply,SBD,M
Boys,51.71,1,Hector Villegas,Roma,51.39,158.76,81.65,167.83,408.23,Single-ply,SBD,M
Boys,51.71,2,Pablo Vez Jr,Laredo Cigarroa,51.07,108.86,61.23,133.81,303.91,Single-ply,SBD,M
Boys,51.71,3,Niklas Rosell,Laredo Alexander,46.99,104.33,52.16,111.13,267.62,Single-ply,SBD,M
Boys,55.79,1,Roger Lozano,Roma,55.57,142.88,90.72,172.37,405.97,Single-ply,SBD,M
Boys,55.79,2,Josh Baez,Falfurrias,55.2,142.88,90.72,151.95,385.55,Single-ply,SBD,M
Boys,55.79,3,Diego Cantu,Roma,54.7,142.88,68.04,158.76,369.68,Single-ply,SBD,M
Boys,55.79,4,Cesar Esquivel,Laredo Cigarroa,55.34,145.15,58.97,165.56,369.68,Single-ply,SBD,M
Boys,59.87,5,Jake Gutierrez,Zapata,55.97,129.27,83.91,149.69,362.87,Single-ply,SBD,M
Boys,55.79,6,Jesus Trevino,Zapata,55.16,122.47,72.57,158.76,353.8,Single-ply,SBD,M
Boys,55.79,7,Anthony Sanchez,Falfurrias,55.43,124.74,77.11,136.08,337.93,Single-ply,SBD,M
Boys,59.87,8,Luis Garza,Laredo Nixon,55.88,102.06,65.77,136.08,303.91,Single-ply,SBD,M
Boys,59.87,1,Jerry Alaniz,Laredo Alexander,59.01,240.4,131.54,213.19,585.13,Single-ply,SBD,M
Boys,59.87,2,Eric Oliva,Laredo United South,57.97,183.7,108.86,192.78,485.34,Single-ply,SBD,M
Boys,59.87,3,Jonathan Pena,Laredo United South,58.83,163.29,102.06,174.63,439.98,Single-ply,SBD,M
Boys,59.87,4,Marcos Casas,Falfurrias,59.56,147.42,92.99,170.1,410.5,Single-ply,SBD,M
Boys,59.87,5,Juan Carmona,Laredo Nixon,59.87,124.74,77.11,154.22,356.07,Single-ply,SBD,M
Boys,59.87,6,Fidel Quiroz,Laredo United,59.87,127.01,72.57,142.88,342.46,Single-ply,SBD,M
Boys,67.13,1,David Lopez,Laredo United South,64.68,204.12,138.35,229.06,571.53,Single-ply,SBD,M
Boys,67.13,2,Elijio Montalvo,Falfurrias,66.86,204.12,129.27,219.99,553.38,Single-ply,SBD,M
Boys,74.84,3,Cesar Alfaro,Laredo United South,67.22,201.85,142.88,208.65,553.38,Single-ply,SBD,M
Boys,67.13,4,Jesus Gomez,Roma,67.09,170.1,108.86,199.58,478.54,Single-ply,SBD,M
Boys,67.13,5,Danny Hernandez,Laredo Nixon,66.04,158.76,88.45,199.58,446.79,Single-ply,SBD,M
Boys,67.13,6,Ramon Huerta,Falfurrias,66.68,133.81,83.91,188.24,405.97,Single-ply,SBD,M
Boys,67.13,7,Adrian Garcia,Roma,67,167.83,81.65,154.22,403.7,Single-ply,SBD,M
Boys,67.13,8,Albert Estrada,Laredo Martin,65.14,129.27,115.67,138.35,383.29,Single-ply,SBD,M
Boys,67.13,9,Leroy Sustaita,Laredo Martin,66.22,147.42,72.57,147.42,367.41,Single-ply,SBD,M
Boys,67.13,10,Jose Rodriguez,Laredo Nixon,63.05,111.13,68.04,124.74,303.91,Single-ply,SBD,M
Boys,82.1,1,Edgar Trejo,Laredo United South,75.07,190.51,122.47,208.65,521.63,Single-ply,SBD,M
Boys,74.84,2,Eric Estrada,Roma,67.49,161.03,113.4,167.83,442.25,Single-ply,SBD,M
Boys,74.84,3,Jose Luis Fuentes,Laredo United,72.85,156.49,90.72,165.56,412.77,Single-ply,SBD,M
Boys,74.84,4,Raul Cabrera,Laredo Cigarroa,73.44,127.01,90.72,167.83,385.55,Single-ply,SBD,M
Boys,74.84,5,Danny DeLeon,Laredo Nixon,70.31,129.27,77.11,154.22,360.61,Single-ply,SBD,M
Boys,74.84,6,Lucas Mora,Falfurrias,71.12,120.2,70.31,165.56,356.07,Single-ply,SBD,M
Boys,82.1,7,Norman Madrigal,Laredo Johnson,75.07,113.4,81.65,149.69,344.73,Single-ply,SBD,M
Boys,74.84,8,Alfredo Trejo,Laredo Johnson,73.94,111.13,61.23,136.08,308.44,Single-ply,SBD,M
Boys,74.84,DQ,Felipe Ramirez,Laredo Johnson,74.03,195.04,,,,Single-ply,SBD,M
Boys,74.84,DQ,Albert Rodriguez,Laredo Johnson,74.48,,,,,Single-ply,SBD,M
Boys,82.1,1,Marco DeLuna,Laredo United South,80.47,208.65,136.08,210.92,555.65,Single-ply,SBD,M
Boys,82.1,2,Frank Garcia,Laredo Martin,81.47,210.92,106.59,208.65,526.17,Single-ply,SBD,M
Boys,82.1,3,Anthony Garza,Falfurrias,77.11,183.7,106.59,231.33,521.63,Single-ply,SBD,M
Boys,82.1,4,Randy Aguilar,Laredo Johnson,80.56,158.76,88.45,165.56,412.77,Single-ply,SBD,M
Boys,82.1,5,Joe Albert Rodriguez,Laredo Johnson,77.2,151.95,74.84,172.37,399.16,Single-ply,SBD,M
Boys,82.1,6,Robert De La Vega,Laredo United,78.38,133.81,90.72,174.63,399.16,Single-ply,SBD,M
Boys,82.1,7,Federico Villarreal,Laredo Martin,76.88,133.81,79.38,183.7,396.89,Single-ply,SBD,M
Boys,82.1,8,Javier Botello,Laredo Nixon,80.65,131.54,88.45,172.37,392.36,Single-ply,SBD,M
Boys,82.1,9,Jose Mena,Laredo United,81.1,108.86,95.25,183.7,387.82,Single-ply,SBD,M
Boys,82.1,10,Jesus Orozco,Laredo Johnson,80.29,136.08,79.38,149.69,365.14,Single-ply,SBD,M
Boys,82.1,11,Genaro Chavez,Laredo Johnson,77.56,102.06,65.77,149.69,317.51,Single-ply,SBD,M
Boys,82.1,DQ,Randal Hinojosa,Laredo Alexander,80.01,,,,,Single-ply,SBD,M
Boys,82.1,DQ,Jaime Hinojosa,Laredo Alexander,81.06,,,,,Single-ply,SBD,M
Boys,82.1,DQ,Dylan Vasquez,Falfurrias,76.48,,,,,Single-ply,SBD,M
Boys,82.1,DQ,Felipe Hernández,Laredo United,82.01,231.33,,,,Single-ply,SBD,M
Boys,89.81,DQ,Daniel Briones,Laredo United South,82.33,,,,,Single-ply,SBD,M
Boys,89.81,1,Andrew Garza,Falfurrias,88.99,215.46,136.08,226.8,578.33,Single-ply,SBD,M
Boys,99.79,2,Jonathan Vela,Roma,89.9,217.72,136.08,215.46,569.26,Single-ply,SBD,M
Boys,89.81,3,Victor Ramos,Laredo United South,82.92,208.65,117.93,226.8,553.38,Single-ply,SBD,M
Boys,89.81,4,Jose Anaya,Laredo United South,87,181.44,97.52,199.58,478.54,Single-ply,SBD,M
Boys,89.81,5,Pedro Diaz,Laredo Alexander,83.91,183.7,124.74,156.49,464.93,Single-ply,SBD,M
Boys,99.79,1,Mark Duron,Laredo Martin,98.25,272.16,165.56,244.94,682.66,Single-ply,SBD,M
Boys,99.79,2,Marco Banda,Laredo Nixon,96.25,260.82,142.88,247.21,650.91,Single-ply,SBD,M
Boys,99.79,3,Paul Gonzalez,Laredo United South,99.25,233.6,151.95,235.87,621.42,Single-ply,SBD,M
Boys,99.79,4,Israel Claudio,Laredo Cigarroa,97.25,210.92,127.01,231.33,569.26,Single-ply,SBD,M
Boys,99.79,5,Silvestre Bustamante,Zapata,98.7,210.92,140.61,195.04,546.58,Single-ply,SBD,M
Boys,99.79,6,Joseph Guerra,Laredo Alexander,95.53,208.65,145.15,185.97,539.77,Single-ply,SBD,M
Boys,99.79,7,Rodrigo Saldivar,Zapata,96.8,183.7,124.74,192.78,501.22,Single-ply,SBD,M
Boys,99.79,8,David Luna,Laredo Johnson,92.67,183.7,108.86,183.7,476.27,Single-ply,SBD,M
Boys,99.79,9,Danny Cardona,Laredo United,97.61,163.29,111.13,192.78,467.2,Single-ply,SBD,M
Boys,99.79,10,Lucio Melo,Zapata,99.25,185.97,88.45,185.97,460.4,Single-ply,SBD,M
Boys,99.79,11,Valentin Palomares,Laredo Johnson,96.25,195.04,70.31,181.44,446.79,Single-ply,SBD,M
Boys,99.79,12,Jordy Velasquez,Laredo Johnson,95.25,147.42,92.99,176.9,417.3,Single-ply,SBD,M
Boys,99.79,13,Miguel Davila,Falfurrias,96.52,151.95,102.06,163.29,417.3,Single-ply,SBD,M
Boys,99.79,DQ,Eduardo Lopez,Laredo Johnson,94.89,,,,,Single-ply,SBD,M
Boys,109.77,1,Santos Alvarado,Laredo United,109.04,258.55,154.22,217.72,630.49,Single-ply,SBD,M
Boys,109.77,2,Elhim Hernandez,Laredo United,109.23,249.48,154.22,210.92,614.62,Single-ply,SBD,M
Boys,109.77,3,Christian Rosas,Laredo Alexander,106.05,231.33,145.15,224.53,601.01,Single-ply,SBD,M
Boys,109.77,4,Victor Nenque,Laredo Nixon,107.23,208.65,115.67,192.78,517.1,Single-ply,SBD,M
Boys,109.77,5,Gabriel Martinez,Laredo Nixon,102.51,201.85,104.33,199.58,505.76,Single-ply,SBD,M
Boys,109.77,6,Orly Rodriguez,Laredo Cigarroa,102.38,190.51,108.86,188.24,487.61,Single-ply,SBD,M
Boys,109.77,7,Jose Barbarena,Laredo Nixon,103.06,170.1,102.06,170.1,442.25,Single-ply,SBD,M
Boys,109.77,8,Jorge Rodriguez,Zapata,107.41,133.81,79.38,158.76,371.95,Single-ply,SBD,M
Boys,109.77,DQ,Bobby Garza,Falfurrias,101.15,181.44,,,,Single-ply,SBD,M
Boys,124.74,1,Jose Flores,Laredo Cigarroa,124.33,265.35,158.76,265.35,689.46,Single-ply,SBD,M
Boys,124.74,2,Ruben Hinojosa,Roma,124.6,251.74,122.47,226.8,601.01,Single-ply,SBD,M
Boys,124.74,3,Manuel Navarro,Zapata,123.92,233.6,147.42,199.58,580.6,Single-ply,SBD,M
Boys,124.74,4,Jacob Chapa,Bruni,111.9,233.6,124.74,204.12,562.45,Single-ply,SBD,M
Boys,124.74,5,Justin Hernandez,Laredo Nixon,123.1,233.6,113.4,208.65,555.65,Single-ply,SBD,M
Boys,124.74,6,Jerry Gonzalez,Laredo Nixon,124.47,199.58,124.74,195.04,519.36,Single-ply,SBD,M
Boys,124.74,DQ,Frank Moreno,Zapata,123.01,294.84,154.22,,,Single-ply,SBD,M
Boys,124.74+,1,Rudy Flores,Laredo United South,138.53,283.5,170.1,260.82,714.41,Single-ply,SBD,M
Boys,124.74+,2,Eduardo Sanchez,Zapata,139.53,249.48,158.76,215.46,623.69,Single-ply,SBD,M
Boys,124.74+,3,Jerry Urdiales,Laredo Nixon,137.53,208.65,115.67,222.26,546.58,Single-ply,SBD,M
Boys,124.74+,4,Hector Velasquez,Laredo Johnson,139.53,161.03,104.33,188.24,453.59,Single-ply,SBD,M
Boys,,NS,Leo Esparza,Laredo Martin,,,,,,Single-ply,SBD,M
Boys,,NS,Alvaro Ramos,Laredo Johnson,,,,,,Single-ply,SBD,M
Boys,,NS,Jonathan Valdez,Laredo Johnson,,,,,,Single-ply,SBD,M
Boys,,NS,Benito Orozco,Laredo Martin,,,,,,Single-ply,SBD,M
Boys,,NS,Juan Gonzalez,Laredo Martin,,,,,,Single-ply,SBD,M
Boys,,NS,Jorge Martinez,Laredo United,,,,,,Single-ply,SBD,M
Boys,,NS,Kiki Riojas,Laredo United,,,,,,Single-ply,SBD,M
Boys,,NS,Juan Gonzalez,Laredo United,,,,,,Single-ply,SBD,M
Boys,,NS,Mario Torres,Laredo Johnson,,,,,,Single-ply,SBD,M
