Division,WeightClassKg,Place,Name,Team,BodyweightKg,Best3SquatKg,Best3BenchKg,Best3DeadliftKg,TotalKg,Equipment,Event,Sex
Boys,51.71,1,Tyler Hessler,Victoria Memorial,42.18,56.7,43.09,72.57,172.37,Single-ply,SBD,M
Boys,55.79,1,Connor Cross,Cuero,55.07,124.74,63.5,131.54,319.78,Single-ply,SBD,M
Boys,67.13,1,Dillon Rhodes,Center Point,65.59,145.15,70.31,151.95,367.41,Single-ply,SBD,M
Boys,74.84,2,Colton Davis,Cuero,67.31,131.54,83.91,138.35,353.8,Single-ply,SBD,M
Boys,67.13,3,Troy Langlinais,Goliad,66.41,115.67,83.91,138.35,337.93,Single-ply,SBD,M
Boys,67.13,4,Joe Alvarado,Victoria Memorial,62.6,102.06,88.45,142.88,333.39,Single-ply,SBD,M
Boys,67.13,5,Rex Marin,Victoria Memorial,64.5,106.59,74.84,151.95,333.39,Single-ply,SBD,M
Boys,67.13,6,Dustin Boniface,Goliad,63.05,122.47,74.84,129.27,326.59,Single-ply,SBD,M
Boys,67.13,DQ,Daniel de la Garza,Victoria Memorial,64.18,97.52,,,,Single-ply,SBD,M
Boys,74.84,1,Bill Rodriquez,Cuero,71.67,147.42,70.31,154.22,371.95,Single-ply,SBD,M
Boys,74.84,2,Brandon Brewer,Cuero,71.3,142.88,83.91,142.88,369.68,Single-ply,SBD,M
Boys,74.84,3,Michael Schaefer,Luling,73.48,102.06,68.04,142.88,312.98,Single-ply,SBD,M
Boys,74.84,4,Rey Castro,Goliad,74.62,113.4,81.65,117.93,312.98,Single-ply,SBD,M
Boys,74.84,5,Trapper Hooten,Center Point,74.84,111.13,68.04,111.13,290.3,Single-ply,SBD,M
Boys,74.84,DQ,Lemuel Ramirez,Center Point,73.26,136.08,79.38,,,Single-ply,SBD,M
Boys,82.1,DQ,Ryan Berger,Goliad,74.89,115.67,90.72,,,Single-ply,SBD,M
Boys,82.1,1,Nathan Budd,Vanderbilt Industrial,79.83,147.42,74.84,154.22,376.48,Single-ply,SBD,M
Boys,82.1,2,Jordan Branum,Vanderbilt Industrial,79.15,149.69,86.18,127.01,362.87,Single-ply,SBD,M
Boys,82.1,3,Calvert Camacho,Goliad,79.65,124.74,88.45,124.74,337.93,Single-ply,SBD,M
Boys,89.81,1,Mark Alvarez,Goliad,88.09,131.54,95.25,149.69,376.48,Single-ply,SBD,M
Boys,89.81,DQ,Dalton Peck,Luling,89.58,145.15,79.38,,,Single-ply,SBD,M
Boys,99.79,1,Orlando Ordonez,Luling,97.98,163.29,111.13,165.56,439.98,Single-ply,SBD,M
Boys,99.79,2,Cole Stevenson,Cuero,96.62,151.95,104.33,145.15,401.43,Single-ply,SBD,M
Boys,109.77,1,Bryan Ruiz,Luling,100.92,197.31,104.33,181.44,483.08,Single-ply,SBD,M
Boys,109.77,2,Javon Thomas,Cuero,103.87,217.72,104.33,158.76,480.81,Single-ply,SBD,M
Boys,109.77,3,David Guthrie,Center Point,102.06,188.24,106.59,151.95,446.79,Single-ply,SBD,M
Boys,109.77,4,Hudson Hass,Cuero,108.64,142.88,68.04,131.54,342.46,Single-ply,SBD,M
Boys,109.77,5,Michael Ramirez,Luling,108.41,92.99,92.99,142.88,328.85,Single-ply,SBD,M
Boys,124.74,1,Luke Stevenson,Cuero,115.67,181.44,113.4,158.76,453.59,Single-ply,SBD,M
Boys,124.74,DQ,John Cardosa,Goliad,113.31,,,,,Single-ply,SBD,M
Boys,124.74+,DQ,Kevin Camacho,Goliad,130.45,,,,,Single-ply,SBD,M
