Name,Age,Sex,Division,Equipment,BodyweightKg,WeightClassKg,Squat1Kg,Squat2Kg,Squat3Kg,Best3SquatKg,Bench1Kg,Bench2Kg,Bench3Kg,Best3BenchKg,Deadlift1Kg,Deadlift2Kg,Deadlift3Kg,Best3DeadliftKg,TotalKg,Event,Place
Abhinay Settipal,25,M,M_O_R_BPU,Raw,67.5,67.5,,,,,,,,,-237.5,-237.5,,,,D,DQ
Adrian McKinnon,31,M,M_O_R_BPU,Raw,89.3,90,,,,,,,,,260,-270,-270,260,260,D,3
Alex Thompson-Carse,15,M,M_T1_R_BPU,Raw,80.6,82.5,,,,,,,,,175,190,-200,190,190,D,1
Alexander Clarke,27,M,M_O_R_BPU,Raw,131.4,140,,,,,,,,,335,365,370,370,370,D,1
Alison Booker,30,F,F_O_R_ABPU,Raw,52.9,56,,,,,,,,,110,117.5,125,125,125,D,1
Alistair Thompson-Carse,43,M,M_M1_R_ABPU,Raw,109.3,110,,,,,,,,,250,272.5,-285,272.5,272.5,D,1
Andrew Nicholson,22,M,M_O_R_BPU,Raw,79.1,82.5,,,,,,,,,190,200,205,205,205,D,3
Andy Bolton,47,M,M_M2_R_BPU,Raw,136.9,140,,,,,,,,,290,330,382.5,382.5,382.5,D,1
Andy Cairney,38,M,M_O_R_BPU,Raw,130.5,140,,,,,,,,,335,345,-355,345,345,D,2
Anthony Wagstaff,30,M,M_O_R_BPU,Raw,101.6,110,,,,,,,,,210,225,-235,225,225,D,3
Ashleigh Smails,34,F,F_O_R_BPU,Raw,105.1,90+,,,,,,,,,-80,80,85,85,85,D,3
Bill Pittock,30,M,M_O_R_BPU,Raw,124.5,125,,,,,,,,,260,280,-290,280,280,D,1
Brett Brooks,25,M,M_O_R_BPU,Raw,123.5,125,,,,,,,,,255,265,-272.5,265,265,D,2
Brian Reynolds,46,M,M_M2_R_BPU,Raw,105.8,110,,,,,,,,,272.5,302.5,-322.5,302.5,302.5,D,1
Charlotte Brass,19,F,F_T3_R_BPU,Raw,70.2,75,,,,,,,,,85,97.5,-102.5,97.5,97.5,D,1
Chris Etherington,35,M,M_O_R_BPU,Raw,89.3,90,,,,,,,,,180,200,207.5,207.5,207.5,D,6
Craig Prickett,23,M,M_O_R_BPU,Raw,83.1,90,,,,,,,,,200,222.5,-230,222.5,222.5,D,5
Daisy Rivetti,29,F,F_O_R_BPU,Raw,67.5,67.5,,,,,,,,,-130,130,-140,130,130,D,3
Daniel Milverton,35,M,M_O_R_BPU,Raw,101.4,110,,,,,,,,,250,280,-310,280,280,D,1
Darren Caesar,38,M,M_O_R_BPU,Raw,80.9,82.5,,,,,,,,,270,280,-290,280,280,D,1
Darren Mccarrol,51,M,M_O_R_BPU,Raw,116.9,125,,,,,,,,,260,280,-290,280,280,D,1
Darryl Triance,40,M,M_M1_R_BPU,Raw,89.9,90,,,,,,,,,242.5,255,-262.5,255,255,D,1
David Hickey,37,M,M_O_R_BPU,Raw,87.7,90,,,,,,,,,180,195,-202.5,195,195,D,8
David Mattison,32,M,M_O_R_BPU,Raw,113.6,125,,,,,,,,,220,240,-255,240,240,D,3
Dayle Longford,27,M,M_O_R_BPU,Raw,89.7,90,,,,,,,,,300,-325,-325,300,300,D,1
Dean Caldwell,43,M,M_M1_R_BPU,Raw,120.6,125,,,,,,,,,280,-300,-300,280,280,D,1
Delroy McQueen,41,M,M_M1_R_BPU,Raw,113.5,125,,,,,,,,,365,380,-390,380,380,D,1
Denis Katoru,32,M,M_O_R_BPU,Raw,86.6,90,,,,,,,,,250,272.5,-277.5,272.5,272.5,D,2
Donna Moore,37,F,F_O_R_BPU,Raw,102.6,90+,,,,,,,,,220,235,-247.5,235,235,D,1
Gary Croft,36,M,M_O_R_BPU,Raw,108.7,110,,,,,,,,,260,280,-290,280,280,D,2
Gillian Millward,36,F,F_O_R_BPU,Raw,74.1,75,,,,,,,,,95,-110,-110,95,95,D,1
Graham Mattison,37,M,M_O_R_BPU,Raw,127.8,140,,,,,,,,,220,250,-260,250,250,D,3
Hannah Venn-Munns,30,F,F_O_R_ABPU,Raw,78.9,82.5,,,,,,,,,130,137.5,-145,137.5,137.5,D,1
Ioana Lighean,27,F,F_O_R_BPU,Raw,76.5,82.5,,,,,,,,,80,90,100,100,100,D,3
Jack Tipper,23,M,M_O_R_BPU,Raw,139.9,140,,,,,,,,,230,240,-250,240,240,D,4
James Williams #11,26,M,M_O_R_BPU,Raw,89.7,90,,,,,,,,,225,245,-260,245,245,D,4
Jane Stevenson,41,F,F_M1_R_BPU,Raw,65.7,67.5,,,,,,,,,180,190,-195,190,190,D,1
Jim Nuttall,34,M,M_O_R_BPU,Raw,112.8,125,,,,,,,,,-350,-350,,,,D,DQ
John Corcoran,29,M,M_O_R_BPU,Raw,81.4,82.5,,,,,,,,,205,220,-232.5,220,220,D,2
John Pollard,47,M,M_M2_R_BPU,Raw,129.5,140,,,,,,,,,210,230,-240,230,230,D,1
Jon May,26,M,M_O_R_BPU,Raw,100,100,,,,,,,,,260,280,-290,280,280,D,1
Jonathan Vermeuen,23,M,M_O_R_BPU,Raw,88.9,90,,,,,,,,,245,270,275,275,275,D,1
Jordan Weston,23,M,M_O_R_BPU,Raw,97.8,100,,,,,,,,,255,272.5,-282.5,272.5,272.5,D,2
Karalyn Shaw,29,F,F_O_R_BPU,Raw,65.3,67.5,,,,,,,,,115,122.5,-130,122.5,122.5,D,1
Ken Hardaker,47,M,M_M2_R_ABPU,Raw,87.2,90,,,,,,,,,215,240,-255,240,240,D,1
Kevin McGreggor,37,M,M_O_R_BPU,Raw,115.4,125,,,,,,,,,170,190,210,210,210,D,4
Killian Prendeville,18,M,M_T3_R_BPU,Raw,88.1,90,,,,,,,,,270,-285,-290,270,270,D,1
Kyle Short,26,M,M_O_R_BPU,Raw,115.7,125,,,,,,,,,240,260,267.5,267.5,267.5,D,2
Kyle Vine,30,M,M_O_R_BPU,Raw,87.2,90,,,,,,,,,165,170,172.5,172.5,172.5,D,9
Laura Smith,42,F,F_M1_R_ABPU,Raw,70,75,,,,,,,,,132.5,142.5,-147.5,142.5,142.5,D,1
Lee Hayward,34,M,M_O_R_BPU,Raw,89.5,90,,,,,,,,,190,200,-210,200,200,D,7
Liam Jones,36,M,M_O_R_BPU,Raw,140.3,140+,,,,,,,,,-272.5,272.5,282.5,282.5,282.5,D,1
Lisa Simmonette,26,F,F_O_R_BPU,Raw,96.4,90+,,,,,,,,,150,165,172.5,172.5,172.5,D,2
Lisa Yates,36,F,F_O_R_BPU,Raw,110.5,90+,,,,,,,,,205,212.5,-220,212.5,212.5,D,1
Lucas Piatka,17,M,M_T2_R_BPU,Raw,85.1,90,,,,,,,,,170,-185,-185,170,170,D,1
Luke Corcoran,28,M,M_O_R_ABPU,Raw,88.5,90,,,,,,,,,220,230,-240,230,230,D,1
Marcus Kay,21,M,M_O_R_BPU,Raw,106.6,110,,,,,,,,,280,300,305,305,305,D,1
Marian Lighean,37,M,M_O_R_BPU,Raw,136.7,140,,,,,,,,,275,-305,-305,275,275,D,1
Mathew Connor,44,M,M_M1_R_BPU,Raw,95,100,,,,,,,,,290,-302.5,-302.5,290,290,D,1
Michael Carroll,19,M,M_T3_R_BPU,Raw,85.1,90,,,,,,,,,180,-200,-200,180,180,D,3
Michelle Ryder,43,F,F_M1_R_BPU,Raw,46.1,48,,,,,,,,,105,115,120,120,120,D,1
Natasha Clarke,32,F,F_O_R_BPU,Raw,65,67.5,,,,,,,,,100,110,122.5,122.5,122.5,D,4
Natasha Oxford,26,F,F_O_R_BPU,Raw,64.9,67.5,,,,,,,,,120,130,-140,130,130,D,2
Neil Hughes,25,M,M_O_R_BPU,Raw,108.1,110,,,,,,,,,-300,-300,,,,D,DQ
Nel Fryzer,26,F,F_O_R_BPU,Raw,53.8,56,,,,,,,,,110,120,-127.5,120,120,D,1
Niel Elliot,46,M,M_M2_R_BPU,Raw,123.8,125,,,,,,,,,290,300,310,310,310,D,1
Oliver Dilley,26,M,M_O_R_ABPU,Raw,107.9,110,,,,,,,,,260,-275,280,280,280,D,1
Pat Griffin,48,M,M_M2_R_BPU,Raw,88.9,90,,,,,,,,,230,245,255,255,255,D,1
Paul Benton,28,M,M_O_R_BPU,Raw,139.6,140,,,,,,,,,-340,-362.5,,,,D,DQ
Paul Collins,46,M,M_M2_R_BPU,Raw,108.9,110,,,,,,,,,225,240,250,250,250,D,2
Phil Bird,30,M,M_O_R_BPU,Raw,107.9,110,,,,,,,,,280,-300,-300,280,280,D,2
Rik Davison,56,M,M_M4_R_BPU,Raw,98.2,100,,,,,,,,,240,255,265,265,265,D,1
Rob Spence,30,M,M_O_R_BPU,Raw,106.5,110,,,,,,,,,250,265,-280,265,265,D,3
Ryan McFarlane,24,M,M_O_R_BPU,Raw,88.8,90,,,,,,,,,220,240,260,260,260,D,3
Sally Marchant-Edge,47,F,F_M2_R_BPU,Raw,79.7,82.5,,,,,,,,,-95,110,-117.5,110,110,D,1
Samantha Short,39,F,F_O_R_BPU,Raw,67.2,67.5,,,,,,,,,110,125,135,135,135,D,1
Samantha Vickers,31,F,F_O_R_ABPU,Raw,72.4,75,,,,,,,,,135,145,-152.5,145,145,D,1
Sandra Dailidyte,29,F,F_O_R_BPU,Raw,76.9,82.5,,,,,,,,,152.5,165,175,175,175,D,2
Sean Revill,19,M,M_T3_R_BPU,Raw,89.3,90,,,,,,,,,220,-245,-245,220,220,D,2
Simon Gee,49,M,M_M2_R_ABPU,Raw,107.6,110,,,,,,,,,240,250,265,265,265,D,1
Simon Reynolds,42,M,M_M1_R_BPU,Raw,103.9,110,,,,,,,,,180,-200,-200,180,180,D,1
Simona Lighean,36,F,F_O_R_BPU,Raw,67.2,67.5,,,,,,,,,85,-95,-100,85,85,D,5
Steven Eldridge,54,M,M_M3_R_BPU,Raw,119.6,125,,,,,,,,,110,135,-145,135,135,D,1
Susan Nijjar,32,F,F_O_R_ABPU,Raw,59,60,,,,,,,,,120,125,135,135,135,D,1
Tom Sheppard,31,M,M_O_R_BPU,Raw,89.7,90,,,,,,,,,260,-270,270,270,270,D,2
Tom Gee #1,,M,M_O_R_BPU,Raw,94.3,100,,,,,,,,,250,270,282.5,282.5,282.5,D,1
Tom Marshall,26,M,M_O_R_BPU,Raw,106,110,,,,,,,,,230,245,-260,245,245,D,4
Tom Shaw,39,M,M_O_R_BPU,Raw,143.3,140+,,,,,,,,,350,360,-370,360,360,D,1
Vasillis Karpouzis,41,M,M_M1_R_BPU,Raw,120.6,125,,,,,,,,,210,220,-230,220,220,D,2
Victoria Havercroft,28,F,F_O_R_BPU,Raw,82.4,82.5,,,,,,,,,175,190,205,205,205,D,1
William Newton,31,M,M_O_R_ABPU,Raw,113.1,125,,,,,,,,,315,335,-350,335,335,D,1
